 START OF MOPAC PROGRAM
 START OF MOPAC FILE
 ####################################
 #                                  #
 #       Start of Input data        #
 #                                  #
 ####################################
 MOPAC_VERSION=22.0.4              
 DATE="Sun Apr 16 04:30:44 2023"
 METHOD=PM6
 TITLE="Geometry optimized using OpenBabel with MMFF94s"
 KEYWORDS=" CHARGE=0 PM6 PRECISE XYZ T=2M MOZYME CUTOFF=9.0 AUX LET GRAD QMMM GEO-OK"
 COMMENTS=""
 ATOM_EL[020]=
  C  N  C  N  C  C  C  C  N  O  O  H  H  H  H  H  H  H  H  H 
 ATOM_CORE[020]=
  4  5  4  5  4  4  4  4  5  6  6  1  1  1  1  1  1  1  1  1 
 ATOM_X:ANGSTROMS[060]=
    0.1699   -0.3156    1.2956
   -0.8967    0.4781    0.9705
   -0.8881    0.5625   -0.3398
    0.1342   -0.1633   -0.8792
    0.8060   -0.7656    0.1597
    1.9658   -1.6806   -0.0447
    1.5540   -3.1612   -0.0899
    0.6264   -3.4171   -1.2890
    2.7613   -4.0138   -0.2179
   -0.6909   -3.2993   -1.0088
    1.0289   -3.6805   -2.4164
    0.4116   -0.5308    2.3293
   -1.5857    1.1249   -0.9466
    0.3351   -0.2560   -1.8674
    2.6780   -1.5263    0.7769
    2.4898   -1.4009   -0.9682
    1.0388   -3.4588    0.8302
    3.1728   -3.8354   -1.1405
    2.4680   -4.9915   -0.2720
   -0.8866   -3.0278   -0.0881
 AO_ATOMINDEX[053]=
  1  1  1  1  2  2  2  2  3  3  3  3  4  4  4  4  5  5  5  5  6  6  6  6  7  7  7  7  8  8  8  8  9  9  9  9 10 10 10 10
 11 11 11 11 12 13 14 15 16 17 18 19 20
 ATOM_SYMTYPE[053]=
  S PX PY PZ  S PX PY PZ  S PX PY PZ  S PX PY PZ  S PX PY PZ  S PX PY PZ  S PX PY PZ  S PX PY PZ  S PX PY PZ  S PX PY PZ
  S PX PY PZ  S  S  S  S  S  S  S  S  S 
 AO_ZETA[053]=
  2.0476  1.7028  1.7028  1.7028  2.3804  1.9992  1.9992  1.9992  2.0476  1.7028
  1.7028  1.7028  2.3804  1.9992  1.9992  1.9992  2.0476  1.7028  1.7028  1.7028
  2.0476  1.7028  1.7028  1.7028  2.0476  1.7028  1.7028  1.7028  2.0476  1.7028
  1.7028  1.7028  2.3804  1.9992  1.9992  1.9992  5.4218  2.2710  2.2710  2.2710
  5.4218  2.2710  2.2710  2.2710  1.2686  1.2686  1.2686  1.2686  1.2686  1.2686
  1.2686  1.2686  1.2686
 ATOM_PQN[053]=
 2 2 2 2 2 2 2 2 2 2 2 2 2 2 2 2 2 2 2 2 2 2 2 2 2 2 2 2 2 2 2 2 2 2 2 2 2 2 2 2
 2 2 2 2 1 1 1 1 1 1 1 1 1
 NUM_ELECTRONS=060
 EMPIRICAL_FORMULA="C6 H9 N3 O2  =    20 atoms"
 ####################################
 #                                  #
 #      Geometry optimization       #
 #                                  #
 ####################################
 HEAT_OF_FORM_UPDATED:KCAL/MOL=-0.484878D+02
 GRADIENT_UPDATED:KCAL/MOL/ANG=+0.162906D+03
 ATOM_X_UPDATED:ANGSTROMS[060]=
    0.1699   -0.3156    1.2956
   -0.8967    0.4781    0.9705
   -0.8881    0.5625   -0.3398
    0.1342   -0.1633   -0.8792
    0.8060   -0.7656    0.1597
    1.9658   -1.6806   -0.0447
    1.5540   -3.1612   -0.0899
    0.6264   -3.4171   -1.2890
    2.7613   -4.0138   -0.2179
   -0.6909   -3.2993   -1.0088
    1.0289   -3.6805   -2.4164
    0.4116   -0.5308    2.3293
   -1.5857    1.1249   -0.9466
    0.3351   -0.2560   -1.8674
    2.6780   -1.5263    0.7769
    2.4898   -1.4009   -0.9682
    1.0388   -3.4588    0.8302
    3.1728   -3.8354   -1.1405
    2.4680   -4.9915   -0.2720
   -0.8866   -3.0278   -0.0881
 HEAT_OF_FORM_UPDATED:KCAL/MOL=-0.291344D+02
 GRADIENT_UPDATED:KCAL/MOL/ANG=+0.390823D+03
 ATOM_X_UPDATED:ANGSTROMS[060]=
    0.1855   -0.3376    1.3632
   -0.9261    0.5023    1.0411
   -0.9454    0.6101   -0.3978
    0.1629   -0.1802   -0.9607
    0.8547   -0.8026    0.1598
    1.9487   -1.6721   -0.0413
    1.5643   -3.1655   -0.0941
    0.6612   -3.4150   -1.3259
    2.7637   -4.0166   -0.2257
   -0.7024   -3.3063   -1.0251
    1.0028   -3.6742   -2.3697
    0.4115   -0.5304    2.3287
   -1.5903    1.1288   -0.9487
    0.3385   -0.2593   -1.8648
    2.6900   -1.5270    0.7868
    2.5005   -1.4003   -0.9752
    1.0302   -3.4588    0.8514
    3.1838   -3.8341   -1.1361
    2.4722   -4.9943   -0.2632
   -0.8917   -3.0238   -0.0797
 HEAT_OF_FORM_UPDATED:KCAL/MOL=-0.311558D+02
 GRADIENT_UPDATED:KCAL/MOL/ANG=+0.328326D+03
 ATOM_X_UPDATED:ANGSTROMS[060]=
    0.1806   -0.3458    1.3538
   -0.9254    0.5164    1.0394
   -0.9383    0.6054   -0.3813
    0.1544   -0.1768   -0.9550
    0.8198   -0.7734    0.1717
    1.9733   -1.6918   -0.0446
    1.5750   -3.1729   -0.0923
    0.6477   -3.3691   -1.2145
    2.7698   -4.0217   -0.2362
   -0.7137   -3.3164   -1.0451
    1.0122   -3.7075   -2.4603
    0.4220   -0.5381    2.3636
   -1.6275    1.1589   -0.9787
    0.3579   -0.2737   -1.9119
    2.7119   -1.5305    0.8007
    2.5209   -1.4014   -0.9845
    1.0183   -3.4559    0.8813
    3.2091   -3.8323   -1.1293
    2.4816   -5.0007   -0.2446
   -0.8976   -3.0192   -0.0773
 HEAT_OF_FORM_UPDATED:KCAL/MOL=-0.423915D+02
 GRADIENT_UPDATED:KCAL/MOL/ANG=+0.261637D+03
 ATOM_X_UPDATED:ANGSTROMS[060]=
    0.1567   -0.3280    1.3005
   -0.8931    0.4956    0.9654
   -0.8904    0.5666   -0.3213
    0.1181   -0.1559   -0.8821
    0.7857   -0.7497    0.1660
    1.9905   -1.6891   -0.0433
    1.5757   -3.1716   -0.0719
    0.6346   -3.3912   -1.2948
    2.7731   -4.0264   -0.2370
   -0.6975   -3.3135   -1.0397
    0.9964   -3.6901   -2.4069
    0.4269   -0.5439    2.3795
   -1.6383    1.1677   -0.9870
    0.3658   -0.2796   -1.9332
    2.7129   -1.5341    0.7965
    2.5237   -1.4038   -0.9813
    1.0249   -3.4533    0.8786
    3.2180   -3.8327   -1.1324
    2.4862   -5.0033   -0.2425
   -0.9038   -3.0208   -0.0878
 HEAT_OF_FORM_UPDATED:KCAL/MOL=-0.445363D+02
 GRADIENT_UPDATED:KCAL/MOL/ANG=+0.197071D+03
 ATOM_X_UPDATED:ANGSTROMS[060]=
    0.1470   -0.3206    1.3323
   -0.8776    0.4687    0.9956
   -0.9282    0.5997   -0.3908
    0.1225   -0.1627   -0.8948
    0.8429   -0.8042    0.1370
    1.9795   -1.6511   -0.0285
    1.5529   -3.1627   -0.0648
    0.6038   -3.4196   -1.3134
    2.7700   -4.0267   -0.2217
   -0.6887   -3.2930   -0.9968
    1.0100   -3.6709   -2.4181
    0.4153   -0.5438    2.3474
   -1.6008    1.1374   -0.9431
    0.3503   -0.2728   -1.8796
    2.7002   -1.5391    0.7760
    2.5165   -1.4107   -0.9586
    1.0556   -3.4467    0.8427
    3.2264   -3.8361   -1.1427
    2.4972   -5.0085   -0.2491
   -0.9070   -3.0312   -0.1320
 HEAT_OF_FORM_UPDATED:KCAL/MOL=-0.409665D+02
 GRADIENT_UPDATED:KCAL/MOL/ANG=+0.252499D+03
 ATOM_X_UPDATED:ANGSTROMS[060]=
    0.2134   -0.3702    1.3411
   -0.9385    0.5168    1.0053
   -0.9220    0.5939   -0.3709
    0.1598   -0.1894   -0.9610
    0.7939   -0.7628    0.1748
    1.9752   -1.6865   -0.0386
    1.5754   -3.1654   -0.1092
    0.6634   -3.4157   -1.2993
    2.7614   -4.0099   -0.2214
   -0.7195   -3.2991   -1.0202
    0.9873   -3.6634   -2.3887
    0.4095   -0.5425    2.3342
   -1.6110    1.1464   -0.9437
    0.3411   -0.2697   -1.8469
    2.7137   -1.5360    0.7892
    2.5263   -1.4120   -0.9586
    1.0495   -3.4480    0.8632
    3.2233   -3.8388   -1.1254
    2.5022   -5.0095   -0.2444
   -0.9183   -3.0223   -0.1111
 HEAT_OF_FORM_UPDATED:KCAL/MOL=-0.425748D+02
 GRADIENT_UPDATED:KCAL/MOL/ANG=+0.231244D+03
 ATOM_X_UPDATED:ANGSTROMS[060]=
    0.1699   -0.3353    1.3354
   -0.9237    0.5235    0.9715
   -0.9028    0.5771   -0.3242
    0.1264   -0.1679   -0.9069
    0.8452   -0.7918    0.1503
    1.9421   -1.6874   -0.0453
    1.5855   -3.1693   -0.1086
    0.6684   -3.3805   -1.2467
    2.7846   -4.0224   -0.2380
   -0.7155   -3.3214   -1.0742
    0.9683   -3.6820   -2.4044
    0.4164   -0.5472    2.3603
   -1.6356    1.1679   -0.9699
    0.3622   -0.2846   -1.9171
    2.7283   -1.5334    0.8066
    2.5422   -1.4063   -0.9710
    1.0350   -3.4464    0.8896
    3.2257   -3.8399   -1.0989
    2.5064   -4.9991   -0.2288
   -0.9326   -3.0060   -0.0678
 HEAT_OF_FORM_UPDATED:KCAL/MOL=-0.392742D+02
 GRADIENT_UPDATED:KCAL/MOL/ANG=+0.285485D+03
 ATOM_X_UPDATED:ANGSTROMS[060]=
    0.1379   -0.3138    1.2789
   -0.8669    0.4742    1.0203
   -0.9202    0.5915   -0.3822
    0.1268   -0.1715   -0.8751
    0.7876   -0.7544    0.1719
    2.0051   -1.6908   -0.0479
    1.5758   -3.1756   -0.0599
    0.6047   -3.3843   -1.2850
    2.7899   -4.0298   -0.2315
   -0.6916   -3.3116   -1.0452
    0.9808   -3.6821   -2.4235
    0.4173   -0.5509    2.3712
   -1.6264    1.1604   -0.9645
    0.3635   -0.2866   -1.9321
    2.7137   -1.5392    0.7917
    2.5412   -1.4063   -0.9662
    1.0458   -3.4433    0.8732
    3.2433   -3.8378   -1.1149
    2.5105   -4.9988   -0.2269
   -0.9335   -3.0136   -0.0985
 HEAT_OF_FORM_UPDATED:KCAL/MOL=-0.453819D+02
 GRADIENT_UPDATED:KCAL/MOL/ANG=+0.176486D+03
 ATOM_X_UPDATED:ANGSTROMS[060]=
    0.1834   -0.3580    1.3586
   -0.9168    0.5025    0.9771
   -0.9167    0.5865   -0.3631
    0.1178   -0.1628   -0.9345
    0.8091   -0.7810    0.1466
    2.0258   -1.6735   -0.0310
    1.5690   -3.1759   -0.0571
    0.6088   -3.4088   -1.3299
    2.7733   -4.0210   -0.2109
   -0.7168   -3.2881   -0.9863
    0.9958   -3.6673   -2.4280
    0.4095   -0.5500    2.3439
   -1.6138    1.1498   -0.9504
    0.3524   -0.2821   -1.8846
    2.6997   -1.5442    0.7744
    2.5367   -1.4087   -0.9589
    1.0614   -3.4435    0.8542
    3.2590   -3.8353   -1.1406
    2.5161   -5.0095   -0.2322
   -0.9287   -3.0281   -0.1512
 HEAT_OF_FORM_UPDATED:KCAL/MOL=-0.456245D+02
 GRADIENT_UPDATED:KCAL/MOL/ANG=+0.212586D+03
 ATOM_X_UPDATED:ANGSTROMS[060]=
    0.1806   -0.3487    1.3001
   -0.9094    0.5004    0.9983
   -0.9274    0.5986   -0.3511
    0.1509   -0.1877   -0.9413
    0.8440   -0.7997    0.1747
    1.9264   -1.6691   -0.0374
    1.5868   -3.1606   -0.1258
    0.6598   -3.4071   -1.2867
    2.7732   -4.0139   -0.2179
   -0.7196   -3.3013   -1.0325
    0.9686   -3.6588   -2.3868
    0.4115   -0.5537    2.3600
   -1.6144    1.1519   -0.9476
    0.3457   -0.2798   -1.8679
    2.7290   -1.5368    0.8072
    2.5479   -1.4095   -0.9651
    1.0474   -3.4486    0.8817
    3.2452   -3.8386   -1.1105
    2.5199   -5.0127   -0.2258
   -0.9398   -3.0136   -0.1114
 HEAT_OF_FORM_UPDATED:KCAL/MOL=-0.406566D+02
 GRADIENT_UPDATED:KCAL/MOL/ANG=+0.236670D+03
 ATOM_X_UPDATED:ANGSTROMS[060]=
    0.1646   -0.3338    1.3536
   -0.8967    0.4998    0.9943
   -0.9096    0.5878   -0.3812
    0.1327   -0.1795   -0.8710
    0.7975   -0.7548    0.1280
    1.9872   -1.7120   -0.0589
    1.5646   -3.1632   -0.0992
    0.6513   -3.3864   -1.2444
    2.8021   -4.0187   -0.2455
   -0.6976   -3.3232   -1.0902
    0.9441   -3.6699   -2.3939
    0.4048   -0.5486    2.3341
   -1.6213    1.1589   -0.9558
    0.3543   -0.2889   -1.9079
    2.7270   -1.5360    0.8090
    2.5447   -1.4075   -0.9549
    1.0479   -3.4422    0.8785
    3.2404   -3.8442   -1.0725
    2.5239   -5.0007   -0.2123
   -0.9556   -2.9949   -0.0670
 HEAT_OF_FORM_UPDATED:KCAL/MOL=-0.434869D+02
 GRADIENT_UPDATED:KCAL/MOL/ANG=+0.236900D+03
 ATOM_X_UPDATED:ANGSTROMS[060]=
    0.1464   -0.3237    1.3058
   -0.8819    0.4822    0.9787
   -0.8998    0.5726   -0.3359
    0.0965   -0.1482   -0.9357
    0.8120   -0.7783    0.1936
    2.0288   -1.6847   -0.0460
    1.5818   -3.1868   -0.0554
    0.6056   -3.3850   -1.2751
    2.7814   -4.0217   -0.2212
   -0.7106   -3.3055   -1.0359
    0.9729   -3.6748   -2.4449
    0.4104   -0.5565    2.3486
   -1.6257    1.1614   -0.9608
    0.3540   -0.2909   -1.9024
    2.7050   -1.5432    0.7850
    2.5460   -1.4062   -0.9560
    1.0600   -3.4394    0.8608
    3.2644   -3.8374   -1.1089
    2.5304   -4.9938   -0.2151
   -0.9508   -3.0079   -0.1118
 HEAT_OF_FORM_UPDATED:KCAL/MOL=-0.445243D+02
 GRADIENT_UPDATED:KCAL/MOL/ANG=+0.194120D+03
 ATOM_X_UPDATED:ANGSTROMS[060]=
    0.1942   -0.3639    1.2957
   -0.9223    0.5056    0.9941
   -0.9352    0.5999   -0.3651
    0.1523   -0.1939   -0.9014
    0.8304   -0.7939    0.1441
    1.9689   -1.6576   -0.0168
    1.5966   -3.1729   -0.0928
    0.6250   -3.4047   -1.3301
    2.7709   -4.0214   -0.1970
   -0.7409   -3.2843   -0.9803
    0.9840   -3.6607   -2.4244
    0.4112   -0.5607    2.3633
   -1.6177    1.1541   -0.9458
    0.3482   -0.2867   -1.9005
    2.7125   -1.5452    0.7857
    2.5555   -1.4040   -0.9720
    1.0594   -3.4452    0.8698
    3.2746   -3.8312   -1.1360
    2.5335   -5.0067   -0.2201
   -0.9424   -3.0219   -0.1582
 HEAT_OF_FORM_UPDATED:KCAL/MOL=-0.451768D+02
 GRADIENT_UPDATED:KCAL/MOL/ANG=+0.232398D+03
 ATOM_X_UPDATED:ANGSTROMS[060]=
    0.1642   -0.3423    1.3591
   -0.8908    0.4877    0.9978
   -0.9203    0.5939   -0.3614
    0.1396   -0.1792   -0.9639
    0.8251   -0.7890    0.1580
    1.9689   -1.6967   -0.0488
    1.5495   -3.1484   -0.1114
    0.6341   -3.4029   -1.2915
    2.8076   -4.0138   -0.2246
   -0.7007   -3.3037   -1.0472
    0.9523   -3.6535   -2.3757
    0.4048   -0.5565    2.3365
   -1.6168    1.1559   -0.9494
    0.3416   -0.2858   -1.8660
    2.7294   -1.5401    0.8091
    2.5507   -1.4073   -0.9546
    1.0538   -3.4456    0.8756
    3.2568   -3.8395   -1.0913
    2.5295   -5.0210   -0.2106
   -0.9550   -3.0026   -0.1072
 HEAT_OF_FORM_UPDATED:KCAL/MOL=-0.402541D+02
 GRADIENT_UPDATED:KCAL/MOL/ANG=+0.268672D+03
 ATOM_X_UPDATED:ANGSTROMS[060]=
    0.1742   -0.3452    1.3148
   -0.8895    0.4920    0.9878
   -0.8839    0.5663   -0.3800
    0.0877   -0.1455   -0.8891
    0.8097   -0.7740    0.1721
    2.0047   -1.6659   -0.0608
    1.5892   -3.2090   -0.0714
    0.6461   -3.3838   -1.2361
    2.7683   -4.0015   -0.2311
   -0.7198   -3.3167   -1.0784
    0.9496   -3.6692   -2.4281
    0.4092   -0.5617    2.3433
   -1.6164    1.1563   -0.9498
    0.3531   -0.2979   -1.9099
    2.7166   -1.5463    0.7962
    2.5474   -1.4105   -0.9388
    1.0595   -3.4390    0.8611
    3.2627   -3.8423   -1.0800
    2.5420   -4.9944   -0.2040
   -0.9660   -2.9893   -0.0793
 HEAT_OF_FORM_UPDATED:KCAL/MOL=-0.421670D+02
 GRADIENT_UPDATED:KCAL/MOL/ANG=+0.255538D+03
 ATOM_X_UPDATED:ANGSTROMS[060]=
    0.1564   -0.3339    1.3021
   -0.8874    0.4853    0.9576
   -0.9451    0.6035   -0.3052
    0.1685   -0.2093   -0.9047
    0.8018   -0.7672    0.1358
    1.9984   -1.6778   -0.0295
    1.5825   -3.1642   -0.0703
    0.6045   -3.3869   -1.2691
    2.7895   -4.0346   -0.2220
   -0.7209   -3.2982   -1.0263
    0.9717   -3.6666   -2.4467
    0.4128   -0.5668    2.3551
   -1.6219    1.1593   -0.9516
    0.3492   -0.2963   -1.9112
    2.7056   -1.5473    0.7819
    2.5565   -1.4033   -0.9585
    1.0602   -3.4409    0.8658
    3.2725   -3.8337   -1.0994
    2.5491   -4.9851   -0.2046
   -0.9594   -3.0024   -0.1223
 HEAT_OF_FORM_UPDATED:KCAL/MOL=-0.386915D+02
 GRADIENT_UPDATED:KCAL/MOL/ANG=+0.327285D+03
 ATOM_X_UPDATED:ANGSTROMS[060]=
    0.1809   -0.3587    1.3216
   -0.9154    0.4996    1.0311
   -0.9311    0.5991   -0.3813
    0.1426   -0.1854   -0.9558
    0.8481   -0.8044    0.1548
    1.9636   -1.6977   -0.0217
    1.5717   -3.1426   -0.1103
    0.6238   -3.4048   -1.3401
    2.7994   -4.0186   -0.2048
   -0.7261   -3.2860   -0.9995
    0.9661   -3.6503   -2.3831
    0.4082   -0.5651    2.3447
   -1.6226    1.1611   -0.9534
    0.3494   -0.2961   -1.8970
    2.7151   -1.5428    0.7941
    2.5631   -1.4018   -0.9690
    1.0558   -3.4466    0.8803
    3.2741   -3.8317   -1.1110
    2.5420   -5.0136   -0.2066
   -0.9551   -3.0104   -0.1492
 HEAT_OF_FORM_UPDATED:KCAL/MOL=-0.504494D+02
 GRADIENT_UPDATED:KCAL/MOL/ANG=+0.134724D+03
 ATOM_X_UPDATED:ANGSTROMS[060]=
    0.1802   -0.3569    1.3375
   -0.8808    0.4793    0.9867
   -0.9200    0.5933   -0.3675
    0.1361   -0.1800   -0.9276
    0.8125   -0.7820    0.1574
    1.9734   -1.6478   -0.0602
    1.5718   -3.2214   -0.1003
    0.6110   -3.3902   -1.2759
    2.7800   -3.9822   -0.2081
   -0.7051   -3.2982   -1.0397
    0.9603   -3.6566   -2.4075
    0.4079   -0.5671    2.3335
   -1.6149    1.1568   -0.9455
    0.3465   -0.2980   -1.8849
    2.7312   -1.5452    0.8140
    2.5565   -1.4116   -0.9463
    1.0589   -3.4447    0.8735
    3.2749   -3.8368   -1.0964
    2.5400   -5.0243   -0.2006
   -0.9672   -2.9968   -0.1189
 HEAT_OF_FORM_UPDATED:KCAL/MOL=-0.401939D+02
 GRADIENT_UPDATED:KCAL/MOL/ANG=+0.268772D+03
 ATOM_X_UPDATED:ANGSTROMS[060]=
    0.1659   -0.3415    1.2877
   -0.8897    0.4843    0.9835
   -0.8903    0.5639   -0.3585
    0.1012   -0.1583   -0.8981
    0.8064   -0.7727    0.1530
    2.0030   -1.6998   -0.0293
    1.5445   -3.1266   -0.0815
    0.6509   -3.3919   -1.2455
    2.8177   -4.0542   -0.2281
   -0.7481   -3.2951   -1.0349
    0.9648   -3.6611   -2.4444
    0.4150   -0.5735    2.3568
   -1.6201    1.1591   -0.9471
    0.3479   -0.3015   -1.8967
    2.7050   -1.5460    0.7858
    2.5581   -1.4062   -0.9548
    1.0629   -3.4450    0.8656
    3.2706   -3.8304   -1.0858
    2.5589   -4.9803   -0.1959
   -0.9663   -2.9945   -0.1164
 HEAT_OF_FORM_UPDATED:KCAL/MOL=-0.530274D+02
 GRADIENT_UPDATED:KCAL/MOL/ANG=+0.912644D+02
 ATOM_X_UPDATED:ANGSTROMS[060]=
    0.1650   -0.3423    1.3093
   -0.9106    0.5007    0.9999
   -0.9177    0.5839   -0.3473
    0.1359   -0.1857   -0.9196
    0.8337   -0.7865    0.1405
    1.9997   -1.7053   -0.0349
    1.6100   -3.1599   -0.0745
    0.6086   -3.3896   -1.2875
    2.7759   -4.0042   -0.2136
   -0.7221   -3.3020   -1.0524
    0.9547   -3.6610   -2.4125
    0.4156   -0.5741    2.3515
   -1.6209    1.1597   -0.9470
    0.3440   -0.2996   -1.9062
    2.6971   -1.5457    0.7804
    2.5567   -1.4062   -0.9548
    1.0593   -3.4458    0.8657
    3.2690   -3.8331   -1.0930
    2.5542   -4.9942   -0.2002
   -0.9672   -2.9902   -0.1064
 HEAT_OF_FORM_UPDATED:KCAL/MOL=-0.442529D+02
 GRADIENT_UPDATED:KCAL/MOL/ANG=+0.201001D+03
 ATOM_X_UPDATED:ANGSTROMS[060]=
    0.1825   -0.3610    1.3349
   -0.8787    0.4729    0.9786
   -0.9264    0.5964   -0.3656
    0.1473   -0.1875   -0.9279
    0.8102   -0.7850    0.1696
    1.9632   -1.6188   -0.0637
    1.5279   -3.2246   -0.1019
    0.6478   -3.3871   -1.3054
    2.8168   -4.0139   -0.2118
   -0.7396   -3.2843   -1.0114
    0.9643   -3.6545   -2.3919
    0.4058   -0.5688    2.3182
   -1.6082    1.1511   -0.9416
    0.3394   -0.2954   -1.8930
    2.7306   -1.5395    0.8180
    2.5628   -1.4114   -0.9523
    1.0601   -3.4449    0.8674
    3.2733   -3.8311   -1.0947
    2.5444   -5.0064   -0.1967
   -0.9582   -3.0008   -0.1467
 HEAT_OF_FORM_UPDATED:KCAL/MOL=-0.532283D+02
 GRADIENT_UPDATED:KCAL/MOL/ANG=+0.934917D+02
 ATOM_X_UPDATED:ANGSTROMS[060]=
    0.1795   -0.3585    1.3225
   -0.8841    0.4761    0.9875
   -0.8998    0.5739   -0.3670
    0.1209   -0.1702   -0.9222
    0.8069   -0.7797    0.1422
    1.9702   -1.6707   -0.0297
    1.5716   -3.1665   -0.1158
    0.5984   -3.3994   -1.2828
    2.7913   -4.0132   -0.1992
   -0.7031   -3.2854   -1.0201
    0.9620   -3.6543   -2.4147
    0.4099   -0.5734    2.3394
   -1.6144    1.1553   -0.9458
    0.3392   -0.2991   -1.8819
    2.7244   -1.5382    0.8075
    2.5680   -1.4072   -0.9658
    1.0526   -3.4511    0.8846
    3.2814   -3.8274   -1.1059
    2.5550   -5.0130   -0.1941
   -0.9628   -2.9968   -0.1411
 HEAT_OF_FORM_UPDATED:KCAL/MOL=-0.459995D+02
 GRADIENT_UPDATED:KCAL/MOL/ANG=+0.160944D+03
 ATOM_X_UPDATED:ANGSTROMS[060]=
    0.1576   -0.3410    1.2920
   -0.9053    0.4951    0.9941
   -0.9286    0.5929   -0.3420
    0.1343   -0.1840   -0.9144
    0.8372   -0.7954    0.1441
    2.0226   -1.7231   -0.0503
    1.5969   -3.1556   -0.0424
    0.6681   -3.3950   -1.2687
    2.7695   -3.9861   -0.2312
   -0.7533   -3.2970   -1.0596
    0.9423   -3.6620   -2.4260
    0.4185   -0.5816    2.3657
   -1.6164    1.1569   -0.9445
    0.3436   -0.3033   -1.9067
    2.6922   -1.5423    0.7818
    2.5476   -1.4084   -0.9368
    1.0662   -3.4410    0.8496
    3.2680   -3.8377   -1.0730
    2.5582   -5.0000   -0.1926
   -0.9744   -2.9808   -0.0970
 HEAT_OF_FORM_UPDATED:KCAL/MOL=-0.529677D+02
 GRADIENT_UPDATED:KCAL/MOL/ANG=+0.981912D+02
 ATOM_X_UPDATED:ANGSTROMS[060]=
    0.1806   -0.3577    1.3097
   -0.9112    0.4991    0.9958
   -0.9174    0.5825   -0.3547
    0.1340   -0.1836   -0.9225
    0.8236   -0.7852    0.1594
    1.9921   -1.6604   -0.0458
    1.5832   -3.1848   -0.0816
    0.6180   -3.3792   -1.2845
    2.7970   -4.0413   -0.2191
   -0.7153   -3.2942   -1.0477
    0.9486   -3.6603   -2.4062
    0.4114   -0.5751    2.3354
   -1.6223    1.1609   -0.9494
    0.3394   -0.3018   -1.9098
    2.7008   -1.5392    0.7891
    2.5577   -1.4070   -0.9498
    1.0559   -3.4427    0.8668
    3.2695   -3.8278   -1.0797
    2.5619   -4.9635   -0.1895
   -0.9726   -2.9829   -0.1101
 HEAT_OF_FORM_UPDATED:KCAL/MOL=-0.455074D+02
 GRADIENT_UPDATED:KCAL/MOL/ANG=+0.167261D+03
 ATOM_X_UPDATED:ANGSTROMS[060]=
    0.1599   -0.3507    1.3413
   -0.8544    0.4513    0.9797
   -0.8968    0.5732   -0.3709
    0.1270   -0.1751   -0.9214
    0.8026   -0.7768    0.1385
    1.9535   -1.6845   -0.0284
    1.5705   -3.1821   -0.1385
    0.6219   -3.3928   -1.2987
    2.7955   -3.9762   -0.1882
   -0.7346   -3.2705   -0.9923
    0.9677   -3.6565   -2.4089
    0.4063   -0.5751    2.3174
   -1.6111    1.1543   -0.9461
    0.3367   -0.3001   -1.8874
    2.7270   -1.5384    0.8118
    2.5767   -1.4041   -0.9759
    1.0500   -3.4508    0.8840
    3.2878   -3.8272   -1.1100
    2.5452   -5.0443   -0.1903
   -0.9594   -2.9986   -0.1649
 HEAT_OF_FORM_UPDATED:KCAL/MOL=-0.515155D+02
 GRADIENT_UPDATED:KCAL/MOL/ANG=+0.112110D+03
 ATOM_X_UPDATED:ANGSTROMS[060]=
    0.1946   -0.3741    1.2993
   -0.9043    0.4902    0.9795
   -0.9105    0.5849   -0.3599
    0.1310   -0.1778   -0.9152
    0.8214   -0.7999    0.1505
    1.9745   -1.6849   -0.0532
    1.5458   -3.1518   -0.0763
    0.6061   -3.4023   -1.2831
    2.8036   -3.9846   -0.2086
   -0.7038   -3.2818   -1.0299
    0.9532   -3.6539   -2.4148
    0.4171   -0.5867    2.3590
   -1.6020    1.1473   -0.9339
    0.3378   -0.3019   -1.8830
    2.7202   -1.5435    0.8107
    2.5598   -1.4097   -0.9494
    1.0617   -3.4483    0.8578
    3.2884   -3.8317   -1.0962
    2.5492   -5.0427   -0.1861
   -0.9668   -2.9861   -0.1313
 HEAT_OF_FORM_UPDATED:KCAL/MOL=-0.476959D+02
 GRADIENT_UPDATED:KCAL/MOL/ANG=+0.150442D+03
 ATOM_X_UPDATED:ANGSTROMS[060]=
    0.1587   -0.3417    1.3176
   -0.9024    0.4894    1.0041
   -0.9219    0.5834   -0.3510
    0.1310   -0.1835   -0.9298
    0.8212   -0.7840    0.1379
    2.0215   -1.6652   -0.0449
    1.6107   -3.1772   -0.0880
    0.6547   -3.3884   -1.2696
    2.7652   -4.0480   -0.2146
   -0.7382   -3.2954   -1.0627
    0.9399   -3.6570   -2.4077
    0.4170   -0.5830    2.3487
   -1.6210    1.1599   -0.9498
    0.3377   -0.3042   -1.9001
    2.6912   -1.5460    0.7790
    2.5488   -1.4108   -0.9391
    1.0554   -3.4464    0.8674
    3.2722   -3.8259   -1.0769
    2.5742   -4.9385   -0.1853
   -0.9739   -2.9723   -0.0932
 HEAT_OF_FORM_UPDATED:KCAL/MOL=-0.533225D+02
 GRADIENT_UPDATED:KCAL/MOL/ANG=+0.861430D+02
 ATOM_X_UPDATED:ANGSTROMS[060]=
    0.1694   -0.3554    1.3189
   -0.8932    0.4859    0.9916
   -0.9087    0.5780   -0.3595
    0.1342   -0.1836   -0.9238
    0.8220   -0.7798    0.1601
    1.9705   -1.6913   -0.0236
    1.5904   -3.1863   -0.0820
    0.6166   -3.3774   -1.2924
    2.8060   -3.9993   -0.2315
   -0.7324   -3.2812   -1.0259
    0.9554   -3.6674   -2.4156
    0.4093   -0.5785    2.3182
   -1.6253    1.1665   -0.9589
    0.3402   -0.3058   -1.9205
    2.7020   -1.5432    0.7922
    2.5743   -1.4014   -0.9730
    1.0548   -3.4402    0.8673
    3.2653   -3.8337   -1.0594
    2.5577   -4.9962   -0.1795
   -0.9689   -2.9818   -0.1311
 HEAT_OF_FORM_UPDATED:KCAL/MOL=-0.470178D+02
 GRADIENT_UPDATED:KCAL/MOL/ANG=+0.138374D+03
 ATOM_X_UPDATED:ANGSTROMS[060]=
    0.1825   -0.3664    1.3111
   -0.8868    0.4713    0.9799
   -0.9126    0.5814   -0.3581
    0.1276   -0.1772   -0.9074
    0.8192   -0.7979    0.1437
    1.9802   -1.6880   -0.0844
    1.5339   -3.1486   -0.1216
    0.6191   -3.3945   -1.2866
    2.7867   -3.9899   -0.1550
   -0.7016   -3.2766   -1.0206
    0.9508   -3.6497   -2.4065
    0.4155   -0.5885    2.3445
   -1.6002    1.1448   -0.9319
    0.3352   -0.3034   -1.8862
    2.7293   -1.5406    0.8207
    2.5530   -1.4124   -0.9393
    1.0639   -3.4531    0.8666
    3.3148   -3.8202   -1.1472
    2.5597   -5.0441   -0.1849
   -0.9618   -2.9845   -0.1420
 HEAT_OF_FORM_UPDATED:KCAL/MOL=-0.551023D+02
 GRADIENT_UPDATED:KCAL/MOL/ANG=+0.517509D+02
 ATOM_X_UPDATED:ANGSTROMS[060]=
    0.1770   -0.3586    1.3090
   -0.8898    0.4766    0.9914
   -0.9049    0.5773   -0.3616
    0.1293   -0.1782   -0.9282
    0.8110   -0.7890    0.1282
    1.9834   -1.6636   -0.0286
    1.5741   -3.1738   -0.0842
    0.6267   -3.4022   -1.2793
    2.7895   -4.0037   -0.2122
   -0.7237   -3.2807   -1.0394
    0.9454   -3.6528   -2.4107
    0.4159   -0.5884    2.3541
   -1.6047    1.1485   -0.9356
    0.3319   -0.3022   -1.8683
    2.7109   -1.5482    0.7957
    2.5636   -1.4085   -0.9556
    1.0570   -3.4458    0.8628
    3.2871   -3.8275   -1.0888
    2.5625   -5.0049   -0.1785
   -0.9661   -2.9752   -0.1197
 HEAT_OF_FORM_UPDATED:KCAL/MOL=-0.464218D+02
 GRADIENT_UPDATED:KCAL/MOL/ANG=+0.150768D+03
 ATOM_X_UPDATED:ANGSTROMS[060]=
    0.1676   -0.3606    1.3260
   -0.8975    0.4897    0.9768
   -0.9360    0.5961   -0.3571
    0.1283   -0.1796   -0.9111
    0.8332   -0.7859    0.1977
    1.9871   -1.7183   -0.0691
    1.6220   -3.1647   -0.0908
    0.6134   -3.3763   -1.2888
    2.7936   -4.0233   -0.2244
   -0.7367   -3.2774   -1.0264
    0.9602   -3.6686   -2.4159
    0.4073   -0.5787    2.3018
   -1.6263    1.1670   -0.9598
    0.3462   -0.3113   -1.9665
    2.7012   -1.5393    0.7978
    2.5613   -1.4075   -0.9447
    1.0456   -3.4433    0.8807
    3.2598   -3.8320   -1.0472
    2.5694   -4.9528   -0.1771
   -0.9654   -2.9756   -0.1333
 HEAT_OF_FORM_UPDATED:KCAL/MOL=-0.549497D+02
 GRADIENT_UPDATED:KCAL/MOL/ANG=+0.545912D+02
 ATOM_X_UPDATED:ANGSTROMS[060]=
    0.1648   -0.3541    1.3075
   -0.9000    0.4871    1.0053
   -0.9060    0.5726   -0.3502
    0.1386   -0.1882   -0.9229
    0.8266   -0.7898    0.1460
    1.9937   -1.6850   -0.0427
    1.5604   -3.1852   -0.1004
    0.6224   -3.3783   -1.2852
    2.7992   -3.9982   -0.2000
   -0.7214   -3.2806   -1.0328
    0.9470   -3.6620   -2.4108
    0.4124   -0.5847    2.3324
   -1.6317    1.1705   -0.9593
    0.3383   -0.3078   -1.9264
    2.7023   -1.5419    0.7903
    2.5646   -1.4037   -0.9566
    1.0607   -3.4416    0.8657
    3.2845   -3.8273   -1.0887
    2.5625   -4.9940   -0.1791
   -0.9654   -2.9732   -0.1266
 HEAT_OF_FORM_UPDATED:KCAL/MOL=-0.480141D+02
 GRADIENT_UPDATED:KCAL/MOL/ANG=+0.129944D+03
 ATOM_X_UPDATED:ANGSTROMS[060]=
    0.1979   -0.3755    1.3214
   -0.8681    0.4571    0.9588
   -0.9156    0.5909   -0.3767
    0.1114   -0.1624   -0.9268
    0.7969   -0.7857    0.1283
    1.9546   -1.6618   -0.0346
    1.5906   -3.1514   -0.0720
    0.6277   -3.4146   -1.2823
    2.7820   -4.0086   -0.2035
   -0.7222   -3.2763   -1.0394
    0.9446   -3.6477   -2.4139
    0.4174   -0.5944    2.3602
   -1.5681    1.1194   -0.9019
    0.3246   -0.2990   -1.8257
    2.7277   -1.5540    0.8115
    2.5668   -1.4120   -0.9543
    1.0592   -3.4503    0.8589
    3.2916   -3.8265   -1.0959
    2.5676   -5.0136   -0.1780
   -0.9652   -2.9687   -0.1150
 HEAT_OF_FORM_UPDATED:KCAL/MOL=-0.560590D+02
 GRADIENT_UPDATED:KCAL/MOL/ANG=+0.288593D+02
 ATOM_X_UPDATED:ANGSTROMS[060]=
    0.1710   -0.3616    1.3116
   -0.8945    0.4784    0.9910
   -0.9068    0.5781   -0.3592
    0.1327   -0.1815   -0.9223
    0.8174   -0.7932    0.1428
    1.9883   -1.6750   -0.0495
    1.5802   -3.1685   -0.0945
    0.6187   -3.3951   -1.2833
    2.7941   -4.0024   -0.2095
   -0.7259   -3.2734   -1.0293
    0.9505   -3.6573   -2.4108
    0.4127   -0.5900    2.3412
   -1.6166    1.1590   -0.9442
    0.3355   -0.3062   -1.8958
    2.7084   -1.5471    0.8000
    2.5576   -1.4116   -0.9432
    1.0515   -3.4482    0.8719
    3.2787   -3.8296   -1.0746
    2.5643   -4.9986   -0.1753
   -0.9626   -2.9711   -0.1309
 HEAT_OF_FORM_UPDATED:KCAL/MOL=-0.519420D+02
 GRADIENT_UPDATED:KCAL/MOL/ANG=+0.987720D+02
 ATOM_X_UPDATED:ANGSTROMS[060]=
    0.1829   -0.3613    1.3113
   -0.8864    0.4809    0.9888
   -0.9288    0.5857   -0.3514
    0.1252   -0.1807   -0.9238
    0.8263   -0.7800    0.1605
    1.9784   -1.7073   -0.0233
    1.5604   -3.1888   -0.0908
    0.6357   -3.3705   -1.2820
    2.7900   -4.0026   -0.1936
   -0.7119   -3.2854   -1.0464
    0.9366   -3.6633   -2.4115
    0.4129   -0.5847    2.3152
   -1.6222    1.1615   -0.9496
    0.3388   -0.3110   -1.9351
    2.7024   -1.5378    0.7854
    2.5835   -1.3928   -0.9871
    1.0734   -3.4332    0.8469
    3.2958   -3.8233   -1.1053
    2.5699   -4.9760   -0.1793
   -0.9651   -2.9627   -0.1109
 HEAT_OF_FORM_UPDATED:KCAL/MOL=-0.563651D+02
 GRADIENT_UPDATED:KCAL/MOL/ANG=+0.115255D+02
 ATOM_X_UPDATED:ANGSTROMS[060]=
    0.1722   -0.3605    1.3122
   -0.8928    0.4786    0.9920
   -0.9094    0.5779   -0.3576
    0.1307   -0.1809   -0.9235
    0.8182   -0.7889    0.1425
    1.9807   -1.6839   -0.0475
    1.5773   -3.1739   -0.0892
    0.6226   -3.3874   -1.2856
    2.7957   -4.0039   -0.2030
   -0.7242   -3.2742   -1.0322
    0.9480   -3.6593   -2.4132
    0.4133   -0.5907    2.3360
   -1.6137    1.1565   -0.9415
    0.3345   -0.3071   -1.8991
    2.7092   -1.5447    0.7990
    2.5658   -1.4074   -0.9547
    1.0563   -3.4446    0.8663
    3.2841   -3.8275   -1.0833
    2.5661   -4.9924   -0.1758
   -0.9633   -2.9664   -0.1241
 HEAT_OF_FORM_UPDATED:KCAL/MOL=-0.552046D+02
 GRADIENT_UPDATED:KCAL/MOL/ANG=+0.568721D+02
 ATOM_X_UPDATED:ANGSTROMS[060]=
    0.1781   -0.3685    1.3079
   -0.8893    0.4763    0.9804
   -0.9192    0.5854   -0.3599
    0.1271   -0.1797   -0.9201
    0.8192   -0.7957    0.1512
    1.9989   -1.6733   -0.0308
    1.5725   -3.1695   -0.1113
    0.6210   -3.3958   -1.2781
    2.7947   -3.9968   -0.2074
   -0.7210   -3.2723   -1.0344
    0.9442   -3.6588   -2.4058
    0.4130   -0.5924    2.3364
   -1.6082    1.1527   -0.9384
    0.3335   -0.3067   -1.8988
    2.6971   -1.5485    0.7859
    2.5590   -1.4135   -0.9475
    1.0511   -3.4488    0.8728
    3.2783   -3.8303   -1.0738
    2.5652   -5.0028   -0.1745
   -0.9608   -2.9645   -0.1269
 HEAT_OF_FORM_UPDATED:KCAL/MOL=-0.564071D+02
 GRADIENT_UPDATED:KCAL/MOL/ANG=+0.500770D+01
 ATOM_X_UPDATED:ANGSTROMS[060]=
    0.1746   -0.3648    1.3116
   -0.8907    0.4767    0.9899
   -0.9113    0.5781   -0.3580
    0.1304   -0.1821   -0.9232
    0.8189   -0.7896    0.1449
    1.9830   -1.6804   -0.0445
    1.5758   -3.1701   -0.0927
    0.6232   -3.3897   -1.2831
    2.7924   -4.0017   -0.2039
   -0.7222   -3.2723   -1.0333
    0.9463   -3.6600   -2.4112
    0.4127   -0.5917    2.3341
   -1.6148    1.1577   -0.9436
    0.3331   -0.3065   -1.8994
    2.7072   -1.5459    0.7965
    2.5631   -1.4096   -0.9522
    1.0567   -3.4451    0.8635
    3.2831   -3.8283   -1.0805
    2.5677   -4.9938   -0.1750
   -0.9610   -2.9635   -0.1259
 HEAT_OF_FORM_UPDATED:KCAL/MOL=-0.563238D+02
 GRADIENT_UPDATED:KCAL/MOL/ANG=+0.131542D+02
 ATOM_X_UPDATED:ANGSTROMS[060]=
    0.1722   -0.3604    1.3107
   -0.8953    0.4788    0.9906
   -0.9124    0.5807   -0.3568
    0.1282   -0.1790   -0.9236
    0.8182   -0.7903    0.1424
    1.9863   -1.6867   -0.0457
    1.5758   -3.1788   -0.0948
    0.6218   -3.3856   -1.2860
    2.7993   -4.0029   -0.2022
   -0.7239   -3.2709   -1.0313
    0.9479   -3.6621   -2.4119
    0.4146   -0.5949    2.3398
   -1.6100    1.1537   -0.9391
    0.3337   -0.3076   -1.9000
    2.7101   -1.5449    0.8003
    2.5660   -1.4070   -0.9562
    1.0542   -3.4444    0.8679
    3.2834   -3.8272   -1.0811
    2.5655   -4.9911   -0.1734
   -0.9618   -2.9605   -0.1239
 HEAT_OF_FORM_UPDATED:KCAL/MOL=-0.564233D+02
 GRADIENT_UPDATED:KCAL/MOL/ANG=+0.249567D+01
 ATOM_X_UPDATED:ANGSTROMS[060]=
    0.1737   -0.3633    1.3115
   -0.8922    0.4768    0.9903
   -0.9113    0.5786   -0.3576
    0.1301   -0.1813   -0.9230
    0.8180   -0.7909    0.1445
    1.9844   -1.6813   -0.0450
    1.5761   -3.1721   -0.0932
    0.6227   -3.3898   -1.2844
    2.7954   -4.0018   -0.2028
   -0.7232   -3.2701   -1.0330
    0.9464   -3.6615   -2.4122
    0.4131   -0.5937    2.3344
   -1.6131    1.1562   -0.9418
    0.3326   -0.3070   -1.9003
    2.7074   -1.5462    0.7970
    2.5646   -1.4088   -0.9541
    1.0550   -3.4450    0.8657
    3.2841   -3.8277   -1.0810
    2.5669   -4.9935   -0.1732
   -0.9612   -2.9596   -0.1241
 HEAT_OF_FORM_UPDATED:KCAL/MOL=-0.564174D+02
 GRADIENT_UPDATED:KCAL/MOL/ANG=+0.454510D+01
 ATOM_X_UPDATED:ANGSTROMS[060]=
    0.1735   -0.3654    1.3107
   -0.8920    0.4752    0.9900
   -0.9110    0.5785   -0.3578
    0.1296   -0.1814   -0.9230
    0.8192   -0.7898    0.1432
    1.9833   -1.6827   -0.0451
    1.5756   -3.1724   -0.0943
    0.6228   -3.3862   -1.2839
    2.7936   -4.0012   -0.2033
   -0.7211   -3.2688   -1.0317
    0.9461   -3.6631   -2.4098
    0.4130   -0.5947    2.3349
   -1.6134    1.1565   -0.9420
    0.3318   -0.3069   -1.8983
    2.7065   -1.5460    0.7959
    2.5633   -1.4090   -0.9521
    1.0562   -3.4443    0.8626
    3.2830   -3.8283   -1.0794
    2.5684   -4.9920   -0.1731
   -0.9590   -2.9577   -0.1272
 HEAT_OF_FORM_UPDATED:KCAL/MOL=-0.564288D+02
 GRADIENT_UPDATED:KCAL/MOL/ANG=+0.217753D+01
 ATOM_X_UPDATED:ANGSTROMS[060]=
    0.1736   -0.3645    1.3112
   -0.8923    0.4755    0.9906
   -0.9115    0.5783   -0.3575
    0.1299   -0.1809   -0.9233
    0.8181   -0.7907    0.1435
    1.9839   -1.6821   -0.0454
    1.5761   -3.1725   -0.0937
    0.6226   -3.3885   -1.2843
    2.7954   -4.0014   -0.2024
   -0.7226   -3.2678   -1.0326
    0.9462   -3.6633   -2.4112
    0.4133   -0.5955    2.3348
   -1.6132    1.1564   -0.9417
    0.3320   -0.3072   -1.9000
    2.7071   -1.5459    0.7966
    2.5643   -1.4087   -0.9535
    1.0551   -3.4446    0.8642
    3.2836   -3.8280   -1.0803
    2.5679   -4.9927   -0.1724
   -0.9592   -2.9555   -0.1254
 HEAT_OF_FORM_UPDATED:KCAL/MOL=-0.564281D+02
 GRADIENT_UPDATED:KCAL/MOL/ANG=+0.336830D+01
 ATOM_X_UPDATED:ANGSTROMS[060]=
    0.1722   -0.3659    1.3115
   -0.8925    0.4756    0.9909
   -0.9110    0.5788   -0.3573
    0.1289   -0.1824   -0.9234
    0.8190   -0.7896    0.1440
    1.9847   -1.6809   -0.0454
    1.5760   -3.1715   -0.0932
    0.6235   -3.3868   -1.2856
    2.7946   -4.0016   -0.2032
   -0.7221   -3.2669   -1.0324
    0.9457   -3.6664   -2.4119
    0.4133   -0.5967    2.3344
   -1.6129    1.1562   -0.9409
    0.3319   -0.3069   -1.9009
    2.7076   -1.5460    0.7971
    2.5652   -1.4086   -0.9545
    1.0537   -3.4453    0.8660
    3.2855   -3.8276   -1.0802
    2.5686   -4.9937   -0.1706
   -0.9601   -2.9517   -0.1249
 HEAT_OF_FORM_UPDATED:KCAL/MOL=-0.564347D+02
 GRADIENT_UPDATED:KCAL/MOL/ANG=+0.212809D+01
 ATOM_X_UPDATED:ANGSTROMS[060]=
    0.1727   -0.3659    1.3110
   -0.8927    0.4749    0.9908
   -0.9116    0.5780   -0.3573
    0.1293   -0.1816   -0.9233
    0.8187   -0.7904    0.1434
    1.9845   -1.6816   -0.0456
    1.5761   -3.1720   -0.0939
    0.6233   -3.3884   -1.2845
    2.7942   -4.0012   -0.2031
   -0.7213   -3.2649   -1.0322
    0.9453   -3.6661   -2.4111
    0.4129   -0.5976    2.3342
   -1.6131    1.1565   -0.9407
    0.3315   -0.3068   -1.9004
    2.7077   -1.5456    0.7970
    2.5651   -1.4085   -0.9542
    1.0545   -3.4447    0.8641
    3.2852   -3.8279   -1.0792
    2.5691   -4.9925   -0.1702
   -0.9591   -2.9497   -0.1266
 HEAT_OF_FORM_UPDATED:KCAL/MOL=-0.564362D+02
 GRADIENT_UPDATED:KCAL/MOL/ANG=+0.280135D+01
 ATOM_X_UPDATED:ANGSTROMS[060]=
    0.1736   -0.3669    1.3107
   -0.8922    0.4735    0.9909
   -0.9115    0.5780   -0.3570
    0.1288   -0.1820   -0.9233
    0.8184   -0.7911    0.1429
    1.9843   -1.6817   -0.0457
    1.5772   -3.1717   -0.0942
    0.6221   -3.3870   -1.2846
    2.7969   -4.0007   -0.2008
   -0.7233   -3.2633   -1.0338
    0.9447   -3.6677   -2.4100
    0.4123   -0.5993    2.3338
   -1.6137    1.1569   -0.9406
    0.3311   -0.3063   -1.8995
    2.7074   -1.5455    0.7959
    2.5646   -1.4087   -0.9532
    1.0550   -3.4439    0.8617
    3.2842   -3.8280   -1.0792
    2.5688   -4.9919   -0.1702
   -0.9562   -2.9450   -0.1277
 HEAT_OF_FORM_UPDATED:KCAL/MOL=-0.564438D+02
 GRADIENT_UPDATED:KCAL/MOL/ANG=+0.134914D+01
 ATOM_X_UPDATED:ANGSTROMS[060]=
    0.1726   -0.3678    1.3109
   -0.8924    0.4737    0.9912
   -0.9117    0.5777   -0.3568
    0.1285   -0.1822   -0.9235
    0.8185   -0.7909    0.1428
    1.9847   -1.6814   -0.0461
    1.5767   -3.1716   -0.0941
    0.6229   -3.3881   -1.2848
    2.7960   -4.0005   -0.2015
   -0.7221   -3.2611   -1.0331
    0.9446   -3.6692   -2.4105
    0.4124   -0.6007    2.3339
   -1.6135    1.1568   -0.9399
    0.3310   -0.3063   -1.9003
    2.7078   -1.5452    0.7961
    2.5653   -1.4084   -0.9540
    1.0544   -3.4441    0.8628
    3.2852   -3.8282   -1.0788
    2.5695   -4.9917   -0.1689
   -0.9562   -2.9409   -0.1278
 HEAT_OF_FORM_UPDATED:KCAL/MOL=-0.564461D+02
 GRADIENT_UPDATED:KCAL/MOL/ANG=+0.220602D+01
 ATOM_X_UPDATED:ANGSTROMS[060]=
    0.1737   -0.3669    1.3108
   -0.8935    0.4717    0.9915
   -0.9118    0.5775   -0.3565
    0.1291   -0.1813   -0.9235
    0.8176   -0.7923    0.1425
    1.9846   -1.6814   -0.0466
    1.5765   -3.1714   -0.0942
    0.6231   -3.3878   -1.2852
    2.7955   -4.0003   -0.2013
   -0.7215   -3.2593   -1.0327
    0.9449   -3.6710   -2.4104
    0.4121   -0.6022    2.3333
   -1.6137    1.1566   -0.9392
    0.3305   -0.3063   -1.9007
    2.7077   -1.5450    0.7955
    2.5657   -1.4080   -0.9547
    1.0539   -3.4441    0.8637
    3.2857   -3.8286   -1.0786
    2.5699   -4.9918   -0.1681
   -0.9559   -2.9357   -0.1279
 HEAT_OF_FORM_UPDATED:KCAL/MOL=-0.564536D+02
 GRADIENT_UPDATED:KCAL/MOL/ANG=+0.145817D+01
 ATOM_X_UPDATED:ANGSTROMS[060]=
    0.1733   -0.3688    1.3104
   -0.8937    0.4706    0.9919
   -0.9126    0.5766   -0.3560
    0.1290   -0.1807   -0.9236
    0.8178   -0.7922    0.1418
    1.9845   -1.6815   -0.0475
    1.5769   -3.1718   -0.0946
    0.6229   -3.3887   -1.2849
    2.7966   -4.0001   -0.2001
   -0.7213   -3.2551   -1.0330
    0.9446   -3.6733   -2.4098
    0.4118   -0.6046    2.3328
   -1.6140    1.1566   -0.9382
    0.3296   -0.3061   -1.9009
    2.7076   -1.5445    0.7946
    2.5657   -1.4077   -0.9553
    1.0536   -3.4436    0.8634
    3.2860   -3.8289   -1.0783
    2.5702   -4.9916   -0.1668
   -0.9540   -2.9272   -0.1290
 HEAT_OF_FORM_UPDATED:KCAL/MOL=-0.564715D+02
 GRADIENT_UPDATED:KCAL/MOL/ANG=+0.175964D+01
 ATOM_X_UPDATED:ANGSTROMS[060]=
    0.1724   -0.3737    1.3096
   -0.8957    0.4650    0.9930
   -0.9140    0.5756   -0.3546
    0.1283   -0.1794   -0.9244
    0.8170   -0.7936    0.1397
    1.9854   -1.6811   -0.0500
    1.5785   -3.1720   -0.0949
    0.6234   -3.3905   -1.2837
    2.7983   -3.9999   -0.1980
   -0.7197   -3.2408   -1.0340
    0.9423   -3.6818   -2.4076
    0.4114   -0.6131    2.3316
   -1.6160    1.1563   -0.9351
    0.3271   -0.3049   -1.9023
    2.7083   -1.5430    0.7924
    2.5658   -1.4074   -0.9580
    1.0540   -3.4421    0.8620
    3.2873   -3.8301   -1.0763
    2.5723   -4.9913   -0.1616
   -0.9470   -2.8989   -0.1342
 HEAT_OF_FORM_UPDATED:KCAL/MOL=-0.564866D+02
 GRADIENT_UPDATED:KCAL/MOL/ANG=+0.205222D+01
 ATOM_X_UPDATED:ANGSTROMS[060]=
    0.1709   -0.3794    1.3084
   -0.8965    0.4607    0.9943
   -0.9170    0.5721   -0.3531
    0.1284   -0.1772   -0.9245
    0.8164   -0.7953    0.1376
    1.9859   -1.6810   -0.0522
    1.5795   -3.1720   -0.0950
    0.6243   -3.3911   -1.2840
    2.7998   -3.9994   -0.1957
   -0.7175   -3.2252   -1.0344
    0.9405   -3.6921   -2.4061
    0.4107   -0.6212    2.3292
   -1.6183    1.1560   -0.9318
    0.3241   -0.3032   -1.9023
    2.7090   -1.5413    0.7894
    2.5650   -1.4077   -0.9608
    1.0552   -3.4406    0.8624
    3.2889   -3.8326   -1.0740
    2.5749   -4.9907   -0.1565
   -0.9413   -2.8688   -0.1387
 HEAT_OF_FORM_UPDATED:KCAL/MOL=-0.565031D+02
 GRADIENT_UPDATED:KCAL/MOL/ANG=+0.237593D+01
 ATOM_X_UPDATED:ANGSTROMS[060]=
    0.1686   -0.3876    1.3069
   -0.8997    0.4525    0.9965
   -0.9197    0.5696   -0.3505
    0.1272   -0.1754   -0.9250
    0.8166   -0.7958    0.1347
    1.9862   -1.6808   -0.0559
    1.5815   -3.1725   -0.0953
    0.6257   -3.3925   -1.2833
    2.8023   -3.9991   -0.1930
   -0.7138   -3.2003   -1.0363
    0.9373   -3.7084   -2.4026
    0.4094   -0.6329    2.3263
   -1.6222    1.1545   -0.9270
    0.3204   -0.3004   -1.9034
    2.7104   -1.5387    0.7843
    2.5637   -1.4085   -0.9656
    1.0573   -3.4387    0.8633
    3.2919   -3.8366   -1.0716
    2.5785   -4.9904   -0.1486
   -0.9325   -2.8253   -0.1463
 HEAT_OF_FORM_UPDATED:KCAL/MOL=-0.565067D+02
 GRADIENT_UPDATED:KCAL/MOL/ANG=+0.171479D+01
 ATOM_X_UPDATED:ANGSTROMS[060]=
    0.1687   -0.3851    1.3079
   -0.8991    0.4553    0.9958
   -0.9187    0.5709   -0.3513
    0.1271   -0.1765   -0.9247
    0.8169   -0.7946    0.1362
    1.9862   -1.6806   -0.0548
    1.5813   -3.1723   -0.0949
    0.6253   -3.3910   -1.2831
    2.8013   -3.9998   -0.1949
   -0.7144   -3.2073   -1.0370
    0.9380   -3.7045   -2.4025
    0.4097   -0.6283    2.3281
   -1.6216    1.1542   -0.9289
    0.3224   -0.3004   -1.9033
    2.7107   -1.5396    0.7855
    2.5637   -1.4090   -0.9651
    1.0576   -3.4399    0.8635
    3.2913   -3.8358   -1.0731
    2.5773   -4.9912   -0.1511
   -0.9353   -2.8420   -0.1450
 HEAT_OF_FORM_UPDATED:KCAL/MOL=-0.565121D+02
 GRADIENT_UPDATED:KCAL/MOL/ANG=+0.374209D+01
 ATOM_X_UPDATED:ANGSTROMS[060]=
    0.1664   -0.3889    1.3086
   -0.9011    0.4521    0.9968
   -0.9208    0.5695   -0.3501
    0.1265   -0.1752   -0.9244
    0.8170   -0.7938    0.1363
    1.9872   -1.6795   -0.0569
    1.5833   -3.1718   -0.0948
    0.6257   -3.3887   -1.2820
    2.8018   -4.0008   -0.1958
   -0.7118   -3.1932   -1.0414
    0.9360   -3.7171   -2.3973
    0.4087   -0.6327    2.3295
   -1.6247    1.1521   -0.9272
    0.3227   -0.2969   -1.9041
    2.7134   -1.5385    0.7825
    2.5626   -1.4106   -0.9699
    1.0602   -3.4405    0.8638
    3.2931   -3.8382   -1.0738
    2.5790   -4.9926   -0.1471
   -0.9308   -2.8272   -0.1514
 HEAT_OF_FORM_UPDATED:KCAL/MOL=-0.565242D+02
 GRADIENT_UPDATED:KCAL/MOL/ANG=+0.163497D+01
 ATOM_X_UPDATED:ANGSTROMS[060]=
    0.1678   -0.3879    1.3079
   -0.9018    0.4508    0.9971
   -0.9199    0.5707   -0.3496
    0.1261   -0.1758   -0.9239
    0.8177   -0.7939    0.1360
    1.9869   -1.6800   -0.0567
    1.5821   -3.1720   -0.0958
    0.6256   -3.3911   -1.2832
    2.8020   -3.9996   -0.1947
   -0.7125   -3.1930   -1.0402
    0.9378   -3.7178   -2.3990
    0.4078   -0.6329    2.3280
   -1.6245    1.1523   -0.9268
    0.3226   -0.2966   -1.9025
    2.7131   -1.5376    0.7821
    2.5622   -1.4094   -0.9686
    1.0598   -3.4397    0.8633
    3.2918   -3.8381   -1.0735
    2.5787   -4.9910   -0.1476
   -0.9332   -2.8244   -0.1489
 HEAT_OF_FORM_UPDATED:KCAL/MOL=-0.565291D+02
 GRADIENT_UPDATED:KCAL/MOL/ANG=+0.104930D+01
 ATOM_X_UPDATED:ANGSTROMS[060]=
    0.1676   -0.3884    1.3082
   -0.9022    0.4502    0.9976
   -0.9207    0.5696   -0.3490
    0.1267   -0.1749   -0.9235
    0.8175   -0.7942    0.1361
    1.9869   -1.6797   -0.0571
    1.5825   -3.1716   -0.0957
    0.6261   -3.3910   -1.2832
    2.8023   -3.9993   -0.1951
   -0.7122   -3.1892   -1.0418
    0.9377   -3.7229   -2.3979
    0.4070   -0.6340    2.3281
   -1.6251    1.1517   -0.9259
    0.3233   -0.2951   -1.9019
    2.7138   -1.5369    0.7806
    2.5615   -1.4089   -0.9692
    1.0596   -3.4393    0.8632
    3.2915   -3.8385   -1.0743
    2.5786   -4.9905   -0.1469
   -0.9334   -2.8203   -0.1502
 HEAT_OF_FORM_UPDATED:KCAL/MOL=-0.565319D+02
 GRADIENT_UPDATED:KCAL/MOL/ANG=+0.867642D+00
 ATOM_X_UPDATED:ANGSTROMS[060]=
    0.1673   -0.3886    1.3087
   -0.9025    0.4497    0.9977
   -0.9204    0.5699   -0.3490
    0.1268   -0.1747   -0.9232
    0.8178   -0.7936    0.1366
    1.9870   -1.6792   -0.0574
    1.5823   -3.1712   -0.0956
    0.6258   -3.3916   -1.2831
    2.8023   -3.9989   -0.1953
   -0.7122   -3.1888   -1.0427
    0.9377   -3.7246   -2.3972
    0.4070   -0.6340    2.3288
   -1.6254    1.1515   -0.9257
    0.3243   -0.2939   -1.9018
    2.7143   -1.5368    0.7800
    2.5613   -1.4085   -0.9700
    1.0596   -3.4390    0.8634
    3.2909   -3.8389   -1.0750
    2.5786   -4.9901   -0.1474
   -0.9332   -2.8197   -0.1516
 ####################################
 #                                  #
 #        Final SCF results         #
 #                                  #
 ####################################
 HEAT_OF_FORMATION:KCAL/MOL=-0.565327D+02
 GRADIENT_NORM:KCAL/MOL/ANGSTROM=+0.867642D+00
 POINT_GROUP=C1  
 SPIN_COMPONENT=+0.000000D+00
 TOTAL_SPIN=+0.000000D+00
 NUMBER_SCF_CYCLES=57
 CPU_TIME:SEC=+0.329102D+00
 MOLECULAR_WEIGHT:AMU=+0.155156D+03
 ATOM_X_OPT:ANGSTROMS[060]=
    0.1673   -0.3886    1.3087
   -0.9025    0.4497    0.9977
   -0.9204    0.5699   -0.3490
    0.1268   -0.1747   -0.9232
    0.8178   -0.7936    0.1366
    1.9870   -1.6792   -0.0574
    1.5823   -3.1712   -0.0956
    0.6258   -3.3916   -1.2831
    2.8023   -3.9989   -0.1953
   -0.7122   -3.1888   -1.0427
    0.9377   -3.7246   -2.3972
    0.4070   -0.6340    2.3288
   -1.6254    1.1515   -0.9257
    0.3243   -0.2939   -1.9018
    2.7143   -1.5368    0.7800
    2.5613   -1.4085   -0.9700
    1.0596   -3.4390    0.8634
    3.2909   -3.8389   -1.0750
    2.5786   -4.9901   -0.1474
   -0.9332   -2.8197   -0.1516
 ATOM_CHARGES[020]=
 -0.12853 -0.28388 +0.00146 -0.23721 -0.06380 -0.27371 -0.09462 +0.55587 -0.49115 -0.51467
 -0.44794 +0.18380 +0.19223 +0.27937 +0.19376 +0.16683 +0.16972 +0.22788 +0.22393 +0.34066
 AO_CHARGES[053]=
  1.11377  0.96431  1.01206  1.03839  1.73098  1.21671  1.19281  1.14337  1.12339  0.94666
  1.00776  0.92074  1.45549  1.26835  1.37583  1.13754  1.09066  1.00906  1.05555  0.90854
  1.08261  1.04106  0.95103  1.19901  1.11781  0.94255  0.98124  1.05302  1.12858  0.77583
  0.68402  0.85570  1.59278  1.24089  1.17935  1.47812  1.80706  1.41900  1.78086  1.50776
  1.85042  1.77405  1.48381  1.33966  0.81620  0.80777  0.72063  0.80624  0.83317  0.83028
  0.77212  0.77607  0.65934
 GRADIENTS:KCAL/MOL/ANGSTROM[060]=
  -0.1784  -0.0159   0.0786  -0.0553  -0.2152  -0.1098   0.2952   0.2455  -0.1121  -0.2610
  -0.3412  -0.0105   0.2141   0.2400   0.0187   0.0354   0.0022   0.0018  -0.1194   0.0347
   0.1348  -0.0710   0.1216  -0.1491   0.0547   0.0064   0.0132   0.0820   0.1851  -0.0468
   0.0351  -0.0318   0.0770   0.0107   0.0025  -0.0479  -0.0587  -0.0138  -0.0068  -0.0487
   0.0132  -0.0025  -0.0540  -0.0161  -0.0130   0.0336  -0.0310  -0.0188   0.0410  -0.0838
   0.0239   0.0444  -0.1473   0.0596   0.0448   0.0348  -0.0189  -0.0445   0.0100   0.1289
 OVERLAP_MATRIX[01431]=
 #  Lower half triangle only
   1.0000
   0.0000   1.0000
   0.0000   0.0000   1.0000
   0.0000   0.0000   0.0000   1.0000
   0.2055  -0.2629   0.2060  -0.0764   1.0000
   0.2304  -0.1155   0.2282  -0.0847   0.0000   1.0000
  -0.1805   0.2282  -0.0030   0.0663   0.0000   0.0000   1.0000
   0.0670  -0.0847   0.0663   0.1511   0.0000   0.0000   0.0000   1.0000
   0.0454  -0.0506   0.0446  -0.0771   0.2239  -0.0042   0.0283  -0.3173   1.0000
   0.0506  -0.0075   0.0448  -0.0775   0.0048   0.1911   0.0006  -0.0068   0.0000   1.0000
  -0.0446   0.0448   0.0039   0.0683  -0.0323   0.0006   0.1871   0.0456   0.0000   0.0000
   1.0000
   0.0771  -0.0775   0.0683  -0.0747   0.3619  -0.0068   0.0456  -0.3191   0.0000   0.0000
   0.0000   1.0000
   0.0272  -0.0013   0.0069  -0.0717   0.0155   0.0186  -0.0113  -0.0347   0.2000   0.2501
  -0.1779  -0.1371   1.0000
   0.0011   0.0261   0.0002  -0.0026  -0.0186  -0.0042   0.0119   0.0366  -0.2191  -0.0992
   0.1922   0.1482   0.0000   1.0000
  -0.0058   0.0002   0.0249   0.0135   0.0113   0.0119   0.0082  -0.0222   0.1558   0.1922
   0.0344  -0.1054   0.0000   0.0000   1.0000
   0.0602  -0.0026   0.0135  -0.1149   0.0347   0.0366  -0.0222  -0.0529   0.1202   0.1482
  -0.1054   0.0898   0.0000   0.0000   0.0000   1.0000
   0.2496   0.1728  -0.1076  -0.3114   0.0240   0.0408  -0.0295  -0.0204   0.0393   0.0701
  -0.0550   0.0196   0.1996   0.1443  -0.1292   0.2213   1.0000
  -0.1728   0.0991   0.0739   0.2140  -0.0488  -0.0502   0.0531   0.0368  -0.0701  -0.0739
   0.0879  -0.0313  -0.1647   0.0534   0.1052  -0.1801   0.0000   1.0000
   0.1076   0.0739   0.1718  -0.1332   0.0352   0.0531  -0.0151  -0.0266   0.0550   0.0879
  -0.0308   0.0245   0.1475   0.1052   0.0766   0.1613   0.0000   0.0000   1.0000
   0.3114   0.2140  -0.1332  -0.1678   0.0244   0.0368  -0.0266   0.0049  -0.0196  -0.0313
   0.0245   0.0293  -0.2526  -0.1801   0.1613  -0.1054   0.0000   0.0000   0.0000   1.0000
   0.0163   0.0307  -0.0218  -0.0231   0.0003   0.0010  -0.0007  -0.0004   0.0009   0.0029
  -0.0022   0.0003   0.0120   0.0220  -0.0178   0.0102   0.2154   0.2661  -0.2015  -0.0441
   1.0000
  -0.0307  -0.0329   0.0355   0.0376  -0.0014  -0.0027   0.0023   0.0012  -0.0029  -0.0061
   0.0057  -0.0007  -0.0269  -0.0301   0.0344  -0.0198  -0.2661  -0.1342   0.2444   0.0535
   0.0000   1.0000
   0.0218   0.0355  -0.0081  -0.0266   0.0010   0.0023  -0.0012  -0.0009   0.0022   0.0057
  -0.0031   0.0006   0.0217   0.0344  -0.0154   0.0160   0.2015   0.2444   0.0033  -0.0405
   0.0000   0.0000   1.0000
   0.0231   0.0376  -0.0266  -0.0111   0.0005   0.0012  -0.0009   0.0001  -0.0003  -0.0007
   0.0006   0.0012  -0.0125  -0.0198   0.0160   0.0032   0.0441   0.0535  -0.0405   0.1796
   0.0000   0.0000   0.0000   1.0000
   0.0018   0.0029  -0.0057  -0.0029   0.0000   0.0001  -0.0001  -0.0000   0.0001   0.0002
  -0.0004   0.0000   0.0009   0.0013  -0.0026   0.0007   0.0214   0.0169  -0.0526  -0.0051
   0.1895  -0.0805  -0.2969  -0.0076   1.0000
  -0.0029  -0.0011   0.0070   0.0036  -0.0001  -0.0002   0.0003   0.0001  -0.0002  -0.0004
   0.0008  -0.0001  -0.0018  -0.0008   0.0042  -0.0011  -0.0169   0.0103   0.0362   0.0035
   0.0805   0.1330  -0.1228  -0.0031   0.0000   1.0000
   0.0057   0.0070  -0.0114  -0.0070   0.0002   0.0003  -0.0004  -0.0001   0.0004   0.0008
  -0.0011   0.0001   0.0036   0.0042  -0.0073   0.0024   0.0526   0.0362  -0.0907  -0.0110
   0.2969  -0.1228  -0.2864  -0.0116   0.0000   0.0000   1.0000
   0.0029   0.0036  -0.0070  -0.0011   0.0001   0.0001  -0.0001   0.0000  -0.0000  -0.0001
   0.0001   0.0001  -0.0010  -0.0011   0.0024   0.0006   0.0051   0.0035  -0.0110   0.0208
   0.0076  -0.0031  -0.0116   0.1660   0.0000   0.0000   0.0000   1.0000
   0.0004   0.0002  -0.0013  -0.0011   0.0000   0.0000  -0.0001  -0.0000   0.0001   0.0002
  -0.0006  -0.0001   0.0014   0.0007  -0.0046  -0.0005   0.0065  -0.0013  -0.0178  -0.0097
   0.0215  -0.0302  -0.0379  -0.0272   0.1916  -0.1926  -0.0444  -0.2391   1.0000
  -0.0002   0.0005   0.0005   0.0004  -0.0000  -0.0000   0.0001   0.0001  -0.0002  -0.0001
   0.0008   0.0002  -0.0009   0.0015   0.0024   0.0003   0.0013   0.0073  -0.0030  -0.0016
   0.0302  -0.0150  -0.0465  -0.0333   0.1926  -0.0204  -0.0434  -0.2340   0.0000   1.0000
   0.0013   0.0005  -0.0028  -0.0029   0.0001   0.0001  -0.0003  -0.0002   0.0006   0.0008
  -0.0019  -0.0005   0.0061   0.0024  -0.0138  -0.0017   0.0178  -0.0030  -0.0334  -0.0223
   0.0379  -0.0465  -0.0366  -0.0419   0.0444  -0.0434   0.1581  -0.0539   0.0000   0.0000
   1.0000
   0.0011   0.0004  -0.0029  -0.0019   0.0001   0.0001  -0.0002  -0.0001   0.0001   0.0002
  -0.0005   0.0001   0.0007   0.0003  -0.0017   0.0016   0.0097  -0.0016  -0.0223  -0.0047
   0.0272  -0.0333  -0.0419  -0.0080   0.2391  -0.2340  -0.0539  -0.1224   0.0000   0.0000
   0.0000   1.0000
   0.0000   0.0001  -0.0001  -0.0000   0.0000   0.0000  -0.0000  -0.0000   0.0000   0.0000
  -0.0000   0.0000   0.0000   0.0000  -0.0000   0.0000   0.0003   0.0009  -0.0014  -0.0001
   0.0150   0.0147  -0.0417  -0.0025   0.1727   0.2500  -0.1696  -0.0204   0.0133   0.0347
  -0.0097   0.0173   1.0000
  -0.0000  -0.0001   0.0002   0.0001  -0.0000  -0.0000   0.0000   0.0000  -0.0000  -0.0000
   0.0000  -0.0000  -0.0000  -0.0000   0.0001  -0.0000  -0.0006  -0.0009   0.0021   0.0002
  -0.0121   0.0050   0.0292   0.0017  -0.2187  -0.1611   0.2099   0.0253  -0.0284  -0.0508
   0.0180  -0.0322   0.0000   1.0000
   0.0001   0.0002  -0.0002  -0.0001   0.0000   0.0000  -0.0000  -0.0000   0.0000   0.0000
  -0.0000   0.0000   0.0000   0.0001  -0.0001   0.0000   0.0010   0.0021  -0.0030  -0.0004
   0.0344   0.0292  -0.0678  -0.0049   0.1484   0.2099   0.0058  -0.0171   0.0079   0.0180
   0.0086   0.0090   0.0000   0.0000   1.0000
   0.0000   0.0001  -0.0001  -0.0000   0.0000   0.0000  -0.0000   0.0000  -0.0000  -0.0000
   0.0000   0.0000  -0.0000  -0.0000   0.0000   0.0000   0.0001   0.0002  -0.0004   0.0004
   0.0020   0.0017  -0.0049   0.0149   0.0179   0.0253  -0.0171   0.1461  -0.0142  -0.0322
   0.0090  -0.0025   0.0000   0.0000   0.0000   1.0000
   0.0000  -0.0000  -0.0002  -0.0001   0.0000   0.0000  -0.0000  -0.0000   0.0000   0.0000
  -0.0002  -0.0000   0.0000  -0.0001  -0.0003  -0.0000   0.0002  -0.0007  -0.0011  -0.0006
   0.0001  -0.0008  -0.0004  -0.0003   0.0016  -0.0072  -0.0001  -0.0030   0.0549  -0.1272
   0.0193   0.0228   0.0000  -0.0000   0.0000  -0.0000   1.0000
   0.0001   0.0001  -0.0005  -0.0004  -0.0000   0.0000   0.0000   0.0000  -0.0000   0.0002
   0.0001   0.0000   0.0005   0.0002  -0.0019  -0.0001   0.0022  -0.0022  -0.0064  -0.0031
   0.0023  -0.0064  -0.0042  -0.0028   0.0207  -0.0453  -0.0004  -0.0227   0.2446  -0.2727
   0.0639   0.0757   0.0003  -0.0011   0.0003  -0.0003   0.0000   1.0000
   0.0004  -0.0005  -0.0014  -0.0014   0.0001   0.0000  -0.0002  -0.0001   0.0005   0.0001
  -0.0022  -0.0004   0.0019  -0.0019  -0.0059  -0.0003   0.0034  -0.0064  -0.0081  -0.0049
   0.0013  -0.0042  -0.0012  -0.0015   0.0002  -0.0004   0.0097  -0.0002  -0.0371   0.0639
   0.1388  -0.0115  -0.0001   0.0003   0.0000   0.0001   0.0000   0.0000   1.0000
   0.0004  -0.0004  -0.0014  -0.0009   0.0000   0.0000  -0.0001  -0.0001   0.0001   0.0000
  -0.0004   0.0001   0.0001  -0.0001  -0.0003   0.0007   0.0017  -0.0031  -0.0049  -0.0005
   0.0008  -0.0028  -0.0015   0.0002   0.0085  -0.0227  -0.0002   0.0004  -0.0439   0.0757
  -0.0115   0.1349   0.0001  -0.0003   0.0001   0.0000   0.0000   0.0000   0.0000   1.0000
   0.0000   0.0000  -0.0000  -0.0000   0.0000   0.0000  -0.0000  -0.0000   0.0000   0.0000
  -0.0000  -0.0000   0.0000   0.0000  -0.0000  -0.0000   0.0000   0.0000  -0.0001  -0.0001
   0.0001  -0.0003  -0.0005  -0.0006   0.0018  -0.0022  -0.0019  -0.0079   0.0889   0.0490
  -0.0523  -0.1750   0.0001  -0.0005   0.0001  -0.0006   0.0000   0.0029  -0.0010  -0.0024
   1.0000
  -0.0000   0.0000   0.0000   0.0000  -0.0000  -0.0000   0.0000   0.0000  -0.0000  -0.0000
   0.0000   0.0000  -0.0000   0.0000   0.0001   0.0001  -0.0000   0.0002   0.0001   0.0000
   0.0008   0.0001  -0.0020  -0.0023   0.0063   0.0058  -0.0041  -0.0169  -0.0838   0.1777
   0.0377   0.1261   0.0026  -0.0041   0.0008  -0.0067  -0.0029  -0.0238   0.0103   0.0262
   0.0000   1.0000
   0.0000   0.0000  -0.0000  -0.0000   0.0000   0.0000  -0.0000  -0.0000   0.0000   0.0000
  -0.0000  -0.0000   0.0001   0.0001  -0.0005  -0.0002   0.0003   0.0001  -0.0011  -0.0011
   0.0015  -0.0020  -0.0028  -0.0045   0.0054  -0.0041   0.0070  -0.0145   0.0894   0.0377
   0.1728  -0.1346  -0.0004   0.0008   0.0014   0.0010   0.0010   0.0103   0.0047  -0.0085
   0.0000   0.0000   1.0000
   0.0000   0.0000  -0.0000  -0.0000   0.0000   0.0000  -0.0000  -0.0000   0.0000   0.0000
  -0.0000  -0.0000   0.0001   0.0001  -0.0002  -0.0000   0.0003   0.0000  -0.0011  -0.0007
   0.0018  -0.0023  -0.0045  -0.0040   0.0226  -0.0169  -0.0145  -0.0498   0.2992   0.1261
  -0.1346  -0.2373   0.0031  -0.0067   0.0010  -0.0064   0.0024   0.0262  -0.0085  -0.0134
   0.0000   0.0000   0.0000   1.0000
   0.4326   0.1062  -0.1088   0.4522   0.0489   0.0497  -0.0411   0.0505   0.0074   0.0073
  -0.0066   0.0148   0.0040   0.0007  -0.0012   0.0083   0.0580  -0.0197   0.0077   0.1052
   0.0108  -0.0129   0.0086   0.0195   0.0026  -0.0022   0.0047   0.0045   0.0004  -0.0001
   0.0007   0.0009   0.0001  -0.0001   0.0002   0.0001   0.0001   0.0001   0.0003   0.0004
   0.0000  -0.0000   0.0000   0.0000   1.0000
   0.0070  -0.0092   0.0079  -0.0115   0.0476  -0.0267   0.0259  -0.0710   0.4299  -0.3103
   0.2560  -0.2538   0.0451  -0.0609   0.0461  -0.0001   0.0063  -0.0113   0.0090  -0.0049
   0.0003  -0.0007   0.0005  -0.0002   0.0000  -0.0001   0.0001  -0.0000   0.0001  -0.0002
   0.0003   0.0000   0.0000  -0.0000   0.0000  -0.0000   0.0000  -0.0001   0.0004   0.0000
   0.0000  -0.0000   0.0000   0.0000   0.0018   1.0000
   0.0075   0.0009   0.0005  -0.0180   0.0046   0.0036  -0.0022  -0.0086   0.0661   0.0687
  -0.0477  -0.0857   0.4179   0.0850  -0.0513  -0.4212   0.0678  -0.0280   0.0284  -0.1157
   0.0167  -0.0214   0.0179  -0.0238   0.0031  -0.0028   0.0064  -0.0040   0.0083  -0.0019
   0.0191  -0.0038   0.0001  -0.0002   0.0002  -0.0001   0.0009   0.0022   0.0060  -0.0018
   0.0004  -0.0006   0.0031   0.0005   0.0017   0.0385   1.0000
   0.0167   0.0328  -0.0148  -0.0068   0.0006   0.0012  -0.0007  -0.0001   0.0006   0.0015
  -0.0009   0.0005   0.0033   0.0053  -0.0028   0.0035   0.0705   0.1122  -0.0440   0.0381
   0.4077   0.3007   0.0589   0.3462   0.0657   0.0621   0.0896   0.0480   0.0043   0.0065
   0.0058   0.0064   0.0171  -0.0011   0.0298   0.0118   0.0001   0.0005   0.0003   0.0003
   0.0001   0.0003   0.0003   0.0005   0.0221   0.0002   0.0042   1.0000
   0.0044   0.0077  -0.0033  -0.0073   0.0003   0.0006  -0.0003  -0.0003   0.0012   0.0028
  -0.0016  -0.0005   0.0143   0.0243  -0.0123  -0.0005   0.0680   0.0992  -0.0350  -0.0630
   0.4116   0.2401   0.1132  -0.3814   0.0625   0.0509   0.0917  -0.0455   0.0188   0.0281
   0.0288   0.0046   0.0148  -0.0025   0.0268  -0.0080   0.0002   0.0018   0.0010   0.0000
   0.0009   0.0036   0.0051   0.0032   0.0027   0.0005   0.0351   0.1637   1.0000
   0.0076   0.0051  -0.0173  -0.0025   0.0004   0.0004  -0.0007  -0.0000   0.0003   0.0004
  -0.0008   0.0003   0.0012   0.0006  -0.0022   0.0012   0.0202   0.0038  -0.0415   0.0114
   0.0632  -0.0488  -0.0926   0.0485   0.4041  -0.2139  -0.1095   0.3924   0.0634   0.0229
  -0.0025   0.1134   0.0536  -0.0732   0.0235   0.0445   0.0034   0.0156  -0.0022   0.0168
   0.0007   0.0002   0.0005   0.0055   0.0124   0.0001   0.0017   0.0455   0.0153   1.0000
   0.0001   0.0002  -0.0002  -0.0001   0.0000   0.0000  -0.0000  -0.0000   0.0000   0.0000
  -0.0000  -0.0000   0.0001   0.0002  -0.0002  -0.0000   0.0010   0.0018  -0.0022  -0.0009
   0.0217   0.0221  -0.0365  -0.0172   0.0787   0.1137  -0.0444  -0.0652   0.0221   0.0461
  -0.0077   0.0036   0.4094   0.2051   0.0672  -0.3694   0.0001   0.0009  -0.0002  -0.0000
   0.0027   0.0167  -0.0008   0.0094   0.0001   0.0000   0.0007   0.0187   0.0441   0.0198
   1.0000
   0.0001   0.0001  -0.0002  -0.0000   0.0000   0.0000  -0.0000  -0.0000   0.0000   0.0000
  -0.0000   0.0000   0.0000   0.0000  -0.0001   0.0000   0.0004   0.0004  -0.0010  -0.0001
   0.0055   0.0024  -0.0132  -0.0004   0.0794   0.0670  -0.1223  -0.0035   0.0196   0.0298
  -0.0244   0.0173   0.4104  -0.0942  -0.4174   0.0202   0.0002   0.0013  -0.0007   0.0003
   0.0012   0.0048  -0.0037   0.0065   0.0001   0.0000   0.0001   0.0064   0.0053   0.0569
   0.1974   1.0000
   0.0110  -0.0091  -0.0201  -0.0121   0.0028  -0.0001  -0.0055  -0.0019   0.0051  -0.0000
  -0.0126   0.0007   0.0088  -0.0062  -0.0155   0.0045   0.0229  -0.0314  -0.0364  -0.0052
   0.0089  -0.0196  -0.0076  -0.0006   0.0314  -0.0630   0.0088  -0.0014   0.0899  -0.1198
   0.0440   0.0870   0.0010  -0.0021   0.0007   0.0000   0.1480  -0.0847   0.1415   0.3416
   0.0012  -0.0054   0.0026   0.0065   0.0066   0.0023   0.0105   0.0030   0.0037   0.0648
   0.0012   0.0022   1.0000
 SET_OF_MOS=      21      40
 # To print all the molecular orbitals, add keyword LARGE or use MOS=99999 in AUX  #
 LMO_VECTORS[01060]=
  -0.0002   0.0003   0.0008   0.0002   0.0000   0.0007   0.0003  -0.0001  -0.0002  -0.0009
  -0.0005   0.0002   0.0010   0.0006   0.0005  -0.0004   0.0011   0.0012  -0.0011   0.0004
   0.0064  -0.0007  -0.0112   0.0022  -0.0937   0.0971   0.0070   0.1339   0.0176   0.0110
  -0.2901  -0.0725  -0.0082   0.0005  -0.0016  -0.0016  -0.0227  -0.0524  -0.0153   0.0059
  -0.6588   0.0225  -0.2631   0.6048   0.0000   0.0001  -0.0017  -0.0091   0.0015   0.0167
   0.0066   0.0050   0.0133
  -0.0001   0.0023   0.0026  -0.0001   0.0002  -0.0001   0.0002   0.0003   0.0005  -0.0002
  -0.0020  -0.0005  -0.0014   0.0015   0.0025  -0.0004   0.0009  -0.0027  -0.0035  -0.0017
   0.0003   0.0001  -0.0035  -0.0012  -0.0443   0.0326   0.0126   0.0511   0.0508  -0.0267
   0.0359   0.0659   0.0029  -0.0173   0.0054  -0.0078  -0.6464   0.4187   0.1900   0.5725
   0.0089  -0.0051  -0.0086   0.0141   0.0005  -0.0001   0.0008  -0.0032   0.0019   0.0051
   0.0004  -0.0004   0.1657
  -0.0003  -0.0006  -0.0010   0.0002   0.0002  -0.0003  -0.0002   0.0003   0.0006   0.0013
  -0.0001  -0.0005  -0.0018  -0.0006  -0.0005   0.0007   0.0008   0.0010   0.0009  -0.0010
  -0.0105   0.0036   0.0146   0.0016  -0.0476   0.0542   0.0142   0.0860   0.0226   0.0209
   0.3886  -0.2234   0.0005  -0.0201   0.0020  -0.0084  -0.0131  -0.0341  -0.0585   0.0254
  -0.3573  -0.0179   0.8024   0.0778   0.0002  -0.0002   0.0026  -0.0006   0.0035   0.0296
   0.0007  -0.0025   0.0152
   0.0002  -0.0009  -0.0004   0.0001  -0.0003   0.0010   0.0004  -0.0004  -0.0010  -0.0024
   0.0009   0.0011   0.0040   0.0000  -0.0009  -0.0005  -0.0004   0.0014  -0.0002   0.0028
   0.0105  -0.0051  -0.0165  -0.0010  -0.0010  -0.0048   0.0054  -0.0184   0.0182  -0.0379
  -0.2395   0.0974   0.0005   0.0138  -0.0018   0.0057  -0.0269  -0.0365  -0.9043   0.3116
   0.0305  -0.0025   0.0889  -0.0557  -0.0005   0.0001  -0.0046  -0.0027  -0.0011  -0.0150
  -0.0009   0.0009  -0.0359
  -0.0001   0.0000  -0.0001   0.0001   0.0001   0.0002  -0.0002  -0.0000   0.0001   0.0001
   0.0000  -0.0001   0.0000  -0.0001   0.0000  -0.0001   0.0011   0.0011  -0.0009  -0.0002
  -0.0032  -0.0008   0.0013   0.0002  -0.0373   0.0433   0.0037   0.0589  -0.0295   0.2228
   0.0410   0.0217  -0.0121  -0.0016  -0.0040   0.0019   0.0725   0.1403  -0.0264   0.0051
   0.1670   0.9207   0.0528   0.1785  -0.0001  -0.0001  -0.0005  -0.0048   0.0038   0.0192
   0.0143   0.0070  -0.0625
   0.0782   0.0122   0.1386  -0.0525  -0.5583   0.6090   0.0675  -0.3697   0.1068   0.2335
   0.2113   0.1087  -0.0685   0.0413  -0.0472  -0.0265  -0.0264  -0.0636  -0.0731  -0.0578
   0.0066  -0.0057   0.0024   0.0016  -0.0079  -0.0046  -0.0120   0.0011   0.0013  -0.0010
   0.0003   0.0007   0.0015  -0.0022   0.0011  -0.0003  -0.0008  -0.0016  -0.0004  -0.0007
   0.0001   0.0007   0.0001  -0.0003   0.0076   0.0050   0.0482   0.0095  -0.0003  -0.0004
  -0.0003  -0.0020   0.0010
  -0.0570   0.1253   0.0692   0.0440   0.3279   0.1266   0.6419   0.2861  -0.0710   0.3055
   0.4666  -0.0290   0.0453   0.0142   0.0930   0.0203   0.0185  -0.0990  -0.1266   0.0269
  -0.0011   0.0090  -0.0088  -0.0014  -0.0115  -0.0059  -0.0175  -0.0001   0.0013  -0.0007
  -0.0021   0.0015   0.0010  -0.0013   0.0012   0.0003  -0.0003  -0.0018   0.0008  -0.0007
   0.0000   0.0005   0.0019  -0.0008  -0.0062  -0.0009  -0.0298   0.0071   0.0118   0.0007
   0.0001  -0.0021  -0.0002
   0.0085  -0.1398  -0.1573  -0.0096  -0.0316  -0.0932  -0.1892  -0.0499   0.0089   0.1702
   0.2302   0.0339   0.0079   0.5379   0.6813   0.0394  -0.0102   0.1667   0.2004   0.0026
  -0.0009  -0.0095   0.0013   0.0016   0.0134   0.0067   0.0199  -0.0009  -0.0025   0.0031
  -0.0021  -0.0011  -0.0013   0.0018  -0.0012  -0.0001   0.0038   0.0028   0.0018   0.0051
  -0.0002  -0.0019   0.0009   0.0003   0.0024   0.0028  -0.0035  -0.0112  -0.0096  -0.0009
  -0.0002   0.0020  -0.0088
   0.0104  -0.4118  -0.5369  -0.0289  -0.0122  -0.0991  -0.1450  -0.0242   0.0025   0.1107
   0.1514   0.0196  -0.0040  -0.0376  -0.0524  -0.0086  -0.0073  -0.4166  -0.5378  -0.0481
   0.0059  -0.0136  -0.0408  -0.0008  -0.0245  -0.0136  -0.0303  -0.0003   0.0037  -0.0046
  -0.0018   0.0025   0.0042  -0.0063   0.0037  -0.0004  -0.0065  -0.0038  -0.0026  -0.0110
  -0.0001   0.0036   0.0018  -0.0015   0.0069   0.0008   0.0019   0.0134   0.0107   0.0035
  -0.0007  -0.0052   0.0186
  -0.0002  -0.0014  -0.0018   0.0003   0.0001  -0.0000  -0.0000  -0.0001   0.0006   0.0016
   0.0004  -0.0005  -0.0020  -0.0014  -0.0001  -0.0014   0.0022   0.0017  -0.0000  -0.0021
  -0.0186   0.0060   0.0249  -0.0052  -0.0701  -0.0212   0.0870   0.0914   0.0680   0.0180
   0.0391   0.0476   0.4626   0.4746   0.2294   0.6768  -0.0130  -0.0337   0.0055  -0.0017
   0.0004   0.0029  -0.0056  -0.0009   0.0002  -0.0004   0.0011   0.0011   0.0025  -0.0101
  -0.1006  -0.0857   0.0062
   0.0010   0.0040   0.0052  -0.0001  -0.0004   0.0001  -0.0013  -0.0009  -0.0001  -0.0028
  -0.0019   0.0003   0.0018   0.0023  -0.0032  -0.0014   0.0034   0.0007  -0.0031  -0.0039
   0.0237  -0.0249  -0.0458  -0.0155  -0.0182   0.0256   0.0706  -0.0057   0.0079  -0.0320
  -0.7855   0.2113  -0.0007   0.0226  -0.0036   0.0130   0.0104   0.0503   0.2607  -0.0797
  -0.0054   0.0379   0.4757  -0.1465   0.0006   0.0005   0.0023  -0.0155   0.0042  -0.0210
  -0.0016   0.0000  -0.0046
  -0.0021   0.3848   0.5113   0.0305  -0.0034  -0.1505  -0.1970  -0.0124   0.0022  -0.0687
  -0.0916  -0.0036   0.0021   0.1992   0.2559   0.0179  -0.0083  -0.3899  -0.4991  -0.0372
   0.0054   0.0356   0.0475   0.0049  -0.0186  -0.0041  -0.0396  -0.0014   0.0002   0.0024
  -0.0002   0.0004   0.0028  -0.0023   0.0064   0.0014   0.0003  -0.0049  -0.0038  -0.0043
  -0.0001  -0.0001   0.0012  -0.0015   0.0093   0.0006   0.0017   0.0242   0.0172  -0.0005
  -0.0003  -0.0061  -0.0033
  -0.0393   0.1779   0.1441   0.0353   0.0362  -0.2961  -0.4968  -0.0639  -0.0270   0.3862
   0.5545   0.0130   0.0102  -0.2222  -0.2750  -0.0133   0.0085   0.0896   0.1137   0.0165
  -0.0066  -0.0003  -0.0071  -0.0039   0.0100   0.0029   0.0179   0.0017  -0.0008  -0.0006
   0.0003  -0.0009  -0.0012   0.0008  -0.0027  -0.0009   0.0002   0.0010   0.0001   0.0032
   0.0000  -0.0003  -0.0015   0.0014   0.0010  -0.0020  -0.0096  -0.0104  -0.0057   0.0012
   0.0000   0.0024   0.0010
  -0.0003  -0.0010  -0.0004   0.0004  -0.0003   0.0003   0.0005  -0.0001  -0.0004  -0.0006
   0.0010   0.0004   0.0012   0.0014  -0.0022   0.0009  -0.0026  -0.0037   0.0020   0.0001
   0.0036   0.0228   0.0121   0.0331   0.3090  -0.3632  -0.0919  -0.5087  -0.3891  -0.3507
  -0.1054  -0.3943   0.0365   0.0744   0.0215   0.0972  -0.0283   0.0909   0.0160   0.0569
  -0.0433   0.1235   0.0376   0.1123   0.0001   0.0004   0.0003   0.0311  -0.0091   0.0070
  -0.0211  -0.0176   0.0159
   0.0003   0.0031   0.0031  -0.0001   0.0002  -0.0016  -0.0013   0.0002   0.0001  -0.0006
  -0.0017  -0.0004  -0.0012   0.0020   0.0048   0.0006  -0.0002   0.0047   0.0049   0.0007
   0.0067  -0.0057  -0.0158  -0.0076  -0.0151   0.0632   0.0087   0.0294   0.3503  -0.6807
   0.0553   0.0952  -0.0028  -0.0453   0.0063  -0.0291  -0.2073  -0.5247   0.0742   0.0455
   0.0382   0.2554  -0.0003   0.0012   0.0001  -0.0002  -0.0005  -0.0071   0.0031  -0.0103
   0.0070   0.0067  -0.0191
   0.0041   0.0250   0.0271  -0.0033  -0.0004  -0.0120  -0.0134  -0.0002  -0.0012  -0.0094
  -0.0079  -0.0006   0.0037   0.0130   0.0067   0.0050  -0.0015   0.0197   0.0465   0.0035
   0.3167  -0.1938  -0.6044  -0.0171  -0.3283  -0.1809  -0.5872   0.0010   0.0032   0.0114
   0.0189   0.0096   0.0104   0.0298   0.0456   0.0188  -0.0008  -0.0075   0.0107  -0.0055
   0.0008  -0.0009   0.0156  -0.0116   0.0002   0.0013  -0.0002   0.0181   0.0156  -0.0164
   0.0075  -0.0325  -0.0008
  -0.0007  -0.0051  -0.0043   0.0013   0.0005   0.0031  -0.0000  -0.0002   0.0017   0.0041
   0.0011  -0.0005  -0.0011  -0.0034  -0.0017  -0.0012   0.0188   0.0148  -0.0216  -0.0035
  -0.0021  -0.0278   0.0124   0.0033   0.3220   0.5456  -0.3584  -0.0762   0.0046  -0.0165
   0.0076   0.0027  -0.2301   0.5407  -0.3393  -0.0023   0.0006   0.0199   0.0075   0.0094
  -0.0004  -0.0071   0.0096  -0.0116   0.0004  -0.0003  -0.0000  -0.0100  -0.0094   0.0164
  -0.0095  -0.0082   0.0057
   0.0029  -0.0250   0.0168  -0.0445  -0.0077   0.0357  -0.0193  -0.0011   0.0084  -0.0391
   0.0279  -0.0145   0.2898   0.3004  -0.2654   0.4014  -0.3734   0.2887  -0.2680   0.5339
  -0.0009  -0.0279   0.0215  -0.0446  -0.0045  -0.0010  -0.0078  -0.0020  -0.0004  -0.0009
   0.0013  -0.0008   0.0022  -0.0006   0.0029   0.0020   0.0000   0.0014   0.0036   0.0007
  -0.0002  -0.0000   0.0008  -0.0001  -0.0312   0.0364  -0.0086  -0.0346   0.0227  -0.0010
  -0.0006  -0.0018   0.0011
  -0.0009  -0.0265   0.0248   0.0129   0.0059   0.0287  -0.0173  -0.0060   0.0192   0.0154
  -0.0215  -0.0045   0.0000  -0.0209   0.0242   0.0042   0.3990   0.4404  -0.3400  -0.0762
  -0.3334   0.5182  -0.3631  -0.0822  -0.0024  -0.0219   0.0167   0.0043   0.0014   0.0020
   0.0022   0.0023  -0.0103   0.0112  -0.0199  -0.0013   0.0001  -0.0019   0.0000  -0.0010
   0.0005  -0.0014   0.0000  -0.0013   0.0011  -0.0020  -0.0068  -0.0192  -0.0207   0.0043
  -0.0028   0.0075  -0.0009
   0.0214  -0.0433   0.0297  -0.0117  -0.0454   0.0918  -0.0424  -0.0743  -0.3601  -0.5122
   0.3346   0.2890   0.2843  -0.4152   0.3098   0.1957   0.0002   0.0350  -0.0322  -0.0071
   0.0133  -0.0275   0.0212  -0.0079  -0.0017  -0.0000  -0.0047  -0.0006   0.0000  -0.0006
   0.0010  -0.0006   0.0014  -0.0010   0.0025   0.0009   0.0000   0.0010   0.0031   0.0002
  -0.0001   0.0000   0.0013  -0.0000  -0.0021   0.0033  -0.0036  -0.0078   0.0063   0.0003
   0.0001  -0.0014   0.0007
 DENSITY_MATRIX[01431]=
 #  Lower half triangle only.
   1.1138
   0.0383   0.9643
  -0.0445   0.0821   1.0121
   0.0890   0.0356  -0.0264   1.0384
   0.1614  -0.2748   0.2168  -0.0521   1.7310
  -0.2748   0.2168  -0.0521   0.3877  -0.2412   1.2167
  -0.0521   0.3877  -0.2261   0.6233   0.1604  -0.0022   1.1928
   0.6233  -0.1284  -0.3053   0.6208   0.2554  -0.1151   0.0911   1.1434
   0.0122  -0.0176   0.0153   0.0105   0.1593   0.0388   0.0145  -0.5570   1.1234
  -0.0176   0.0153   0.0105   0.0009   0.0388   0.0145  -0.5570  -0.0370  -0.0980   0.9467
   0.0105   0.0009  -0.0843  -0.0509  -0.5570  -0.0370   0.3949   0.2579   0.0718   0.0657
   1.0078
  -0.0509  -0.0161   0.0008  -0.0630   0.2579  -0.0154   0.0007   0.2544  -0.0415   0.1010
  -0.0631   0.9207
  -0.0413   0.0296  -0.0316   0.0449   0.0368  -0.0898   0.0557   0.0678   0.2053   0.3323
  -0.2262  -0.1942   1.4555
   0.0296  -0.0316   0.0449   0.0318  -0.0898   0.0557   0.0678  -0.0448   0.3323  -0.2262
  -0.1942  -0.3309   0.0023   1.2684
   0.0449   0.0318  -0.1267  -0.0980   0.0678  -0.0448  -0.0705  -0.1368  -0.1942  -0.3309
  -0.1620   0.5226   0.0172   0.2042   1.3758
  -0.0980  -0.0062  -0.0168  -0.0967  -0.1368  -0.0600   0.0345  -0.1334   0.5226   0.2941
   0.2348   0.5251  -0.0318  -0.0007   0.0235   1.1375
   0.3115   0.2521  -0.1567  -0.4171   0.0153  -0.0299   0.0233   0.0451  -0.0257  -0.0273
   0.0223  -0.0237   0.2217   0.2348  -0.2088   0.3184   1.0907
   0.2521  -0.1567  -0.4171  -0.2033  -0.0299   0.0233   0.0451   0.0037  -0.0273   0.0223
  -0.0237   0.0159   0.2348  -0.2088   0.3184  -0.1961   0.0371   1.0091
  -0.4171  -0.2033   0.2008   0.3969   0.0451   0.0037  -0.0553  -0.0688  -0.0237   0.0159
  -0.0989  -0.1875   0.3184  -0.1961   0.0793   0.3600  -0.0443   0.1090   1.0555
   0.3969   0.2631   0.1228   0.3855  -0.0688  -0.0157  -0.0073  -0.0548  -0.1875  -0.0241
  -0.0093  -0.1893   0.3600  -0.2348   0.1867   0.3661   0.0674  -0.0455   0.0599   0.9085
  -0.0170  -0.0184  -0.0016   0.0102   0.0131   0.0314  -0.0200   0.0006   0.0260   0.0354
  -0.0166  -0.0146  -0.0188  -0.0189   0.0067  -0.0012   0.2680   0.3211  -0.2562  -0.0655
   1.0826
  -0.0184  -0.0016   0.0102   0.0206   0.0314  -0.0200   0.0006  -0.0182   0.0354  -0.0166
  -0.0146  -0.0391  -0.0189   0.0067  -0.0012   0.0310   0.3211  -0.2562  -0.0655  -0.4354
   0.0677   1.0411
   0.0102   0.0206  -0.0031  -0.0264   0.0006  -0.0182  -0.0383   0.0300  -0.0146  -0.0391
  -0.0391   0.0400  -0.0012   0.0310   0.0018  -0.0313  -0.0655  -0.4354  -0.3691   0.3804
   0.0098   0.0361   0.9510
  -0.0264  -0.0299  -0.0154  -0.0115   0.0300   0.0016   0.0137   0.0244   0.0400   0.0239
   0.0289   0.0320  -0.0313   0.0227  -0.0258  -0.0163   0.3804   0.1000   0.3113   0.3727
  -0.0054   0.0301  -0.0152   1.1990
   0.0022   0.0329   0.0398  -0.0047  -0.0004  -0.0071  -0.0081   0.0003  -0.0027  -0.0210
  -0.0206  -0.0008   0.0061   0.0238   0.0213   0.0088  -0.0156  -0.0017   0.0194   0.0045
   0.2073  -0.1292  -0.4280  -0.0230   1.1178
   0.0329   0.0398  -0.0047   0.0038  -0.0071  -0.0081   0.0003  -0.0007  -0.0210  -0.0206
  -0.0008  -0.0020   0.0238   0.0213   0.0088   0.0052  -0.0017   0.0194   0.0045  -0.0065
  -0.1292  -0.4280  -0.0230   0.1235  -0.0672   0.9426
  -0.0047   0.0038   0.0145   0.0144   0.0003  -0.0007  -0.0055  -0.0034  -0.0008  -0.0020
  -0.0105  -0.0072   0.0088   0.0052   0.0117   0.0054   0.0045  -0.0065  -0.0008   0.0211
  -0.0230   0.1235   0.0238  -0.2217  -0.0008   0.0466   0.9812
   0.0144  -0.0014   0.0091   0.0512  -0.0034  -0.0001  -0.0016  -0.0124  -0.0072   0.0006
  -0.0042  -0.0326   0.0054   0.0039   0.0120   0.0380   0.0211   0.0042  -0.0109  -0.0123
  -0.2217   0.0014   0.4055  -0.2306   0.0339  -0.0669  -0.0293   1.0530
   0.0002  -0.0026  -0.0032  -0.0004  -0.0005   0.0003   0.0008  -0.0000  -0.0004   0.0010
   0.0031   0.0008   0.0008  -0.0010  -0.0052   0.0012  -0.0052  -0.0071  -0.0001   0.0002
  -0.0141   0.0197   0.0308   0.0225   0.2543  -0.3305  -0.0781  -0.4306   1.1286
  -0.0026  -0.0032  -0.0004  -0.0001   0.0003   0.0008  -0.0000  -0.0001   0.0010   0.0031
   0.0008  -0.0006  -0.0010  -0.0052   0.0012   0.0002  -0.0071  -0.0001   0.0002  -0.0038
   0.0197   0.0308   0.0225   0.0011  -0.3305  -0.0781  -0.4306   0.2197   0.0809   0.7758
  -0.0004  -0.0001   0.0014   0.0019  -0.0000  -0.0001  -0.0014  -0.0007   0.0008  -0.0006
  -0.0010   0.0001   0.0012   0.0002   0.0025   0.0035   0.0002  -0.0038   0.0050   0.0105
   0.0225   0.0011   0.0051   0.0013  -0.4306   0.2197  -0.1471  -0.0507   0.0207  -0.0003
   0.6840
   0.0019   0.0006   0.0015   0.0057  -0.0007   0.0001  -0.0006   0.0000   0.0001   0.0005
   0.0005  -0.0030   0.0035   0.0011  -0.0006   0.0030   0.0105   0.0032   0.0039  -0.0034
   0.0013   0.0043   0.0236  -0.0338  -0.0507  -0.3189   0.0547  -0.0520   0.1054   0.0501
   0.0428   0.8557
  -0.0019  -0.0062  -0.0058   0.0025   0.0012   0.0036  -0.0007  -0.0002   0.0031   0.0069
   0.0011  -0.0017  -0.0040  -0.0055  -0.0018  -0.0032   0.0251   0.0223  -0.0215  -0.0066
  -0.0308  -0.0104   0.0256  -0.0003   0.1379   0.3164  -0.1790  -0.0149   0.0348   0.0139
   0.0120   0.0277   1.5928
  -0.0062  -0.0058   0.0025   0.0008   0.0036  -0.0007  -0.0002  -0.0011   0.0069   0.0011
  -0.0017  -0.0029  -0.0055  -0.0018  -0.0032   0.0014   0.0223  -0.0215  -0.0066  -0.0297
  -0.0104   0.0256  -0.0003  -0.0148   0.3164  -0.1790  -0.0149  -0.3916   0.0139   0.0120
   0.0277   0.0818   0.2145   1.2409
   0.0025   0.0008   0.0060   0.0065  -0.0002  -0.0011  -0.0045   0.0010  -0.0017  -0.0029
  -0.0061  -0.0014  -0.0032   0.0014   0.0044   0.0042  -0.0066  -0.0297  -0.0269   0.0270
  -0.0003  -0.0148   0.0190   0.0192  -0.0149  -0.3916  -0.4989   0.4474   0.0277   0.0818
   0.0082   0.0495   0.0771   0.1392   1.1794
   0.0065  -0.0014  -0.0017  -0.0074   0.0010   0.0003   0.0014   0.0034  -0.0014   0.0013
   0.0030   0.0076   0.0042   0.0020  -0.0038  -0.0061   0.0270   0.0063   0.0257   0.0240
   0.0192  -0.0023  -0.0310   0.0197   0.4474   0.1304   0.2361   0.3801   0.0495   0.0629
   0.0203   0.0138   0.2607   0.2074   0.0965   1.4781
  -0.0017   0.0040   0.0061   0.0013  -0.0001  -0.0008   0.0004   0.0006  -0.0005  -0.0006
  -0.0013  -0.0003  -0.0022   0.0031   0.0065   0.0006  -0.0033   0.0073   0.0090   0.0005
   0.0023  -0.0002  -0.0072  -0.0017   0.0050   0.0133  -0.0016  -0.0196   0.1131  -0.3157
   0.0328   0.0266   0.0013  -0.0196   0.0050  -0.0081   1.8071
   0.0040   0.0061   0.0013   0.0011  -0.0008   0.0004   0.0006   0.0008  -0.0006  -0.0013
  -0.0003   0.0010   0.0031   0.0065   0.0006  -0.0034   0.0073   0.0090   0.0005   0.0017
  -0.0002  -0.0072  -0.0017   0.0084   0.0133  -0.0016  -0.0196  -0.0917  -0.3157   0.0328
   0.0266   0.4363  -0.0196   0.0050  -0.0081   0.0016  -0.1852   1.4190
   0.0013   0.0011   0.0071   0.0062   0.0006   0.0008  -0.0028  -0.0026  -0.0003   0.0010
  -0.0007  -0.0047   0.0006  -0.0034   0.0035   0.0081   0.0005   0.0017   0.0008  -0.0009
  -0.0017   0.0084  -0.0065  -0.0248  -0.0196  -0.0917   0.1060   0.0253   0.0266   0.4363
  -0.6440   0.1582  -0.0081   0.0016  -0.0841   0.0147  -0.0602   0.0717   1.7809
   0.0062  -0.0008  -0.0021   0.0038  -0.0026   0.0004   0.0006  -0.0021  -0.0047  -0.0017
   0.0017   0.0049   0.0081   0.0008  -0.0093   0.0011  -0.0009  -0.0019  -0.0026  -0.0017
  -0.0248  -0.0098  -0.0233   0.0169   0.0253   0.1213  -0.0046  -0.0054   0.1582   0.1532
  -0.0521   0.1172   0.0147  -0.0491   0.0038  -0.0202  -0.1972   0.1037  -0.1489   1.5078
  -0.0002  -0.0001   0.0002   0.0000  -0.0001   0.0002   0.0001   0.0001  -0.0001  -0.0001
   0.0001   0.0001   0.0002   0.0000  -0.0006   0.0008   0.0001  -0.0004  -0.0006  -0.0003
   0.0006  -0.0023  -0.0009   0.0023   0.0321  -0.0391  -0.0051  -0.0287   0.1541   0.1029
  -0.1083  -0.3608  -0.0005   0.0125  -0.0002   0.0136   0.0177   0.0502   0.0021   0.0346
   1.8504
  -0.0001   0.0002   0.0000   0.0003   0.0002   0.0001   0.0001   0.0002  -0.0001   0.0001
   0.0001   0.0003   0.0000  -0.0006   0.0008   0.0010  -0.0004  -0.0006  -0.0003   0.0025
  -0.0023  -0.0009   0.0023  -0.0084  -0.0391  -0.0051  -0.0287  -0.0724   0.1029  -0.1083
  -0.3608  -0.2094   0.0125  -0.0002   0.0136  -0.0210   0.0502   0.0021   0.0346   0.1431
   0.0764   1.7740
   0.0000   0.0003  -0.0026  -0.0035   0.0001   0.0002   0.0010  -0.0001   0.0001   0.0003
   0.0010   0.0013   0.0008   0.0010  -0.0023  -0.0032  -0.0003   0.0025  -0.0017  -0.0060
   0.0023  -0.0084   0.0009   0.0088  -0.0287  -0.0724   0.0699   0.0071  -0.3608  -0.2094
   0.3921   0.1102   0.0136  -0.0210   0.0055  -0.0084   0.0346   0.1431   0.2319  -0.0362
  -0.0837   0.0101   1.4838
  -0.0035  -0.0003  -0.0014  -0.0042  -0.0001  -0.0004   0.0007  -0.0008   0.0013   0.0000
   0.0011   0.0058  -0.0032  -0.0011  -0.0048  -0.0037  -0.0060  -0.0004  -0.0027   0.0004
   0.0088   0.0028  -0.0362   0.0224   0.0071   0.0880  -0.0117   0.0037   0.1102   0.2233
   0.1605   0.1092  -0.0084   0.0054   0.0033  -0.0392  -0.0362   0.0187  -0.0075  -0.0538
  -0.2820   0.1587  -0.0563   1.3397
   0.6081   0.1656  -0.1737   0.7214  -0.0270  -0.0041   0.0076   0.0038   0.0536  -0.0047
  -0.0047   0.0758   0.0480   0.0249  -0.0261   0.0437  -0.0345   0.0291  -0.0166  -0.0155
   0.0019  -0.0083   0.0039  -0.0009  -0.0011  -0.0000   0.0005  -0.0001   0.0001  -0.0000
   0.0010  -0.0003   0.0006  -0.0005   0.0005  -0.0001  -0.0003   0.0004   0.0006   0.0001
  -0.0000  -0.0001  -0.0004   0.0001   0.8162
   0.0513  -0.0565   0.0440  -0.0202  -0.0195  -0.0086   0.0051   0.0352   0.6254  -0.4758
   0.3943  -0.4098  -0.0426   0.0314  -0.0206  -0.0147   0.0516  -0.0377   0.0337  -0.0553
  -0.0041   0.0076  -0.0047   0.0054   0.0018   0.0013   0.0029   0.0010   0.0005   0.0001
   0.0007   0.0003  -0.0010   0.0004  -0.0008  -0.0005  -0.0002  -0.0006  -0.0006  -0.0003
   0.0001  -0.0001  -0.0009   0.0002  -0.0032   0.8078
   0.0596   0.0159  -0.0007  -0.0723   0.0030   0.0572  -0.0284  -0.0994  -0.0257  -0.0736
   0.0465   0.0376   0.5297   0.1533  -0.0934  -0.7517  -0.0262   0.0429  -0.0428   0.0699
  -0.0010  -0.0048   0.0050  -0.0201  -0.0010  -0.0016  -0.0026  -0.0011   0.0032  -0.0012
   0.0089  -0.0028   0.0008   0.0000   0.0010   0.0012   0.0003   0.0013   0.0069  -0.0015
   0.0002  -0.0007   0.0019   0.0001  -0.0256   0.0167   0.7206
  -0.0082  -0.0349  -0.0258   0.0082  -0.0048   0.0150   0.0004  -0.0009  -0.0062  -0.0010
   0.0291   0.0133   0.0403   0.0109  -0.0498   0.0311  -0.0069   0.0212  -0.0032   0.0320
   0.4996   0.5155   0.0968   0.6473  -0.0001   0.0216   0.0002   0.0121   0.0488   0.0237
  -0.0071   0.0428  -0.0081   0.0130  -0.0018   0.0021  -0.0005  -0.0137   0.0116  -0.0079
   0.0036  -0.0064   0.0153  -0.0197   0.0057   0.0094  -0.0115   0.8062
   0.0367   0.0072  -0.0466  -0.0379   0.0036  -0.0096   0.0160   0.0033   0.0003   0.0186
   0.0105  -0.0069  -0.0211  -0.0266  -0.0037  -0.0167   0.0048  -0.0058   0.0173  -0.0251
   0.5075   0.3971   0.1939  -0.7098   0.0067  -0.0020  -0.0192   0.0007  -0.0092  -0.0040
   0.0030  -0.0113  -0.0097   0.0167  -0.0007   0.0067  -0.0002   0.0068  -0.0013   0.0007
  -0.0004   0.0045   0.0019   0.0055   0.0005  -0.0047   0.0221   0.0388   0.8332
   0.0037   0.0025  -0.0060  -0.0017   0.0002  -0.0013   0.0012   0.0003  -0.0004  -0.0009
  -0.0005  -0.0000  -0.0001   0.0012  -0.0001   0.0011  -0.0035  -0.0080   0.0010   0.0023
   0.0028  -0.0008   0.0064  -0.0089   0.5286  -0.3791  -0.2047   0.6962  -0.0268  -0.0366
  -0.0365   0.0078  -0.0208   0.0009   0.0045  -0.0131  -0.0091   0.0010   0.0157  -0.0083
   0.0143   0.0164   0.0534   0.0446   0.0047   0.0001   0.0015  -0.0063   0.0597   0.8303
  -0.0005   0.0005   0.0006  -0.0005  -0.0001  -0.0002   0.0005   0.0002  -0.0007  -0.0014
   0.0001   0.0003   0.0010   0.0011  -0.0008   0.0009  -0.0044  -0.0042   0.0046   0.0016
  -0.0003   0.0162  -0.0002  -0.0001   0.0088  -0.0610   0.0289   0.0074  -0.0229  -0.0051
  -0.0136  -0.0216   0.4294   0.3561   0.1386  -0.7760   0.0010   0.0105  -0.0006  -0.0022
   0.0011   0.0247   0.0024   0.0184  -0.0002   0.0004  -0.0001   0.0082   0.0208   0.0828
   0.7721
   0.0027   0.0093   0.0091  -0.0027  -0.0010  -0.0042  -0.0005   0.0001  -0.0028  -0.0082
  -0.0034   0.0013   0.0040   0.0074   0.0040   0.0036  -0.0184  -0.0183   0.0148   0.0052
   0.0538  -0.0092  -0.0749  -0.0025  -0.0061  -0.0591   0.0198  -0.0006  -0.0148  -0.0002
  -0.0066  -0.0147   0.4304  -0.2454  -0.8298   0.0025   0.0019   0.0062  -0.0019   0.0012
  -0.0005   0.0108  -0.0044   0.0142  -0.0004   0.0011  -0.0007   0.0103   0.0068   0.0013
  -0.0302   0.7761
   0.0059  -0.0084  -0.0154  -0.0052   0.0006   0.0001  -0.0021  -0.0009   0.0021   0.0012
  -0.0013   0.0000   0.0028  -0.0069  -0.0129   0.0010   0.0114  -0.0223  -0.0257  -0.0023
   0.0015  -0.0035   0.0020  -0.0005  -0.0016  -0.0200   0.0020   0.0187   0.0227   0.0218
   0.0154   0.0273   0.0028   0.0036   0.0010  -0.0003   0.3678  -0.1239   0.3126   0.7813
   0.0137  -0.1200   0.0182   0.0680   0.0022   0.0011   0.0038   0.0013   0.0031   0.0299
   0.0014  -0.0012   0.6593
 LMO_ENERGY_LEVELS[020]=
  -17.293  -16.950  -15.416  -13.751  -13.204  -12.522  -12.388  -12.336  -11.592  -11.420
    0.245    0.581    0.846    1.987    2.454    2.716    3.160    3.310    3.326    3.331
 MOLECULAR_ORBITAL_OCCUPANCIES[00020]=
 2.0000 2.0000 2.0000 2.0000 2.0000 2.0000 2.0000 2.0000 2.0000 2.0000
 0.0000 0.0000 0.0000 0.0000 0.0000 0.0000 0.0000 0.0000 0.0000 0.0000
 CPU_TIME:SECONDS[1]=        0.33
 END OF MOPAC FILE
 END OF MOPAC PROGRAM
