-------------------------------------------------------------
----------------------- !PROPERTIES! ------------------------
-------------------------------------------------------------
# -----------------------------------------------------------
$ PAL_Flags
   description: The PAL Flags
   geom. index: 1
   prop. index: 1
        Diskflag:     2
# -----------------------------------------------------------
$ SCF_Energy
   description: The SCF energy
   geom. index: 1
   prop. index: 1
        SCF Energy:    -1031.4449114375
# -----------------------------------------------------------
$ DFT_Energy
   description: The DFT energy
   geom. index: 1
   prop. index: 1
   Number of Alpha Electrons                 59.9999582250 
   Number of Beta  Electrons                 59.9999582250 
   Total number of  Electrons               119.9999164500 
   Exchange energy                          -87.7917473846 
   Correlation energy                        -4.9106716339 
   Correlation energy NL                      0.0000000000 
   Exchange-Correlation energy              -92.7024190186 
   Embedding correction                       0.0000000000 
   Total DFT Energy (No VdW correction)   -1031.4449114375 
# -----------------------------------------------------------
$ Mayer_Pop
   description: The Mayer population analysis
   geom. index: 1
   prop. index: 1
     Number of atoms                     : 30
     Threshold for printing              : 0.1000000
     Number of bond orders printed       : 30
  NA   - Mulliken gross atomic population
  ZA   - Total nuclear charge
  QA   - Mulliken gross atomic charge
  VA   - Mayer's total valence
  BVA  - Mayer's bonded valence
  FA   - Mayer's free valence
  ATOM       NA         ZA         QA         VA         BVA        FA
  0   0     6.3038     6.0000    -0.3038     4.0373     4.0373     0.0000
  1   0     5.8162     6.0000     0.1838     3.5398     3.5398     0.0000
  2   0     5.7698     6.0000     0.2302     3.8325     3.8325     0.0000
  3   0     6.2983     6.0000    -0.2983     4.0064     4.0064     0.0000
  4   0     5.8098     6.0000     0.1902     3.5242     3.5242     0.0000
  5   0     6.0850     6.0000    -0.0850     3.8455     3.8455     0.0000
  6   0     0.8846     1.0000     0.1154     0.9877     0.9877     0.0000
  7   0     0.8892     1.0000     0.1108     0.9904     0.9904     0.0000
  8   0     6.3250     6.0000    -0.3250     3.8629     3.8629     0.0000
  9   0     0.8886     1.0000     0.1114     0.9705     0.9705     0.0000
 10   0     0.8672     1.0000     0.1328     0.9712     0.9712    -0.0000
 11   0     0.8892     1.0000     0.1108     0.9665     0.9665     0.0000
 12   0     6.3225     6.0000    -0.3225     3.8634     3.8634     0.0000
 13   0     0.8887     1.0000     0.1113     0.9710     0.9710     0.0000
 14   0     0.8896     1.0000     0.1104     0.9669     0.9669     0.0000
 15   0     0.8679     1.0000     0.1321     0.9709     0.9709     0.0000
 16   0    16.0972    16.0000    -0.0972     2.2844     2.2844    -0.0000
 17   0     6.3369     6.0000    -0.3369     3.9443     3.9443    -0.0000
 18   0     0.8784     1.0000     0.1216     0.9567     0.9567    -0.0000
 19   0     0.8684     1.0000     0.1316     0.9672     0.9672     0.0000
 20   0     0.8787     1.0000     0.1213     0.9568     0.9568    -0.0000
 21   0     8.2491     8.0000    -0.2491     2.1167     2.1167     0.0000
 22   0     5.6392     6.0000     0.3608     4.3893     4.3893     0.0000
 23   0     7.2984     7.0000    -0.2984     3.0674     3.0674    -0.0000
 24   0     6.2352     6.0000    -0.2352     3.8590     3.8590    -0.0000
 25   0     0.8841     1.0000     0.1159     0.9571     0.9571    -0.0000
 26   0     0.8850     1.0000     0.1150     0.9609     0.9609    -0.0000
 27   0     0.8480     1.0000     0.1520     0.9805     0.9805    -0.0000
 28   0     0.7692     1.0000     0.2308     0.9470     0.9470    -0.0000
 29   0     8.3368     8.0000    -0.3368     2.1840     2.1840    -0.0000
      Bond orders larger than 0.1000000
           Atom A     A.N. of A          Atom B    A.N. of B              Bond order
                0             6               1            6                1.324032
                0             6               2            6                1.443361
                0             6               6            1                0.976596
                1             6               5            6                1.304003
                1             6               8            6                0.932355
                2             6               3            6                1.403748
                2             6              21            8                0.885965
                3             6               4            6                1.318172
                3             6               7            1                0.975404
                4             6               5            6                1.291050
                4             6              12            6                0.931125
                5             6              16           16                1.120146
                8             6               9            1                0.984669
                8             6              10            1                0.961674
                8             6              11            1                0.960307
               12             6              13            1                0.984264
               12             6              14            1                0.961516
               12             6              15            1                0.960880
               16            16              17            6                1.054429
               17             6              18            1                0.958825
               17             6              19            1                0.955387
               17             6              20            1                0.958888
               21             8              22            6                1.070755
               22             6              23            7                1.199497
               22             6              29            8                2.076967
               23             7              24            6                0.932969
               23             7              28            1                0.904023
               24             6              25            1                0.969027
               24             6              26            1                0.967975
               24             6              27            1                0.965794
# -----------------------------------------------------------
$ VdW_Correction
   description: The Van der Waals Correction
   geom. index: 1
   prop. index: 1
        Van der Waals Correction:       -0.0607965371
# -----------------------------------------------------------
$ PAL_Flags
   description: The PAL Flags
   geom. index: 2
   prop. index: 1
        Diskflag:     2
# -----------------------------------------------------------
$ SCF_Energy
   description: The SCF energy
   geom. index: 2
   prop. index: 1
        SCF Energy:    -1031.4466172666
# -----------------------------------------------------------
$ DFT_Energy
   description: The DFT energy
   geom. index: 2
   prop. index: 1
   Number of Alpha Electrons                 59.9999476742 
   Number of Beta  Electrons                 59.9999476742 
   Total number of  Electrons               119.9998953485 
   Exchange energy                          -87.8477455201 
   Correlation energy                        -4.9138248126 
   Correlation energy NL                      0.0000000000 
   Exchange-Correlation energy              -92.7615703326 
   Embedding correction                       0.0000000000 
   Total DFT Energy (No VdW correction)   -1031.4466172666 
# -----------------------------------------------------------
$ VdW_Correction
   description: The Van der Waals Correction
   geom. index: 2
   prop. index: 1
        Van der Waals Correction:       -0.0606536619
# -----------------------------------------------------------
$ PAL_Flags
   description: The PAL Flags
   geom. index: 3
   prop. index: 1
        Diskflag:     2
# -----------------------------------------------------------
$ SCF_Energy
   description: The SCF energy
   geom. index: 3
   prop. index: 1
        SCF Energy:    -1031.4466375881
# -----------------------------------------------------------
$ DFT_Energy
   description: The DFT energy
   geom. index: 3
   prop. index: 1
   Number of Alpha Electrons                 59.9999461415 
   Number of Beta  Electrons                 59.9999461415 
   Total number of  Electrons               119.9998922830 
   Exchange energy                          -87.8594106839 
   Correlation energy                        -4.9146432650 
   Correlation energy NL                      0.0000000000 
   Exchange-Correlation energy              -92.7740539489 
   Embedding correction                       0.0000000000 
   Total DFT Energy (No VdW correction)   -1031.4466375881 
# -----------------------------------------------------------
$ VdW_Correction
   description: The Van der Waals Correction
   geom. index: 3
   prop. index: 1
        Van der Waals Correction:       -0.0607219189
# -----------------------------------------------------------
$ PAL_Flags
   description: The PAL Flags
   geom. index: 4
   prop. index: 1
        Diskflag:     2
# -----------------------------------------------------------
$ SCF_Energy
   description: The SCF energy
   geom. index: 4
   prop. index: 1
        SCF Energy:    -1031.4467072652
# -----------------------------------------------------------
$ DFT_Energy
   description: The DFT energy
   geom. index: 4
   prop. index: 1
   Number of Alpha Electrons                 59.9999474103 
   Number of Beta  Electrons                 59.9999474103 
   Total number of  Electrons               119.9998948206 
   Exchange energy                          -87.8596011168 
   Correlation energy                        -4.9146583053 
   Correlation energy NL                      0.0000000000 
   Exchange-Correlation energy              -92.7742594221 
   Embedding correction                       0.0000000000 
   Total DFT Energy (No VdW correction)   -1031.4467072652 
# -----------------------------------------------------------
$ VdW_Correction
   description: The Van der Waals Correction
   geom. index: 4
   prop. index: 1
        Van der Waals Correction:       -0.0607176682
# -----------------------------------------------------------
$ PAL_Flags
   description: The PAL Flags
   geom. index: 5
   prop. index: 1
        Diskflag:     2
# -----------------------------------------------------------
$ SCF_Energy
   description: The SCF energy
   geom. index: 5
   prop. index: 1
        SCF Energy:    -1031.4468001995
# -----------------------------------------------------------
$ DFT_Energy
   description: The DFT energy
   geom. index: 5
   prop. index: 1
   Number of Alpha Electrons                 59.9999482300 
   Number of Beta  Electrons                 59.9999482300 
   Total number of  Electrons               119.9998964599 
   Exchange energy                          -87.8541295751 
   Correlation energy                        -4.9142305844 
   Correlation energy NL                      0.0000000000 
   Exchange-Correlation energy              -92.7683601595 
   Embedding correction                       0.0000000000 
   Total DFT Energy (No VdW correction)   -1031.4468001995 
# -----------------------------------------------------------
$ VdW_Correction
   description: The Van der Waals Correction
   geom. index: 5
   prop. index: 1
        Van der Waals Correction:       -0.0606593013
# -----------------------------------------------------------
$ PAL_Flags
   description: The PAL Flags
   geom. index: 6
   prop. index: 1
        Diskflag:     2
# -----------------------------------------------------------
$ SCF_Energy
   description: The SCF energy
   geom. index: 6
   prop. index: 1
        SCF Energy:    -1031.4468583051
# -----------------------------------------------------------
$ DFT_Energy
   description: The DFT energy
   geom. index: 6
   prop. index: 1
   Number of Alpha Electrons                 59.9999523781 
   Number of Beta  Electrons                 59.9999523781 
   Total number of  Electrons               119.9999047562 
   Exchange energy                          -87.8507234549 
   Correlation energy                        -4.9139728219 
   Correlation energy NL                      0.0000000000 
   Exchange-Correlation energy              -92.7646962767 
   Embedding correction                       0.0000000000 
   Total DFT Energy (No VdW correction)   -1031.4468583051 
# -----------------------------------------------------------
$ VdW_Correction
   description: The Van der Waals Correction
   geom. index: 6
   prop. index: 1
        Van der Waals Correction:       -0.0606368496
# -----------------------------------------------------------
$ PAL_Flags
   description: The PAL Flags
   geom. index: 7
   prop. index: 1
        Diskflag:     2
# -----------------------------------------------------------
$ SCF_Energy
   description: The SCF energy
   geom. index: 7
   prop. index: 1
        SCF Energy:    -1031.4468698367
# -----------------------------------------------------------
$ DFT_Energy
   description: The DFT energy
   geom. index: 7
   prop. index: 1
   Number of Alpha Electrons                 59.9999581996 
   Number of Beta  Electrons                 59.9999581996 
   Total number of  Electrons               119.9999163992 
   Exchange energy                          -87.8512831659 
   Correlation energy                        -4.9140232434 
   Correlation energy NL                      0.0000000000 
   Exchange-Correlation energy              -92.7653064092 
   Embedding correction                       0.0000000000 
   Total DFT Energy (No VdW correction)   -1031.4468698367 
# -----------------------------------------------------------
$ VdW_Correction
   description: The Van der Waals Correction
   geom. index: 7
   prop. index: 1
        Van der Waals Correction:       -0.0606509946
# -----------------------------------------------------------
$ PAL_Flags
   description: The PAL Flags
   geom. index: 8
   prop. index: 1
        Diskflag:     2
# -----------------------------------------------------------
$ SCF_Energy
   description: The SCF energy
   geom. index: 8
   prop. index: 1
        SCF Energy:    -1031.4468539598
# -----------------------------------------------------------
$ DFT_Energy
   description: The DFT energy
   geom. index: 8
   prop. index: 1
   Number of Alpha Electrons                 59.9999608972 
   Number of Beta  Electrons                 59.9999608972 
   Total number of  Electrons               119.9999217944 
   Exchange energy                          -87.8533115662 
   Correlation energy                        -4.9142007633 
   Correlation energy NL                      0.0000000000 
   Exchange-Correlation energy              -92.7675123296 
   Embedding correction                       0.0000000000 
   Total DFT Energy (No VdW correction)   -1031.4468539598 
# -----------------------------------------------------------
$ VdW_Correction
   description: The Van der Waals Correction
   geom. index: 8
   prop. index: 1
        Van der Waals Correction:       -0.0606838037
# -----------------------------------------------------------
$ PAL_Flags
   description: The PAL Flags
   geom. index: 9
   prop. index: 1
        Diskflag:     2
# -----------------------------------------------------------
$ SCF_Energy
   description: The SCF energy
   geom. index: 9
   prop. index: 1
        SCF Energy:    -1031.4468436701
# -----------------------------------------------------------
$ DFT_Energy
   description: The DFT energy
   geom. index: 9
   prop. index: 1
   Number of Alpha Electrons                 59.9999689745 
   Number of Beta  Electrons                 59.9999689745 
   Total number of  Electrons               119.9999379491 
   Exchange energy                          -87.8548424762 
   Correlation energy                        -4.9143223187 
   Correlation energy NL                      0.0000000000 
   Exchange-Correlation energy              -92.7691647948 
   Embedding correction                       0.0000000000 
   Total DFT Energy (No VdW correction)   -1031.4468436701 
# -----------------------------------------------------------
$ VdW_Correction
   description: The Van der Waals Correction
   geom. index: 9
   prop. index: 1
        Van der Waals Correction:       -0.0607017957
# -----------------------------------------------------------
$ PAL_Flags
   description: The PAL Flags
   geom. index: 10
   prop. index: 1
        Diskflag:     2
# -----------------------------------------------------------
$ SCF_Energy
   description: The SCF energy
   geom. index: 10
   prop. index: 1
        SCF Energy:    -1031.4468393117
# -----------------------------------------------------------
$ DFT_Energy
   description: The DFT energy
   geom. index: 10
   prop. index: 1
   Number of Alpha Electrons                 59.9999669394 
   Number of Beta  Electrons                 59.9999669394 
   Total number of  Electrons               119.9999338788 
   Exchange energy                          -87.8548987140 
   Correlation energy                        -4.9143327652 
   Correlation energy NL                      0.0000000000 
   Exchange-Correlation energy              -92.7692314792 
   Embedding correction                       0.0000000000 
   Total DFT Energy (No VdW correction)   -1031.4468393117 
# -----------------------------------------------------------
$ VdW_Correction
   description: The Van der Waals Correction
   geom. index: 10
   prop. index: 1
        Van der Waals Correction:       -0.0607045097
# -----------------------------------------------------------
$ PAL_Flags
   description: The PAL Flags
   geom. index: 11
   prop. index: 1
        Diskflag:     2
# -----------------------------------------------------------
$ SCF_Energy
   description: The SCF energy
   geom. index: 11
   prop. index: 1
        SCF Energy:    -1031.4468464776
# -----------------------------------------------------------
$ DFT_Energy
   description: The DFT energy
   geom. index: 11
   prop. index: 1
   Number of Alpha Electrons                 59.9999670578 
   Number of Beta  Electrons                 59.9999670578 
   Total number of  Electrons               119.9999341156 
   Exchange energy                          -87.8543232730 
   Correlation energy                        -4.9142853855 
   Correlation energy NL                      0.0000000000 
   Exchange-Correlation energy              -92.7686086585 
   Embedding correction                       0.0000000000 
   Total DFT Energy (No VdW correction)   -1031.4468464776 
# -----------------------------------------------------------
$ Mayer_Pop
   description: The Mayer population analysis
   geom. index: 11
   prop. index: 1
     Number of atoms                     : 30
     Threshold for printing              : 0.1000000
     Number of bond orders printed       : 30
  NA   - Mulliken gross atomic population
  ZA   - Total nuclear charge
  QA   - Mulliken gross atomic charge
  VA   - Mayer's total valence
  BVA  - Mayer's bonded valence
  FA   - Mayer's free valence
  ATOM       NA         ZA         QA         VA         BVA        FA
  0   0     6.3069     6.0000    -0.3069     4.0342     4.0342    -0.0000
  1   0     5.8028     6.0000     0.1972     3.5149     3.5149     0.0000
  2   0     5.7711     6.0000     0.2289     3.8339     3.8339    -0.0000
  3   0     6.3003     6.0000    -0.3003     4.0354     4.0354     0.0000
  4   0     5.8058     6.0000     0.1942     3.5172     3.5172     0.0000
  5   0     6.0912     6.0000    -0.0912     3.8538     3.8538    -0.0000
  6   0     0.8865     1.0000     0.1135     0.9885     0.9885    -0.0000
  7   0     0.8879     1.0000     0.1121     0.9888     0.9888    -0.0000
  8   0     6.3220     6.0000    -0.3220     3.8643     3.8643    -0.0000
  9   0     0.8891     1.0000     0.1109     0.9710     0.9710    -0.0000
 10   0     0.8676     1.0000     0.1324     0.9715     0.9715    -0.0000
 11   0     0.8894     1.0000     0.1106     0.9672     0.9672    -0.0000
 12   0     6.3216     6.0000    -0.3216     3.8628     3.8628     0.0000
 13   0     0.8887     1.0000     0.1113     0.9714     0.9714    -0.0000
 14   0     0.8908     1.0000     0.1092     0.9667     0.9667    -0.0000
 15   0     0.8672     1.0000     0.1328     0.9721     0.9721    -0.0000
 16   0    16.1011    16.0000    -0.1011     2.2840     2.2840    -0.0000
 17   0     6.3335     6.0000    -0.3335     3.9442     3.9442    -0.0000
 18   0     0.8782     1.0000     0.1218     0.9569     0.9569     0.0000
 19   0     0.8678     1.0000     0.1322     0.9678     0.9678    -0.0000
 20   0     0.8790     1.0000     0.1210     0.9570     0.9570    -0.0000
 21   0     8.2535     8.0000    -0.2535     2.1103     2.1103    -0.0000
 22   0     5.6433     6.0000     0.3567     4.4020     4.4020    -0.0000
 23   0     7.2984     7.0000    -0.2984     3.0695     3.0695    -0.0000
 24   0     6.2295     6.0000    -0.2295     3.8563     3.8563    -0.0000
 25   0     0.8828     1.0000     0.1172     0.9567     0.9567    -0.0000
 26   0     0.8851     1.0000     0.1149     0.9617     0.9617    -0.0000
 27   0     0.8483     1.0000     0.1517     0.9807     0.9807    -0.0000
 28   0     0.7730     1.0000     0.2270     0.9510     0.9510     0.0000
 29   0     8.3374     8.0000    -0.3374     2.1843     2.1843     0.0000
      Bond orders larger than 0.1000000
           Atom A     A.N. of A          Atom B    A.N. of B              Bond order
                0             6               1            6                1.311065
                0             6               2            6                1.434186
                0             6               6            1                0.981912
                1             6               5            6                1.299112
                1             6               8            6                0.930841
                2             6               3            6                1.428009
                2             6              21            8                0.869377
                3             6               4            6                1.315476
                3             6               7            1                0.981488
                4             6               5            6                1.293145
                4             6              12            6                0.930606
                5             6              16           16                1.125738
                8             6               9            1                0.985642
                8             6              10            1                0.961779
                8             6              11            1                0.962197
               12             6              13            1                0.985548
               12             6              14            1                0.961635
               12             6              15            1                0.962430
               16            16              17            6                1.050019
               17             6              18            1                0.960213
               17             6              19            1                0.956636
               17             6              20            1                0.959783
               21             8              22            6                1.072437
               22             6              23            7                1.209144
               22             6              29            8                2.079620
               23             7              24            6                0.927576
               23             7              28            1                0.908323
               24             6              25            1                0.970711
               24             6              26            1                0.968393
               24             6              27            1                0.966524
# -----------------------------------------------------------
$ VdW_Correction
   description: The Van der Waals Correction
   geom. index: 11
   prop. index: 1
        Van der Waals Correction:       -0.0606974615
# -----------------------------------------------------------
$ SCF_Electric_Properties
   description: The SCF Calculated Electric Properties
   geom. index: 11
   prop. index: 1
       Filename                          : .\methiocarb_Compound_3.scfp 
       Do Dipole Moment Calculation      : true 
       Do Quadrupole Moment Calculation  : false 
       Do Polarizability Calculation     : false 
** Dipole moment part of electric properties **
        Magnitude of dipole moment (Debye) :        5.4791372125
        Electronic Contribution:
                  0    
      0      -3.219201
      1       6.198899
      2       8.304924
        Nuclear Contribution:
                  0    
      0       3.568535
      1      -7.784372
      2      -9.722992
        Total Dipole moment:
                  0    
      0       0.349334
      1      -1.585473
      2      -1.418068
# -------------------------------------------------------------
----------------------- !GEOMETRIES! ------------------------
# -------------------------------------------------------------
------------------------ !GEOMETRY! -------------------------
    Number of atoms:    30 
    Geometry Index:     1 
    Coordinates:
               0 C     -5.694298409051    2.169244010382    0.267869866951
               1 C     -5.955992175526    0.805031114930    0.071733578770
               2 C     -4.537728620765    2.578746084288    0.934285266790
               3 C     -3.621217233235    1.639235942012    1.414545675380
               4 C     -3.849169142818    0.268625761640    1.229924943007
               5 C     -5.015038527544   -0.142871318742    0.539289324519
               6 H     -6.398473131819    2.931198437486   -0.075593856844
               7 H     -2.735744043253    1.990094770979    1.950527026390
               8 C     -7.221361264882    0.383413624609   -0.627827147637
               9 H     -7.815987467194    1.262938771656   -0.909948177364
              10 H     -7.833197160979   -0.261035579527    0.018414999226
              11 H     -7.005123914150   -0.192792329378   -1.538965720703
              12 C     -2.860787255149   -0.729441116844    1.773409308337
              13 H     -2.028434386085   -0.214093035731    2.271796958617
              14 H     -2.446133353887   -1.361090096410    0.974701581966
              15 H     -3.339036656867   -1.404327353948    2.496695328798
              16 S     -5.337110372279   -1.887658081038    0.316446972277
              17 C     -4.515005658033   -2.109338989833   -1.286654962333
              18 H     -4.978943067261   -1.484552208769   -2.061777231644
              19 H     -4.630045444464   -3.165424630732   -1.567350523686
              20 H     -3.443865890308   -1.875458891462   -1.220321396463
              21 O     -4.335734860048    3.924608315982    1.157900486291
              22 C     -3.395535371984    4.622459475347    0.425634760634
              23 N     -2.809076072824    3.907960818883   -0.578080279408
              24 C     -1.902323397946    4.558883125782   -1.496802342621
              25 H     -2.424945948527    5.028325155951   -2.345547079021
              26 H     -1.181985717001    3.826272948131   -1.882869488147
              27 H     -1.359957038172    5.341592196932   -0.955274258426
              28 H     -3.205801598897    3.013418132152   -0.836641254569
              29 O     -3.146386819052    5.768064945269    0.707657640913
------------------------ !GEOMETRY! -------------------------
    Number of atoms:    30 
    Geometry Index:     2 
    Coordinates:
               0 C     -5.648147866605    2.159028642076    0.269915512196
               1 C     -5.932033726546    0.808067765568    0.069132483941
               2 C     -4.497548970064    2.542369156753    0.943333030599
               3 C     -3.613350941728    1.591389180071    1.436457490572
               4 C     -3.865635145472    0.233362750244    1.252551908913
               5 C     -5.027606374003   -0.154006588676    0.556512691893
               6 H     -6.324204653265    2.926804233537   -0.084126658572
               7 H     -2.733461521972    1.921002973754    1.973780062545
               8 C     -7.190797491712    0.418992702608   -0.655888016296
               9 H     -7.753353228540    1.305991037057   -0.947512795600
              10 H     -7.827478615962   -0.206522047222   -0.028971677144
              11 H     -6.972675166273   -0.158574551846   -1.556173771919
              12 C     -2.900110866685   -0.777933063936    1.806499677118
              13 H     -2.069448087104   -0.279375886234    2.306111928246
              14 H     -2.492881384890   -1.415689842616    1.019774222632
              15 H     -3.391314893647   -1.438236937462    2.522306794367
              16 S     -5.375232997605   -1.891316795735    0.320928852729
              17 C     -4.508805298857   -2.156736995979   -1.255004684685
              18 H     -4.929053866000   -1.534042790623   -2.044662977720
              19 H     -4.641971618509   -3.205097906818   -1.523985371653
              20 H     -3.443063345138   -1.950581102839   -1.157267568752
              21 O     -4.277845142179    3.886909918184    1.175843214092
              22 C     -3.359492950058    4.610017623690    0.438562008800
              23 N     -2.815132678742    3.956221689757   -0.623132879231
              24 C     -1.952496094709    4.657780525923   -1.551374971477
              25 H     -2.513910542429    5.157500475234   -2.347109496163
              26 H     -1.252304903238    3.953177362294   -2.001098197734
              27 H     -1.393497041307    5.413989255881   -1.004752409491
              28 H     -3.210846942330    3.075292379111   -0.902025322369
              29 O     -3.110737644426    5.742246838244    0.758556920162
------------------------ !GEOMETRY! -------------------------
    Number of atoms:    30 
    Geometry Index:     3 
    Coordinates:
               0 C     -5.645273618834    2.165349454928    0.276933806863
               1 C     -5.926419470516    0.817017360326    0.067771936405
               2 C     -4.498409393794    2.544145577128    0.953993891139
               3 C     -3.612655827161    1.594902435948    1.438550946680
               4 C     -3.863411474319    0.239618187411    1.247698301620
               5 C     -5.024338583757   -0.145117987858    0.552648095374
               6 H     -6.320804560863    2.932773742833   -0.075525682271
               7 H     -2.731876368560    1.922004130445    1.973853592029
               8 C     -7.183305102130    0.433795513781   -0.663944924083
               9 H     -7.743813655574    1.322144481918   -0.951053855629
              10 H     -7.822154438107   -0.195764533112   -0.045038863722
              11 H     -6.963057867555   -0.137793470155   -1.566359805785
              12 C     -2.894903565971   -0.771054659872    1.797732118443
              13 H     -2.066843375711   -0.272844574011    2.299368642897
              14 H     -2.485874055859   -1.404115930876    1.009669288355
              15 H     -3.383837799677   -1.436074945766    2.509288952632
              16 S     -5.375049433191   -1.881504118255    0.317013935611
              17 C     -4.503729980270   -2.164610373811   -1.255058397059
              18 H     -4.921428422163   -1.548866710272   -2.049865450952
              19 H     -4.639331657824   -3.214289974588   -1.511649507450
              20 H     -3.439297609391   -1.959247152953   -1.155122169017
              21 O     -4.276329325810    3.888915712218    1.190828079046
              22 C     -3.375670550112    4.614948385808    0.438885003725
              23 N     -2.832788138022    3.952053293621   -0.614940731921
              24 C     -1.964059707906    4.638592916289   -1.550830772881
              25 H     -2.523776177181    5.127979492092   -2.352489194922
              26 H     -1.267521239204    3.924901936477   -1.989137889584
              27 H     -1.403827294739    5.399322430197   -1.014196586861
              28 H     -3.224617023835    3.064467915786   -0.879229838612
              29 O     -3.110034281963    5.740381464322    0.767387079930
------------------------ !GEOMETRY! -------------------------
    Number of atoms:    30 
    Geometry Index:     4 
    Coordinates:
               0 C     -5.624253904360    2.173398152895    0.280556262960
               1 C     -5.911438516779    0.828106416732    0.061234977577
               2 C     -4.481529793948    2.540068358939    0.969803881793
               3 C     -3.604894433374    1.584384137892    1.454883337522
               4 C     -3.863045729105    0.232013994479    1.255003351597
               5 C     -5.020441034050   -0.141706036194    0.549287641712
               6 H     -6.292634478114    2.946493552840   -0.074422265911
               7 H     -2.725137800072    1.902937926462    1.997874375771
               8 C     -7.164244442174    0.458487836433   -0.685213612721
               9 H     -7.715569020428    1.352799118075   -0.972285486198
              10 H     -7.814043886257   -0.171016352723   -0.077235938650
              11 H     -6.939173065610   -0.109681848682   -1.588972833713
              12 C     -2.904482368779   -0.786391590021    1.809185594463
              13 H     -2.078541950808   -0.294791966048    2.321082114280
              14 H     -2.491213748335   -1.418254282209    1.022027490696
              15 H     -3.403545005596   -1.453063540997    2.512595877043
              16 S     -5.385562291674   -1.874599378104    0.311030982456
              17 C     -4.496446890793   -2.177862203830   -1.248653851701
              18 H     -4.898473280678   -1.562486899041   -2.051993267751
              19 H     -4.641678556868   -3.228071467233   -1.497653704011
              20 H     -3.431247941527   -1.983083105541   -1.135220618892
              21 O     -4.250318273305    3.882663200541    1.216637359171
              22 C     -3.359641702115    4.610784909488    0.456782335861
              23 N     -2.845177090683    3.955520648680   -0.614595727939
              24 C     -2.004195478633    4.646151043274   -1.573643032255
              25 H     -2.589297907893    5.133537553450   -2.358213748043
              26 H     -1.318772397718    3.933918967960   -2.031593304343
              27 H     -1.431659544861    5.408193539902   -1.051682182945
              28 H     -3.235399876898    3.062759610835   -0.866023478474
              29 O     -3.102379588566    5.740819701746    0.776597470645
------------------------ !GEOMETRY! -------------------------
    Number of atoms:    30 
    Geometry Index:     5 
    Coordinates:
               0 C     -5.612707469546    2.175575462627    0.281122803021
               1 C     -5.904465018294    0.830685162635    0.059063015896
               2 C     -4.470389023150    2.536513327656    0.975572681149
               3 C     -3.599897880475    1.576390429598    1.464930777077
               4 C     -3.863038261134    0.224346596038    1.261872570768
               5 C     -5.018811701211   -0.143744580711    0.549435918737
               6 H     -6.277564760500    2.951662120986   -0.075721274552
               7 H     -2.721176344811    1.890668359403    2.013161761590
               8 C     -7.155562093811    0.467095799861   -0.693567188200
               9 H     -7.701773578849    1.364550436321   -0.982614179661
              10 H     -7.811394858311   -0.160660337310   -0.089258557879
              11 H     -6.928332752670   -0.101872986827   -1.597011216462
              12 C     -2.910841171387   -0.798765863112    1.818949611353
              13 H     -2.085769306429   -0.310935621337    2.336975162791
              14 H     -2.494915080590   -1.430653140637    1.032310814967
              15 H     -3.416545975773   -1.465993236649    2.517953059608
              16 S     -5.391583419285   -1.874645379236    0.309306515341
              17 C     -4.496351934138   -2.185547584517   -1.246000667869
              18 H     -4.891495431425   -1.568473528402   -2.052119272085
              19 H     -4.648466682277   -3.235964759652   -1.492348943708
              20 H     -3.430032922175   -1.997519389854   -1.127121265914
              21 O     -4.233860149806    3.877843759776    1.227943291389
              22 C     -3.356152663280    4.612511884567    0.457979314906
              23 N     -2.852184324779    3.964879119894   -0.623289900315
              24 C     -2.020345556173    4.660638768482   -1.586434118780
              25 H     -2.613926637489    5.149421018953   -2.364414297245
              26 H     -1.337250926036    3.950726550594   -2.052499928195
              27 H     -1.445032871178    5.422219945651   -1.065581768101
              28 H     -3.236111621715    3.068742310241   -0.871233737195
              29 O     -3.098459583303    5.742335354959    0.779819017569
------------------------ !GEOMETRY! -------------------------
    Number of atoms:    30 
    Geometry Index:     6 
    Coordinates:
               0 C     -5.589876603252    2.183064218216    0.286928389325
               1 C     -5.889139050914    0.840277944646    0.056155443497
               2 C     -4.450850101023    2.531696534473    0.994244267907
               3 C     -3.591501457552    1.563245653788    1.488139145313
               4 C     -3.862951726066    0.213055049743    1.275996162374
               5 C     -5.014914926772   -0.143183974012    0.550663884626
               6 H     -6.246926788427    2.964623924621   -0.072907210991
               7 H     -2.715640062294    1.868644038051    2.046089795935
               8 C     -7.135741277627    0.489292078205   -0.709794003068
               9 H     -7.671506067699    1.392403346211   -1.001600913250
              10 H     -7.803124568722   -0.135378685605   -0.114465910897
              11 H     -6.903700642040   -0.079508401963   -1.612503932834
              12 C     -2.922656184381   -0.819473770163    1.835892329327
              13 H     -2.100650182705   -0.340074864785    2.366992721668
              14 H     -2.500964894572   -1.448148798729    1.049206589036
              15 H     -3.440282166346   -1.489720279311    2.523658802652
              16 S     -5.399216600349   -1.869620227675    0.299707152007
              17 C     -4.488612643979   -2.188056326673   -1.246335709174
              18 H     -4.870077014639   -1.566849923825   -2.056014432724
              19 H     -4.650729522904   -3.237560363488   -1.491176148541
              20 H     -3.421831501261   -2.010875694419   -1.114611687037
              21 O     -4.201605993305    3.869653776279    1.256240536780
              22 C     -3.354507904357    4.613239734769    0.459991365288
              23 N     -2.872781157071    3.971038786975   -0.634175744030
              24 C     -2.058905823375    4.667733683127   -1.611652852488
              25 H     -2.668007958834    5.151056484753   -2.381283837933
              26 H     -1.380381945998    3.958662503449   -2.086069235570
              27 H     -1.479105562626    5.433263171807   -1.100984493829
              28 H     -3.240923880042    3.064149995843   -0.864948867005
              29 O     -3.097325790868    5.745380385691    0.775798393638
------------------------ !GEOMETRY! -------------------------
    Number of atoms:    30 
    Geometry Index:     7 
    Coordinates:
               0 C     -5.575105853426    2.185816696264    0.290895826788
               1 C     -5.877833287770    0.844531284494    0.055899639365
               2 C     -4.439137767488    2.528692648351    1.006110952252
               3 C     -3.586885957042    1.556102190405    1.504271526215
               4 C     -3.861612956552    0.207122954834    1.287380952196
               5 C     -5.009860760063   -0.143301258782    0.553340351833
               6 H     -6.227559844098    2.969849139596   -0.071415379002
               7 H     -2.714075463639    1.857553330097    2.068740913524
               8 C     -7.121792256180    0.499165049644   -0.716448723724
               9 H     -7.651924315896    1.404623041824   -1.010859820517
              10 H     -7.794984592078   -0.122477829423   -0.124695961512
              11 H     -6.887474267968   -0.070680641534   -1.617732358263
              12 C     -2.928891928520   -0.830172293511    1.850485656479
              13 H     -2.110556352378   -0.355438016594    2.391161258103
              14 H     -2.501496287495   -1.455768889487    1.064549140045
              15 H     -3.454145834182   -1.502669038477    2.530033182711
              16 S     -5.397874511353   -1.867410351490    0.293869433693
              17 C     -4.488922134809   -2.179830838392   -1.254680997470
              18 H     -4.870435460693   -1.554560209342   -2.060960794141
              19 H     -4.654080176057   -3.228021298629   -1.502684640703
              20 H     -3.421845076152   -2.005440910927   -1.123154286868
              21 O     -4.182594737329    3.864319334873    1.272354601432
              22 C     -3.358860204540    4.613553017810    0.456586141009
              23 N     -2.884882303146    3.970561545006   -0.640077140675
              24 C     -2.079921715371    4.665931932036   -1.625560176668
              25 H     -2.695279248688    5.139205444501   -2.396267273622
              26 H     -1.398337138857    3.958314313261   -2.097571444699
              27 H     -1.503615427619    5.439098455878   -1.122665861888
              28 H     -3.234661575323    3.052797602776   -0.855183204783
              29 O     -3.109792565290    5.750563594940    0.761458488889
------------------------ !GEOMETRY! -------------------------
    Number of atoms:    30 
    Geometry Index:     8 
    Coordinates:
               0 C     -5.569184146675    2.187179630491    0.293811200446
               1 C     -5.874788815199    0.847410344884    0.057278725453
               2 C     -4.434155783407    2.527031459265    1.011696269291
               3 C     -3.585784639394    1.551623649215    1.510650408937
               4 C     -3.862431645086    0.203730938008    1.291408706153
               5 C     -5.009966991189   -0.143126421443    0.555013022974
               6 H     -6.219130287896    2.972921484276   -0.068751081909
               7 H     -2.713888463925    1.851099099196    2.077230588330
               8 C     -7.119497362480    0.505154327801   -0.714849136803
               9 H     -7.647001714058    1.411773579343   -1.009741565788
              10 H     -7.794157601300   -0.113545466961   -0.122043202146
              11 H     -6.887319306939   -0.065796650868   -1.615630422377
              12 C     -2.932424228631   -0.836810141633    1.852460533631
              13 H     -2.115166954566   -0.365474756887    2.397418797245
              14 H     -2.503466930615   -1.458707187649    1.064669444183
              15 H     -3.459761350763   -1.511846112760    2.527426540260
              16 S     -5.398955032021   -1.866031933554    0.289162340769
              17 C     -4.484649757629   -2.170450396186   -1.257384708350
              18 H     -4.861492409491   -1.540143606589   -2.061701925823
              19 H     -4.650001620837   -3.216673072645   -1.512822444110
              20 H     -3.417974018775   -1.998532486859   -1.120862677469
              21 O     -4.173033629578    3.860842168147    1.279845972412
              22 C     -3.367255841527    4.614457423905    0.450062377483
              23 N     -2.888663122750    3.967226818868   -0.641717918540
              24 C     -2.086478474604    4.660924057934   -1.630329245280
              25 H     -2.701985387452    5.119968154953   -2.409176599557
              26 H     -1.395082192723    3.956269469639   -2.092088235126
              27 H     -1.520614240677    5.445236688790   -1.133238090223
              28 H     -3.216280567088    3.038041979839   -0.841691122919
              29 O     -3.133847482725    5.758276959480    0.741073448856
------------------------ !GEOMETRY! -------------------------
    Number of atoms:    30 
    Geometry Index:     9 
    Coordinates:
               0 C     -5.568573036676    2.183151944756    0.293855433417
               1 C     -5.871703376593    0.843044099806    0.059732951302
               2 C     -4.434906026687    2.527027944704    1.011603254236
               3 C     -3.585460070020    1.553763695010    1.512494790171
               4 C     -3.858896423741    0.205260018502    1.295450547976
               5 C     -5.005124213903   -0.145023922028    0.559000347894
               6 H     -6.219224689044    2.967286732541   -0.070696505878
               7 H     -2.714869912035    1.856396113308    2.079354148377
               8 C     -7.115897470767    0.496772938728   -0.711422800529
               9 H     -7.645207245620    1.401630675740   -1.008130485223
              10 H     -7.788984480567   -0.121167801942   -0.116261432612
              11 H     -6.883562760337   -0.075680775689   -1.610997069324
              12 C     -2.927516749983   -0.832738226567    1.858940825991
              13 H     -2.112547330453   -0.359310423608    2.405326950554
              14 H     -2.495441100840   -1.453288599115    1.072015782405
              15 H     -3.454090358786   -1.508834797350    2.533167311144
              16 S     -5.389351876401   -1.869322221885    0.293438223203
              17 C     -4.501184492752   -2.158639986428   -1.270470700977
              18 H     -4.896479987563   -1.526966681349   -2.064732376661
              19 H     -4.661864211580   -3.204342297638   -1.530647597439
              20 H     -3.433619120487   -1.978993258686   -1.152575949375
              21 O     -4.176789050525    3.861535981630    1.276944832480
              22 C     -3.377690771191    4.617067086717    0.442587983285
              23 N     -2.882667830567    3.963193042033   -0.637638179982
              24 C     -2.078369238327    4.654800556758   -1.625826717656
              25 H     -2.690020806946    5.097132928636   -2.417113876384
              26 H     -1.373352781747    3.953691814728   -2.071956260000
              27 H     -1.527239465937    5.452037839242   -1.132972923121
              28 H     -3.190122872746    3.024673216625   -0.825421324780
              29 O     -3.163682247182    5.767872362823    0.720130817507
------------------------ !GEOMETRY! -------------------------
    Number of atoms:    30 
    Geometry Index:     10 
    Coordinates:
               0 C     -5.574096994465    2.183351044559    0.293373047894
               1 C     -5.877225149824    0.843265446981    0.060145541600
               2 C     -4.438772323416    2.528122049424    1.008016508198
               3 C     -3.587134679063    1.555218781005    1.505822888275
               4 C     -3.860336505677    0.206627813532    1.289470976780
               5 C     -5.008796526222   -0.144286367042    0.557068059772
               6 H     -6.225880712776    2.967467324601   -0.069351073507
               7 H     -2.714806493157    1.858374999551    2.069881926586
               8 C     -7.123733646830    0.496408720799   -0.707203281260
               9 H     -7.655054972258    1.400973920913   -1.001249310985
              10 H     -7.794012424578   -0.122649479855   -0.109965247629
              11 H     -6.894315409753   -0.074849379958   -1.608290761485
              12 C     -2.925716778849   -0.830867831932    1.848855465908
              13 H     -2.108663103250   -0.356929308391    2.391734720082
              14 H     -2.496847022299   -1.450897858963    1.059691843988
              15 H     -3.448601979176   -1.507499481390    2.525397433709
              16 S     -5.393046139633   -1.869153271116    0.293964694898
              17 C     -4.497246636074   -2.161705464655   -1.264614575249
              18 H     -4.885919586401   -1.529154880097   -2.061553546419
              19 H     -4.658258752350   -3.206900544047   -1.526715082694
              20 H     -3.429871067154   -1.984478230397   -1.140698961473
              21 O     -4.182464876694    3.863064020002    1.272675636527
              22 C     -3.380377808984    4.618694536403    0.441486367194
              23 N     -2.876639592358    3.962671643569   -0.633391405384
              24 C     -2.070248602915    4.653817522591   -1.620192358409
              25 H     -2.679796803230    5.091437905804   -2.415754872395
              26 H     -1.360797150430    3.953780700682   -2.060976604809
              27 H     -1.523962552962    5.454728279764   -1.127833544107
              28 H     -3.179553306489    3.022262803164   -0.819237291827
              29 O     -3.172262402734    5.771134584499    0.716622806221
------------------------ !GEOMETRY! -------------------------
    Number of atoms:    30 
    Geometry Index:     11 
    Coordinates:
               0 C     -5.577239461292    2.182753405848    0.292648015297
               1 C     -5.879301560758    0.842165980632    0.060308834017
               2 C     -4.441299441345    2.528951161359    1.005777196406
               3 C     -3.587741137518    1.557171341293    1.502637986184
               4 C     -3.860044053622    0.208104338764    1.287166333961
               5 C     -5.009310791250   -0.144247958412    0.556721713567
               6 H     -6.230005176215    2.966270852642   -0.069745602259
               7 H     -2.714780022121    1.861239854156    2.065354269043
               8 C     -7.125933854039    0.493861218076   -0.706311542093
               9 H     -7.658908483820    1.397835282021   -0.999368143699
              10 H     -7.794781224587   -0.126777138187   -0.109010562135
              11 H     -6.896343509230   -0.076447740736   -1.608067443896
              12 C     -2.923367145052   -0.828071186707    1.845802823267
              13 H     -2.105511534882   -0.352814890487    2.386403131081
              14 H     -2.495789309663   -1.448750251352    1.056362872334
              15 H     -3.444275459329   -1.504408349881    2.524269551099
              16 S     -5.392874486567   -1.869719364598    0.296085496926
              17 C     -4.499895505717   -2.164012547795   -1.263746631412
              18 H     -4.890711675392   -1.532912652284   -2.060889077206
              19 H     -4.660090482114   -3.209735986606   -1.524413078757
              20 H     -3.432407254399   -1.985393731075   -1.142102917646
              21 O     -4.187195216420    3.864646908506    1.269354662547
              22 C     -3.380827164139    4.619735954635    0.441852620577
              23 N     -2.872599174997    3.963110675823   -0.630584618183
              24 C     -2.065120275192    4.654066018505   -1.616648843065
              25 H     -2.674148788694    5.090910135612   -2.413128406974
              26 H     -1.354912715660    3.953927605004   -2.056127810552
              27 H     -1.519735586643    5.455510768357   -1.124018486538
              28 H     -3.175510060505    3.022804361191   -0.817015127514
              29 O     -3.173779448837    5.772255935696    0.717612785625
