30
Coordinates from ORCA-job .\methiocarb_Compound_2 E -1028.545263168756
  C      -5.564133      2.158481      0.247180
  C      -5.865298      0.817479      0.040684
  C      -4.434255      2.514589      0.953308
  C      -3.587718      1.555812      1.470533
  C      -3.861436      0.207472      1.280139
  C      -5.000258     -0.160336      0.549606
  H      -6.213979      2.930493     -0.121015
  H      -2.727803      1.867039      2.033872
  C      -7.126281      0.467677     -0.717197
  H      -7.646037      1.368668     -1.019259
  H      -7.796924     -0.124641     -0.106849
  H      -6.910545     -0.110022     -1.608695
  C      -2.922933     -0.813392      1.883334
  H      -2.106955     -0.318194      2.395258
  H      -2.499185     -1.464358      1.127390
  H      -3.439544     -1.444810      2.595937
  S      -5.390394     -1.894754      0.326363
  C      -4.535954     -2.259106     -1.234513
  H      -4.924618     -1.657394     -2.045010
  H      -4.717262     -3.303557     -1.454626
  H      -3.469838     -2.099497     -1.145325
  O      -4.186486      3.840716      1.196448
  C      -3.388409      4.605726      0.422534
  N      -2.862466      4.013064     -0.667714
  C      -2.042684      4.776540     -1.584922
  H      -2.616125      5.548440     -2.083970
  H      -1.642322      4.098541     -2.326482
  H      -1.223920      5.244743     -1.057205
  H      -3.132293      3.090901     -0.913549
  O      -3.188386      5.735710      0.730925
30
Coordinates from ORCA-job .\methiocarb_Compound_2 E -1028.551697505338
  C      -5.592942      2.181440      0.265414
  C      -5.880769      0.828399      0.042838
  C      -4.457081      2.547828      0.985105
  C      -3.590491      1.581396      1.493111
  C      -3.852192      0.221432      1.284981
  C      -4.997027     -0.150381      0.546455
  H      -6.261681      2.963123     -0.102388
  H      -2.717859      1.900702      2.067561
  C      -7.129698      0.458809     -0.719193
  H      -7.674031      1.363355     -1.021402
  H      -7.796560     -0.161503     -0.105114
  H      -6.893762     -0.118607     -1.624149
  C      -2.910698     -0.804993      1.865587
  H      -2.083795     -0.309805      2.391726
  H      -2.484121     -1.448901      1.083779
  H      -3.433012     -1.461255      2.574991
  S      -5.372845     -1.883758      0.313006
  C      -4.504833     -2.181964     -1.252697
  H      -4.910337     -1.557245     -2.059530
  H      -4.666521     -3.238435     -1.504349
  H      -3.426566     -2.000368     -1.152437
  O      -4.216368      3.880533      1.236032
  C      -3.399520      4.626080      0.433693
  N      -2.884691      3.962658     -0.637170
  C      -2.050471      4.666947     -1.587544
  H      -2.614984      5.439007     -2.130010
  H      -1.655860      3.939875     -2.306773
  H      -1.211531      5.151686     -1.072824
  H      -3.182066      3.016167     -0.843078
  O      -3.172127      5.779808      0.701557
30
Coordinates from ORCA-job .\methiocarb_Compound_2 E -1028.552025447429
  C      -5.607382      2.186698      0.274985
  C      -5.890814      0.831142      0.049057
  C      -4.470189      2.558145      0.995887
  C      -3.596349      1.591787      1.500008
  C      -3.851492      0.228807      1.289081
  C      -4.997596     -0.145839      0.548216
  H      -6.279818      2.967632     -0.090104
  H      -2.723685      1.915042      2.073746
  C      -7.135089      0.451554     -0.711637
  H      -7.689209      1.351311     -1.013268
  H      -7.795283     -0.177731     -0.098153
  H      -6.893442     -0.123994     -1.617235
  C      -2.908262     -0.798226      1.860468
  H      -2.080464     -0.305799      2.389475
  H      -2.482601     -1.436495      1.072439
  H      -3.428933     -1.462300      2.564926
  S      -5.361431     -1.879098      0.304446
  C      -4.488625     -2.136959     -1.265558
  H      -4.901996     -1.503103     -2.062227
  H      -4.634766     -3.191554     -1.538293
  H      -3.412191     -1.942401     -1.161735
  O      -4.232373      3.892983      1.246244
  C      -3.401470      4.622142      0.429801
  N      -2.886361      3.933887     -0.627305
  C      -2.047892      4.618563     -1.586958
  H      -2.607164      5.382365     -2.148569
  H      -1.648038      3.878642     -2.291015
  H      -1.210850      5.114886     -1.078003
  H      -3.190677      2.988144     -0.815674
  O      -3.169999      5.781800      0.674134
30
Coordinates from ORCA-job .\methiocarb_Compound_2 E -1028.552103468351
  C      -5.622643      2.187681      0.280966
  C      -5.903422      0.831402      0.055735
  C      -4.483123      2.563783      0.996643
  C      -3.603399      1.599598      1.496309
  C      -3.853416      0.235395      1.286704
  C      -5.001230     -0.142625      0.547992
  H      -6.299208      2.967106     -0.079263
  H      -2.730410      1.926953      2.066970
  C      -7.148963      0.444294     -0.697030
  H      -7.711866      1.339607     -0.994948
  H      -7.800381     -0.191125     -0.080898
  H      -6.908866     -0.129418     -1.603930
  C      -2.906567     -0.790251      1.851910
  H      -2.078559     -0.298620      2.380982
  H      -2.481842     -1.424656      1.060536
  H      -3.423570     -1.459406      2.553875
  S      -5.354132     -1.876805      0.296016
  C      -4.473209     -2.108465     -1.273810
  H      -4.889701     -1.469390     -2.064321
  H      -4.605443     -3.160717     -1.562187
  H      -3.399585     -1.903377     -1.163844
  O      -4.248144      3.900413      1.244436
  C      -3.406723      4.618023      0.419261
  N      -2.882035      3.914573     -0.622831
  C      -2.034067      4.588705     -1.580428
  H      -2.586476      5.343402     -2.160781
  H      -1.620392      3.842085     -2.268949
  H      -1.206457      5.096650     -1.067935
  H      -3.190506      2.969189     -0.803903
  O      -3.170103      5.778025      0.653902
30
Coordinates from ORCA-job .\methiocarb_Compound_2 E -1028.552118967752
  C      -5.624865      2.184543      0.281503
  C      -5.903451      0.827920      0.058495
  C      -4.486439      2.564407      0.996106
  C      -3.605425      1.602776      1.497536
  C      -3.852043      0.238033      1.290656
  C      -4.998179     -0.143250      0.550853
  H      -6.302723      2.962462     -0.078992
  H      -2.734350      1.933393      2.068933
  C      -7.148189      0.436276     -0.692925
  H      -7.714815      1.328975     -0.990860
  H      -7.796626     -0.201537     -0.076530
  H      -6.907023     -0.137184     -1.599475
  C      -2.904704     -0.785164      1.859029
  H      -2.079782     -0.292206      2.391239
  H      -2.475754     -1.418460      1.069332
  H      -3.422317     -1.456173      2.558417
  S      -5.344499     -1.878717      0.296090
  C      -4.480286     -2.094241     -1.285499
  H      -4.910294     -1.452196     -2.066031
  H      -4.606778     -3.144759     -1.581947
  H      -3.407337     -1.881429     -1.186260
  O      -4.254234      3.902361      1.240973
  C      -3.403003      4.613990      0.416874
  N      -2.875126      3.906408     -0.620068
  C      -2.028731      4.580044     -1.579000
  H      -2.583188      5.326956     -2.167126
  H      -1.605854      3.832513     -2.260623
  H      -1.207710      5.098079     -1.066635
  H      -3.186141      2.961587     -0.799872
  O      -3.174574      5.776626      0.642987
30
Coordinates from ORCA-job .\methiocarb_Compound_2 E -1028.552133414668
  C      -5.632696      2.185932      0.282504
  C      -5.912490      0.829799      0.060101
  C      -4.491421      2.565404      0.991924
  C      -3.608685      1.603554      1.488921
  C      -3.856003      0.239264      1.282364
  C      -5.004879     -0.141468      0.547114
  H      -6.312154      2.964300     -0.073759
  H      -2.735571      1.933954      2.057202
  C      -7.161689      0.439061     -0.684661
  H      -7.730803      1.331931     -0.976943
  H      -7.805863     -0.200653     -0.065902
  H      -6.926073     -0.132055     -1.594046
  C      -2.905713     -0.784105      1.845870
  H      -2.079921     -0.291475      2.376855
  H      -2.478238     -1.415246      1.053693
  H      -3.420356     -1.457347      2.545154
  S      -5.351068     -1.877158      0.291048
  C      -4.465157     -2.097229     -1.277936
  H      -4.883033     -1.455335     -2.065056
  H      -4.588222     -3.147649     -1.575702
  H      -3.393593     -1.885380     -1.163410
  O      -4.258626      3.903369      1.236206
  C      -3.403361      4.613461      0.414376
  N      -2.871287      3.904383     -0.618870
  C      -2.020490      4.577323     -1.574458
  H      -2.572912      5.320317     -2.169334
  H      -1.589839      3.828948     -2.250171
  H      -1.205380      5.099938     -1.057724
  H      -3.186660      2.961617     -0.802083
  O      -3.172257      5.774573      0.643901
30
Coordinates from ORCA-job .\methiocarb_Compound_2 E -1028.552151062541
  C      -5.643408      2.179655      0.279116
  C      -5.917567      0.821722      0.063224
  C      -4.501213      2.567491      0.981350
  C      -3.611979      1.611964      1.477715
  C      -3.853362      0.246175      1.277300
  C      -5.003007     -0.142832      0.548635
  H      -6.328152      2.953739     -0.076187
  H      -2.738718      1.948802      2.041916
  C      -7.168773      0.423167     -0.674670
  H      -7.745092      1.312451     -0.963475
  H      -7.805544     -0.220443     -0.052415
  H      -6.935181     -0.146436     -1.585545
  C      -2.895070     -0.769710      1.841665
  H      -2.073587     -0.270455      2.372985
  H      -2.461809     -1.397836      1.050232
  H      -3.404629     -1.446765      2.540887
  S      -5.340868     -1.881647      0.298318
  C      -4.482815     -2.094824     -1.287056
  H      -4.920574     -1.454853     -2.064869
  H      -4.601811     -3.145435     -1.585220
  H      -3.411287     -1.873666     -1.191618
  O      -4.275443      3.907672      1.219215
  C      -3.410405      4.616112      0.406359
  N      -2.859010      3.902164     -0.612655
  C      -1.995193      4.572966     -1.558399
  H      -2.542604      5.300973     -2.176070
  H      -1.538985      3.821325     -2.213362
  H      -1.199848      5.112451     -1.028982
  H      -3.179752      2.962504     -0.803073
  O      -3.178756      5.775598      0.641860
30
Coordinates from ORCA-job .\methiocarb_Compound_2 E -1028.552187502220
  C      -5.657988      2.177798      0.276634
  C      -5.930406      0.818759      0.065832
  C      -4.511809      2.570084      0.969505
  C      -3.616621      1.617649      1.461009
  C      -3.856052      0.251055      1.264740
  C      -5.009729     -0.142205      0.545480
  H      -6.347179      2.949892     -0.074443
  H      -2.740356      1.957641      2.018702
  C      -7.186691      0.416639     -0.661818
  H      -7.769685      1.304260     -0.942250
  H      -7.814756     -0.231735     -0.035629
  H      -6.959403     -0.148949     -1.576872
  C      -2.889622     -0.760698      1.823125
  H      -2.069996     -0.257832      2.353946
  H      -2.454138     -1.383492      1.028520
  H      -3.392864     -1.443327      2.521488
  S      -5.344144     -1.882752      0.299802
  C      -4.478853     -2.099701     -1.281095
  H      -4.914544     -1.462075     -2.062052
  H      -4.593491     -3.151042     -1.578238
  H      -3.408364     -1.875446     -1.180706
  O      -4.289845      3.911419      1.203120
  C      -3.409177      4.616824      0.404852
  N      -2.844570      3.900096     -0.604882
  C      -1.972274      4.570220     -1.543789
  H      -2.517161      5.281171     -2.183489
  H      -1.490513      3.816368     -2.177670
  H      -1.197462      5.128649     -1.004184
  H      -3.178058      2.967270     -0.807748
  O      -3.178690      5.775488      0.645292
30
Coordinates from ORCA-job .\methiocarb_Compound_2 E -1028.552284119477
  C      -5.694504      2.170384      0.266306
  C      -5.960283      0.807081      0.071938
  C      -4.538913      2.577294      0.935338
  C      -3.626669      1.635076      1.417028
  C      -3.859318      0.265149      1.234611
  C      -5.022769     -0.142519      0.540003
  H      -6.395656      2.935286     -0.077066
  H      -2.742976      1.985183      1.956699
  C      -7.226480      0.391364     -0.630731
  H      -7.827062      1.272848     -0.893323
  H      -7.832099     -0.268545      0.005620
  H      -7.011922     -0.166049     -1.554163
  C      -2.871599     -0.733699      1.779172
  H      -2.057255     -0.219779      2.307820
  H      -2.430054     -1.343199      0.977106
  H      -3.358042     -1.429785      2.476205
  S      -5.346759     -1.887694      0.312237
  C      -4.485782     -2.112162     -1.269907
  H      -4.929539     -1.483277     -2.053600
  H      -4.592424     -3.166496     -1.559664
  H      -3.416823     -1.878113     -1.174011
  O      -4.330106      3.922221      1.156106
  C      -3.405183      4.619764      0.403714
  N      -2.803947      3.896840     -0.581539
  C      -1.909575      4.566347     -1.501005
  H      -2.444188      5.225794     -2.202649
  H      -1.356328      3.810132     -2.070903
  H      -1.196775      5.179256     -0.936828
  H      -3.173096      2.986579     -0.824065
  O      -3.178312      5.776750      0.656730
30
Coordinates from ORCA-job .\methiocarb_Compound_2 E -1028.552329276874
  C      -5.723162      2.161343      0.253666
  C      -5.982239      0.793885      0.076743
  C      -4.560406      2.582941      0.901679
  C      -3.633190      1.651458      1.377881
  C      -3.858909      0.278107      1.210959
  C      -5.029746     -0.144503      0.537337
  H      -6.434758      2.918406     -0.085608
  H      -2.743790      2.011508      1.901351
  C      -7.254859      0.362991     -0.604591
  H      -7.870703      1.237470     -0.855318
  H      -7.840999     -0.305477      0.041007
  H      -7.048970     -0.189957     -1.532855
  C      -2.854140     -0.708221      1.746745
  H      -2.044724     -0.184004      2.273020
  H      -2.407231     -1.307612      0.939761
  H      -3.326801     -1.414111      2.443341
  S      -5.343759     -1.893584      0.329452
  C      -4.506366     -2.124142     -1.264513
  H      -4.967799     -1.505335     -2.046053
  H      -4.609643     -3.181866     -1.543388
  H      -3.437833     -1.881237     -1.187651
  O      -4.365776      3.931595      1.109579
  C      -3.401661      4.622762      0.403493
  N      -2.768039      3.896883     -0.561717
  C      -1.853344      4.568218     -1.460258
  H      -2.372430      5.174779     -2.219635
  H      -1.232738      3.816693     -1.963611
  H      -1.205947      5.233651     -0.878088
  H      -3.170493      3.013249     -0.848135
  O      -3.173985      5.776141      0.672587
30
Coordinates from ORCA-job .\methiocarb_Compound_2 E -1028.552354502610
  C      -5.711676      2.162939      0.255179
  C      -5.972344      0.796164      0.074179
  C      -4.551684      2.580908      0.911049
  C      -3.628825      1.647073      1.391624
  C      -3.856454      0.274187      1.221455
  C      -5.024575     -0.145369      0.540020
  H      -6.419996      2.921242     -0.088099
  H      -2.741114      2.003918      1.919951
  C      -7.240367      0.367574     -0.616532
  H      -7.851426      1.243264     -0.874758
  H      -7.833815     -0.297773      0.025555
  H      -7.027528     -0.188062     -1.541561
  C      -2.857943     -0.715779      1.761498
  H      -2.046890     -0.194470      2.288182
  H      -2.412687     -1.318637      0.956320
  H      -3.335632     -1.417895      2.458482
  S      -5.342121     -1.892719      0.329709
  C      -4.511434     -2.123708     -1.267706
  H      -4.973948     -1.504799     -2.048475
  H      -4.620989     -3.181807     -1.543157
  H      -3.441515     -1.885459     -1.196454
  O      -4.355819      3.928998      1.123237
  C      -3.399200      4.622564      0.410636
  N      -2.779692      3.902496     -0.569561
  C      -1.870950      4.573631     -1.473913
  H      -2.395629      5.188150     -2.222738
  H      -1.261557      3.821623     -1.990228
  H      -1.211620      5.231587     -0.896233
  H      -3.183012      3.018266     -0.853002
  O      -3.163997      5.773924      0.682524
30
Coordinates from ORCA-job .\methiocarb_Compound_2 E -1028.552373112981
  C      -5.709235      2.163199      0.256907
  C      -5.967897      0.796526      0.074565
  C      -4.551606      2.582361      0.915610
  C      -3.628386      1.650266      1.397757
  C      -3.853304      0.277288      1.227084
  C      -5.019443     -0.144113      0.542350
  H      -6.418094      2.920098     -0.088006
  H      -2.741938      2.007763      1.927514
  C      -7.232588      0.364557     -0.619652
  H      -7.843995      1.238318     -0.883165
  H      -7.827521     -0.300236      0.021364
  H      -7.014519     -0.193354     -1.541935
  C      -2.856008     -0.712500      1.769106
  H      -2.044026     -0.191562      2.294512
  H      -2.412058     -1.317003      0.964695
  H      -3.334260     -1.413096      2.467022
  S      -5.333402     -1.891334      0.329539
  C      -4.518161     -2.115416     -1.276862
  H      -4.989815     -1.497055     -2.052416
  H      -4.629166     -3.173547     -1.551483
  H      -3.447980     -1.875726     -1.217311
  O      -4.357904      3.931348      1.127833
  C      -3.399869      4.621215      0.413149
  N      -2.787276      3.899633     -0.571012
  C      -1.875669      4.564600     -1.476052
  H      -2.397608      5.169978     -2.234106
  H      -1.259717      3.810799     -1.981771
  H      -1.222567      5.231245     -0.901485
  H      -3.197655      3.018933     -0.855252
  O      -3.152773      5.768846      0.688682
30
Coordinates from ORCA-job .\methiocarb_Compound_2 E -1028.552379628683
  C      -5.707924      2.163834      0.257582
  C      -5.966707      0.797427      0.074112
  C      -4.550769      2.582351      0.917128
  C      -3.628150      1.650122      1.399434
  C      -3.852972      0.277406      1.227774
  C      -5.018702     -0.143673      0.542035
  H      -6.416750      2.920771     -0.087296
  H      -2.741891      2.006897      1.929983
  C      -7.231067      0.365631     -0.620830
  H      -7.841596      1.239403     -0.886301
  H      -7.827210     -0.297972      0.020276
  H      -7.012216     -0.193673     -1.542049
  C      -2.856628     -0.713130      1.770268
  H      -2.043070     -0.192876      2.293884
  H      -2.414814     -1.319518      0.966153
  H      -3.335136     -1.411968      2.469749
  S      -5.332954     -1.890739      0.328678
  C      -4.517861     -2.116024     -1.277552
  H      -4.989015     -1.498264     -2.053874
  H      -4.630020     -3.174414     -1.550660
  H      -3.447434     -1.877302     -1.218647
  O      -4.356704      3.931517      1.130033
  C      -3.397514      4.620293      0.415862
  N      -2.790619      3.900502     -0.573167
  C      -1.878646      4.564500     -1.478088
  H      -2.399812      5.162051     -2.243035
  H      -1.255149      3.811523     -1.975785
  H      -1.232886      5.238749     -0.904335
  H      -3.206268      3.023342     -0.860459
  O      -3.143960      5.765263      0.696307
30
Coordinates from ORCA-job .\methiocarb_Compound_2 E -1028.552390756536
  C      -5.704460      2.166455      0.260411
  C      -5.963861      0.800804      0.072879
  C      -4.548275      2.582350      0.922664
  C      -3.627523      1.648666      1.404497
  C      -3.852754      0.276735      1.228878
  C      -5.017767     -0.142141      0.540712
  H      -6.412610      2.924302     -0.083904
  H      -2.741719      2.003226      1.937330
  C      -7.227924      0.371394     -0.624236
  H      -7.834921      1.246268     -0.894124
  H      -7.828132     -0.288324      0.017142
  H      -7.008370     -0.191529     -1.543021
  C      -2.858679     -0.716096      1.771652
  H      -2.040467     -0.197679      2.289791
  H      -2.423337     -1.328047      0.968322
  H      -3.337504     -1.409764      2.476114
  S      -5.333657     -1.888699      0.324519
  C      -4.513039     -2.116376     -1.278316
  H      -4.979712     -1.498421     -2.057208
  H      -4.626848     -3.174799     -1.550500
  H      -3.442236     -1.880133     -1.215990
  O      -4.351684      3.931207      1.138342
  C      -3.393266      4.618398      0.421509
  N      -2.799815      3.901279     -0.577125
  C      -1.888310      4.561879     -1.484336
  H      -2.409057      5.141322     -2.263604
  H      -1.249825      3.810178     -1.964909
  H      -1.257301      5.252932     -0.914520
  H      -3.221803      3.027254     -0.864596
  O      -3.129586      5.759390      0.708805
30
Coordinates from ORCA-job .\methiocarb_Compound_2 E -1028.552399253506
  C      -5.701358      2.168281      0.262719
  C      -5.961424      0.803157      0.071773
  C      -4.545551      2.581755      0.926981
  C      -3.626451      1.646307      1.408342
  C      -3.852456      0.274981      1.229188
  C      -5.017277     -0.141504      0.539542
  H      -6.408584      2.927221     -0.081169
  H      -2.740912      1.999038      1.942886
  C      -7.225658      0.376555     -0.626892
  H      -7.828637      1.252921     -0.900950
  H      -7.830014     -0.278530      0.015458
  H      -7.006519     -0.190428     -1.543238
  C      -2.860258     -0.719746      1.772134
  H      -2.037291     -0.202610      2.284009
  H      -2.431708     -1.337909      0.969988
  H      -3.338968     -1.407598      2.482498
  S      -5.335361     -1.887576      0.321345
  C      -4.509894     -2.116895     -1.278578
  H      -4.972604     -1.497895     -2.059053
  H      -4.624751     -3.175033     -1.551391
  H      -3.438835     -1.882620     -1.212616
  O      -4.346464      3.929929      1.145396
  C      -3.390368      4.617668      0.425597
  N      -2.806410      3.903117     -0.580026
  C      -1.895666      4.561177     -1.489626
  H      -2.416637      5.119040     -2.284421
  H      -1.239691      3.812132     -1.950712
  H      -1.282512      5.271512     -0.924217
  H      -3.229699      3.028907     -0.864954
  O      -3.122481      5.756674      0.717168
30
Coordinates from ORCA-job .\methiocarb_Compound_2 E -1028.552407909336
  C      -5.697745      2.169696      0.265278
  C      -5.958405      0.805025      0.070804
  C      -4.542084      2.580717      0.931530
  C      -3.624599      1.643132      1.412394
  C      -3.851460      0.272326      1.229497
  C      -5.016366     -0.141408      0.538662
  H      -6.403660      2.929990     -0.078366
  H      -2.739333      1.994342      1.948447
  C      -7.222984      0.381589     -0.629243
  H      -7.820961      1.259793     -0.908379
  H      -7.832229     -0.267378      0.014863
  H      -7.004947     -0.190736     -1.542472
  C      -2.861277     -0.724236      1.772805
  H      -2.032684     -0.208143      2.276629
  H      -2.440969     -1.350342      0.972569
  H      -3.339543     -1.404568      2.490868
  S      -5.336875     -1.886902      0.318241
  C      -4.508808     -2.115478     -1.280377
  H      -4.969126     -1.494281     -2.060568
  H      -4.624086     -3.172879     -1.555873
  H      -3.437620     -1.882396     -1.211665
  O      -4.340551      3.927782      1.153108
  C      -3.389596      4.618237      0.428359
  N      -2.811940      3.905346     -0.581590
  C      -1.902325      4.560004     -1.494771
  H      -2.423973      5.086437     -2.310235
  H      -1.222528      3.815636     -1.928487
  H      -1.314498      5.297111     -0.936865
  H      -3.230006      3.026119     -0.858623
  O      -3.123263      5.757494      0.720638
30
Coordinates from ORCA-job .\methiocarb_Compound_2 E -1028.552413123874
  C      -5.695795      2.169643      0.266562
  C      -5.956750      0.805125      0.070727
  C      -4.539813      2.579692      0.933278
  C      -3.622928      1.640937      1.413892
  C      -3.850242      0.270263      1.229466
  C      -5.015595     -0.142099      0.538649
  H      -6.400814      2.930751     -0.077096
  H      -2.737651      1.991853      1.950149
  C      -7.221778      0.383108     -0.629332
  H      -7.816880      1.262304     -0.911491
  H      -7.833535     -0.261870      0.016488
  H      -7.004938     -0.192782     -1.540560
  C      -2.861050     -0.727047      1.773074
  H      -2.029142     -0.211182      2.271670
  H      -2.445736     -1.358192      0.974270
  H      -3.338790     -1.402537      2.496157
  S      -5.337274     -1.887253      0.317200
  C      -4.511324     -2.113060     -1.283040
  H      -4.972759     -1.489960     -2.061055
  H      -4.626408     -3.169765     -1.561335
  H      -3.440150     -1.879729     -1.214827
  O      -4.337588      3.925976      1.156400
  C      -3.391449      4.619996      0.428175
  N      -2.812308      3.907166     -0.580818
  C      -1.903473      4.559651     -1.496444
  H      -2.425354      5.057791     -2.329230
  H      -1.202933      3.820659     -1.905918
  H      -1.338653      5.319809     -0.945767
  H      -3.221511      3.021244     -0.849563
  O      -3.131816      5.761537      0.717499
30
Coordinates from ORCA-job .\methiocarb_Compound_2 E -1028.552415174602
  C      -5.694853      2.169326      0.267318
  C      -5.956116      0.804940      0.071187
  C      -4.538517      2.579065      0.933897
  C      -3.621814      1.639812      1.414309
  C      -3.849416      0.269158      1.229603
  C      -5.015138     -0.142653      0.538995
  H      -6.399347      2.930922     -0.076305
  H      -2.736429      1.990781      1.950358
  C      -7.221399      0.383239     -0.628530
  H      -7.815694      1.262734     -0.911452
  H      -7.833689     -0.260532      0.017993
  H      -7.005116     -0.193720     -1.539186
  C      -2.860728     -0.728541      1.773264
  H      -2.027848     -0.212849      2.270419
  H      -2.446897     -1.361152      0.974891
  H      -3.338473     -1.402566      2.497721
  S      -5.337101     -1.887593      0.316797
  C      -4.513833     -2.110662     -1.285396
  H      -4.977013     -1.486399     -2.061417
  H      -4.628750     -3.166928     -1.565457
  H      -3.442699     -1.876845     -1.218468
  O      -4.336420      3.925000      1.157484
  C      -3.393951      4.621587      0.426806
  N      -2.810697      3.907884     -0.579247
  C      -1.902774      4.559164     -1.496640
  H      -2.424923      5.038616     -2.340079
  H      -1.189206      3.824150     -1.890589
  H      -1.352743      5.334059     -0.951578
  H      -3.212052      3.016460     -0.841482
  O      -3.140804      5.765574      0.711964
30
Coordinates from ORCA-job .\methiocarb_Compound_2 E -1028.552416096733
  C      -5.694298      2.169244      0.267870
  C      -5.955992      0.805031      0.071734
  C      -4.537729      2.578746      0.934285
  C      -3.621217      1.639236      1.414546
  C      -3.849169      0.268626      1.229925
  C      -5.015039     -0.142871      0.539289
  H      -6.398473      2.931198     -0.075594
  H      -2.735744      1.990095      1.950527
  C      -7.221361      0.383414     -0.627827
  H      -7.815987      1.262939     -0.909948
  H      -7.833197     -0.261036      0.018415
  H      -7.005124     -0.192792     -1.538966
  C      -2.860787     -0.729441      1.773409
  H      -2.028434     -0.214093      2.271797
  H      -2.446133     -1.361090      0.974702
  H      -3.339037     -1.404327      2.496695
  S      -5.337110     -1.887658      0.316447
  C      -4.515006     -2.109339     -1.286655
  H      -4.978943     -1.484552     -2.061777
  H      -4.630045     -3.165425     -1.567351
  H      -3.443866     -1.875459     -1.220321
  O      -4.335735      3.924608      1.157900
  C      -3.395535      4.622459      0.425635
  N      -2.809076      3.907961     -0.578080
  C      -1.902323      4.558883     -1.496802
  H      -2.424946      5.028325     -2.345547
  H      -1.181986      3.826273     -1.882869
  H      -1.359957      5.341592     -0.955274
  H      -3.205802      3.013418     -0.836641
  O      -3.146387      5.768065      0.707658
