30
Coordinates from ORCA-job .\methiocarb_Compound_2
  C   -5.69429840905105      2.16924401038218      0.26786986695069
  C   -5.95599217552638      0.80503111492986      0.07173357876980
  C   -4.53772862076542      2.57874608428819      0.93428526678952
  C   -3.62121723323482      1.63923594201236      1.41454567537957
  C   -3.84916914281788      0.26862576163960      1.22992494300720
  C   -5.01503852754370     -0.14287131874174      0.53928932451893
  H   -6.39847313181926      2.93119843748551     -0.07559385684385
  H   -2.73574404325294      1.99009477097948      1.95052702639049
  C   -7.22136126488174      0.38341362460883     -0.62782714763736
  H   -7.81598746719394      1.26293877165584     -0.90994817736406
  H   -7.83319716097931     -0.26103557952663      0.01841499922593
  H   -7.00512391415028     -0.19279232937774     -1.53896572070258
  C   -2.86078725514891     -0.72944111684387      1.77340930833720
  H   -2.02843438608493     -0.21409303573103      2.27179695861746
  H   -2.44613335388708     -1.36109009640950      0.97470158196574
  H   -3.33903665686679     -1.40432735394776      2.49669532879761
  S   -5.33711037227896     -1.88765808103826      0.31644697227693
  C   -4.51500565803312     -2.10933898983329     -1.28665496233326
  H   -4.97894306726065     -1.48455220876886     -2.06177723164365
  H   -4.63004544446401     -3.16542463073162     -1.56735052368561
  H   -3.44386589030806     -1.87545889146247     -1.22032139646286
  O   -4.33573486004815      3.92460831598196      1.15790048629145
  C   -3.39553537198382      4.62245947534727      0.42563476063361
  N   -2.80907607282377      3.90796081888331     -0.57808027940782
  C   -1.90232339794584      4.55888312578207     -1.49680234262104
  H   -2.42494594852671      5.02832515595106     -2.34554707902136
  H   -1.18198571700135      3.82627294813127     -1.88286948814671
  H   -1.35995703817152      5.34159219693242     -0.95527425842565
  H   -3.20580159889698      3.01341813215240     -0.83664125456912
  O   -3.14638681905232      5.76806494526908      0.70765764091280
