 *******************************************************************************
 **                                                                           **
 **                              MOPAC v22.0.4                                **
 **                                                                           **
 *******************************************************************************
 **          Digital Object Identifier (DOI): 10.5281/zenodo.6511958          **
 **    Visit the DOI location for information on how to cite this program.    **
 *******************************************************************************

                              PM6 CALCULATION RESULTS

 *******************************************************************************
 *  CALCULATION DONE:                                Wed Nov  2 17:39:15 2022  *
 *  PM6        - The PM6 Hamiltonian to be used
 *
 *
 *
 *                 CHARGE ON SYSTEM = 0
 *
 *
 *
 *  PRECISE    - TIGHTER CRITERIA TO BE USED
 *  XYZ        - CARTESIAN COORDINATE SYSTEM TO BE USED
 *  T=         - A TIME OF 172800.0 SECONDS REQUESTED
 *  DUMP=N     - RESTART FILE WRITTEN EVERY 7200.0 SECONDS REQUESTED
 *******************************************************************************
CHARGE=0 PM6 PRECISE XYZ
 Geometry optimized using OpenBabel with MMFF94s

   ATOM   CHEMICAL          X               Y               Z
  NUMBER   SYMBOL      (ANGSTROMS)     (ANGSTROMS)     (ANGSTROMS)
 
     1       C          0.16988000  *  -0.31562000  *   1.29564000  *
     2       N         -0.89671000  *   0.47814000  *   0.97046000  *
     3       C         -0.88805000  *   0.56254000  *  -0.33980000  *
     4       N          0.13422000  *  -0.16335000  *  -0.87916000  *
     5       C          0.80603000  *  -0.76558000  *   0.15965000  *
     6       C          1.96583000  *  -1.68060000  *  -0.04465000  *
     7       C          1.55400000  *  -3.16122000  *  -0.08993000  *
     8       C          0.62637000  *  -3.41714000  *  -1.28903000  *
     9       N          2.76132000  *  -4.01379000  *  -0.21787000  *
    10       O         -0.69088000  *  -3.29933000  *  -1.00875000  *
    11       O          1.02894000  *  -3.68046000  *  -2.41640000  *
    12       H          0.41155000  *  -0.53084000  *   2.32934000  *
    13       H         -1.58569000  *   1.12493000  *  -0.94660000  *
    14       H          0.33511000  *  -0.25595000  *  -1.86741000  *
    15       H          2.67796000  *  -1.52629000  *   0.77694000  *
    16       H          2.48981000  *  -1.40086000  *  -0.96820000  *
    17       H          1.03876000  *  -3.45883000  *   0.83024000  *
    18       H          3.17280000  *  -3.83538000  *  -1.14051000  *
    19       H          2.46805000  *  -4.99149000  *  -0.27195000  *
    20       H         -0.88664000  *  -3.02781000  *  -0.08808000  *
 


          CARTESIAN COORDINATES 

    NO.       ATOM           X           Y           Z

     1         C          0.1699     -0.3156      1.2956
     2         N         -0.8967      0.4781      0.9705
     3         C         -0.8881      0.5625     -0.3398
     4         N          0.1342     -0.1633     -0.8792
     5         C          0.8060     -0.7656      0.1597
     6         C          1.9658     -1.6806     -0.0447
     7         C          1.5540     -3.1612     -0.0899
     8         C          0.6264     -3.4171     -1.2890
     9         N          2.7613     -4.0138     -0.2179
    10         O         -0.6909     -3.2993     -1.0088
    11         O          1.0289     -3.6805     -2.4164
    12         H          0.4116     -0.5308      2.3293
    13         H         -1.5857      1.1249     -0.9466
    14         H          0.3351     -0.2560     -1.8674
    15         H          2.6780     -1.5263      0.7769
    16         H          2.4898     -1.4009     -0.9682
    17         H          1.0388     -3.4588      0.8302
    18         H          3.1728     -3.8354     -1.1405
    19         H          2.4680     -4.9915     -0.2720
    20         H         -0.8866     -3.0278     -0.0881

 General Reference for PM6:
 "Optimization of Parameters for Semiempirical Methods V: Modification of NDDO Approximations
 and Application to 70 Elements", J. J. P. Stewart, J. Mol. Mod., 13, 1173-1213 (2007)
 URL: https://link.springer.com/article/10.1007/s00894-007-0233-4

           Empirical Formula: C6 H9 N3 O2  =    20 atoms



      MOLECULAR POINT GROUP   :   C1  


      RHF CALCULATION, NO. OF DOUBLY OCCUPIED LEVELS = 30


          Geometry optimization using EF

          DIAGONAL MATRIX USED AS START HESSIAN

 CYCLE:     1 TIME:   0.008 TIME LEFT:  2.00D  GRAD.:   162.377 HEAT: -49.47319
 CYCLE:     2 TIME:   0.008 TIME LEFT:  2.00D  GRAD.:   129.010 HEAT: -52.28257
 CYCLE:     3 TIME:   0.004 TIME LEFT:  2.00D  GRAD.:   138.958 HEAT: -52.70696
 CYCLE:     4 TIME:   0.008 TIME LEFT:  2.00D  GRAD.:    45.099 HEAT: -55.75497
 CYCLE:     5 TIME:   0.004 TIME LEFT:  2.00D  GRAD.:    27.310 HEAT: -56.20642
 CYCLE:     6 TIME:   0.008 TIME LEFT:  2.00D  GRAD.:    36.512 HEAT: -56.30177
 CYCLE:     7 TIME:   0.000 TIME LEFT:  2.00D  GRAD.:    31.430 HEAT: -56.56562
 CYCLE:     8 TIME:   0.008 TIME LEFT:  2.00D  GRAD.:    17.665 HEAT: -56.76267
 CYCLE:     9 TIME:   0.004 TIME LEFT:  2.00D  GRAD.:    22.740 HEAT: -56.81502
 CYCLE:    10 TIME:   0.004 TIME LEFT:  2.00D  GRAD.:    11.416 HEAT: -57.00324
 CYCLE:    11 TIME:   0.004 TIME LEFT:  2.00D  GRAD.:    19.224 HEAT: -57.01209
 CYCLE:    12 TIME:   0.004 TIME LEFT:  2.00D  GRAD.:     6.877 HEAT: -57.12884
 CYCLE:    13 TIME:   0.008 TIME LEFT:  2.00D  GRAD.:    13.280 HEAT: -57.13755
 CYCLE:    14 TIME:   0.004 TIME LEFT:  2.00D  GRAD.:     9.272 HEAT: -57.20123
 CYCLE:    15 TIME:   0.008 TIME LEFT:  2.00D  GRAD.:     8.053 HEAT: -57.22708
 CYCLE:    16 TIME:   0.004 TIME LEFT:  2.00D  GRAD.:    11.072 HEAT: -57.23441
 CYCLE:    17 TIME:   0.000 TIME LEFT:  2.00D  GRAD.:     6.446 HEAT: -57.27006
 CYCLE:    18 TIME:   0.008 TIME LEFT:  2.00D  GRAD.:     6.167 HEAT: -57.28207
 CYCLE:    19 TIME:   0.004 TIME LEFT:  2.00D  GRAD.:     4.924 HEAT: -57.29688
 CYCLE:    20 TIME:   0.000 TIME LEFT:  2.00D  GRAD.:     4.495 HEAT: -57.31194
 CYCLE:    21 TIME:   0.004 TIME LEFT:  2.00D  GRAD.:     5.691 HEAT: -57.32731
 CYCLE:    22 TIME:   0.008 TIME LEFT:  2.00D  GRAD.:     7.375 HEAT: -57.32867
 CYCLE:    23 TIME:   0.004 TIME LEFT:  2.00D  GRAD.:     5.869 HEAT: -57.34270
 CYCLE:    24 TIME:   0.004 TIME LEFT:  2.00D  GRAD.:     4.102 HEAT: -57.35161
 CYCLE:    25 TIME:   0.004 TIME LEFT:  2.00D  GRAD.:     4.610 HEAT: -57.35278
 CYCLE:    26 TIME:   0.004 TIME LEFT:  2.00D  GRAD.:     2.368 HEAT: -57.36163
 CYCLE:    27 TIME:   0.008 TIME LEFT:  2.00D  GRAD.:     2.876 HEAT: -57.36293
 CYCLE:    28 TIME:   0.000 TIME LEFT:  2.00D  GRAD.:     2.097 HEAT: -57.37242
 CYCLE:    29 TIME:   0.012 TIME LEFT:  2.00D  GRAD.:     3.744 HEAT: -57.37498
 CYCLE:    30 TIME:   0.004 TIME LEFT:  2.00D  GRAD.:     1.813 HEAT: -57.38558
 CYCLE:    31 TIME:   0.004 TIME LEFT:  2.00D  GRAD.:     4.069 HEAT: -57.38570
 CYCLE:    32 TIME:   0.004 TIME LEFT:  2.00D  GRAD.:     2.790 HEAT: -57.40338
 CYCLE:    33 TIME:   0.004 TIME LEFT:  2.00D  GRAD.:     5.283 HEAT: -57.40795
 CYCLE:    34 TIME:   0.004 TIME LEFT:  2.00D  GRAD.:     4.109 HEAT: -57.42873
 CYCLE:    35 TIME:   0.008 TIME LEFT:  2.00D  GRAD.:     5.810 HEAT: -57.43274
 CYCLE:    36 TIME:   0.004 TIME LEFT:  2.00D  GRAD.:     4.585 HEAT: -57.44953
 CYCLE:    37 TIME:   0.000 TIME LEFT:  2.00D  GRAD.:     5.756 HEAT: -57.45364
 CYCLE:    38 TIME:   0.004 TIME LEFT:  2.00D  GRAD.:     5.967 HEAT: -57.46377
 CYCLE:    39 TIME:   0.008 TIME LEFT:  2.00D  GRAD.:     5.192 HEAT: -57.46942
 CYCLE:    40 TIME:   0.004 TIME LEFT:  2.00D  GRAD.:     2.526 HEAT: -57.48728
 CYCLE:    41 TIME:   0.004 TIME LEFT:  2.00D  GRAD.:     2.136 HEAT: -57.49662
 CYCLE:    42 TIME:   0.000 TIME LEFT:  2.00D  GRAD.:     1.533 HEAT: -57.50867
 CYCLE:    43 TIME:   0.004 TIME LEFT:  2.00D  GRAD.:     1.289 HEAT: -57.52439
 CYCLE:    44 TIME:   0.004 TIME LEFT:  2.00D  GRAD.:     3.937 HEAT: -57.53650
 CYCLE:    45 TIME:   0.004 TIME LEFT:  2.00D  GRAD.:     2.447 HEAT: -57.54338
 CYCLE:    46 TIME:   0.004 TIME LEFT:  2.00D  GRAD.:     1.236 HEAT: -57.54756
 CYCLE:    47 TIME:   0.004 TIME LEFT:  2.00D  GRAD.:     1.730 HEAT: -57.55123
 CYCLE:    48 TIME:   0.004 TIME LEFT:  2.00D  GRAD.:     1.408 HEAT: -57.55603
 CYCLE:    49 TIME:   0.004 TIME LEFT:  2.00D  GRAD.:     1.558 HEAT: -57.56234
 CYCLE:    50 TIME:   0.004 TIME LEFT:  2.00D  GRAD.:     1.351 HEAT: -57.56860
 CYCLE:    51 TIME:   0.004 TIME LEFT:  2.00D  GRAD.:     1.167 HEAT: -57.57456
 CYCLE:    52 TIME:   0.000 TIME LEFT:  2.00D  GRAD.:     1.408 HEAT: -57.58404
 CYCLE:    53 TIME:   0.004 TIME LEFT:  2.00D  GRAD.:     1.798 HEAT: -57.59497
 CYCLE:    54 TIME:   0.004 TIME LEFT:  2.00D  GRAD.:     1.908 HEAT: -57.60857
 CYCLE:    55 TIME:   0.004 TIME LEFT:  2.00D  GRAD.:     2.164 HEAT: -57.62042
 CYCLE:    56 TIME:   0.008 TIME LEFT:  2.00D  GRAD.:     1.475 HEAT: -57.62740
 CYCLE:    57 TIME:   0.004 TIME LEFT:  2.00D  GRAD.:     1.265 HEAT: -57.63252
 CYCLE:    58 TIME:   0.004 TIME LEFT:  2.00D  GRAD.:     1.068 HEAT: -57.63592
 CYCLE:    59 TIME:   0.000 TIME LEFT:  2.00D  GRAD.:     2.330 HEAT: -57.63678
 CYCLE:    60 TIME:   0.004 TIME LEFT:  2.00D  GRAD.:     3.243 HEAT: -57.63725
 CYCLE:    61 TIME:   0.004 TIME LEFT:  2.00D  GRAD.:     1.006 HEAT: -57.64078
 CYCLE:    62 TIME:   0.004 TIME LEFT:  2.00D  GRAD.:     0.390 HEAT: -57.64116
 CYCLE:    63 TIME:   0.004 TIME LEFT:  2.00D  GRAD.:     0.321 HEAT: -57.64191
 CYCLE:    64 TIME:   0.004 TIME LEFT:  2.00D  GRAD.:     0.540 HEAT: -57.64285
 CYCLE:    65 TIME:   0.004 TIME LEFT:  2.00D  GRAD.:     0.500 HEAT: -57.64346
 CYCLE:    66 TIME:   0.000 TIME LEFT:  2.00D  GRAD.:     0.542 HEAT: -57.64415
 CYCLE:    67 TIME:   0.008 TIME LEFT:  2.00D  GRAD.:     0.496 HEAT: -57.64500
 CYCLE:    68 TIME:   0.004 TIME LEFT:  2.00D  GRAD.:     0.514 HEAT: -57.64623
 CYCLE:    69 TIME:   0.000 TIME LEFT:  2.00D  GRAD.:     0.374 HEAT: -57.64760
 CYCLE:    70 TIME:   0.004 TIME LEFT:  2.00D  GRAD.:     0.190 HEAT: -57.64851
 CYCLE:    71 TIME:   0.004 TIME LEFT:  2.00D  GRAD.:     0.122 HEAT: -57.64879
 CYCLE:    72 TIME:   0.004 TIME LEFT:  2.00D  GRAD.:     0.133 HEAT: -57.64893
 CYCLE:    73 TIME:   0.004 TIME LEFT:  2.00D  GRAD.:     0.155 HEAT: -57.64908
 CYCLE:    74 TIME:   0.004 TIME LEFT:  2.00D  GRAD.:     0.202 HEAT: -57.64919
 CYCLE:    75 TIME:   0.004 TIME LEFT:  2.00D  GRAD.:     0.290 HEAT: -57.64915
 CYCLE:    76 TIME:   0.004 TIME LEFT:  2.00D  GRAD.:     0.244 HEAT: -57.64929
 CYCLE:    77 TIME:   0.000 TIME LEFT:  2.00D  GRAD.:     0.476 HEAT: -57.64921
 CYCLE:    78 TIME:   0.004 TIME LEFT:  2.00D  GRAD.:     0.414 HEAT: -57.64999
 CYCLE:    79 TIME:   0.008 TIME LEFT:  2.00D  GRAD.:     0.263 HEAT: -57.65088
 CYCLE:    80 TIME:   0.004 TIME LEFT:  2.00D  GRAD.:     0.369 HEAT: -57.65220
 CYCLE:    81 TIME:   0.000 TIME LEFT:  2.00D  GRAD.:     0.257 HEAT: -57.65262
 CYCLE:    82 TIME:   0.004 TIME LEFT:  2.00D  GRAD.:     0.160 HEAT: -57.65271
 CYCLE:    83 TIME:   0.004 TIME LEFT:  2.00D  GRAD.:     0.147 HEAT: -57.65293
 CYCLE:    84 TIME:   0.004 TIME LEFT:  2.00D  GRAD.:     0.062 HEAT: -57.65302
 CYCLE:    85 TIME:   0.004 TIME LEFT:  2.00D  GRAD.:     0.059 HEAT: -57.65309
 CYCLE:    86 TIME:   0.004 TIME LEFT:  2.00D  GRAD.:     0.156 HEAT: -57.65298
 CYCLE:    87 TIME:   0.004 TIME LEFT:  2.00D  GRAD.:     0.068 HEAT: -57.65314
 CYCLE:    88 TIME:   0.004 TIME LEFT:  2.00D  GRAD.:     0.056 HEAT: -57.65318
 CYCLE:    89 TIME:   0.000 TIME LEFT:  2.00D  GRAD.:     0.092 HEAT: -57.65324
 CYCLE:    90 TIME:   0.004 TIME LEFT:  2.00D  GRAD.:     0.058 HEAT: -57.65329
 CYCLE:    91 TIME:   0.004 TIME LEFT:  2.00D  GRAD.:     0.072 HEAT: -57.65319
 CYCLE:    92 TIME:   0.004 TIME LEFT:  2.00D  GRAD.:     0.054 HEAT: -57.65335
 CYCLE:    93 TIME:   0.004 TIME LEFT:  2.00D  GRAD.:     0.056 HEAT: -57.65339
 CYCLE:    94 TIME:   0.004 TIME LEFT:  2.00D  GRAD.:     0.088 HEAT: -57.65342
 CYCLE:    95 TIME:   0.004 TIME LEFT:  2.00D  GRAD.:     0.060 HEAT: -57.65342
 CYCLE:    96 TIME:   0.004 TIME LEFT:  2.00D  GRAD.:     0.061 HEAT: -57.65333
 CYCLE:    97 TIME:   0.004 TIME LEFT:  2.00D  GRAD.:     0.024 HEAT: -57.65340

     GRADIENT =  0.02411 IS LESS THAN CUTOFF =  0.05000



 -------------------------------------------------------------------------------
 CHARGE=0 PM6 PRECISE XYZ
 Geometry optimized using OpenBabel with MMFF94s



     GEOMETRY OPTIMISED USING EIGENVECTOR FOLLOWING (EF).     
     SCF FIELD WAS ACHIEVED                                   


                              PM6 CALCULATION
                                                       MOPAC v22.0.4 Linux
                                                       Wed Nov  2 17:39:15 2022




          FINAL HEAT OF FORMATION =        -57.65340 KCAL/MOL =    -241.22181 KJ/MOL


          COSMO AREA              =        178.52 SQUARE ANGSTROMS
          COSMO VOLUME            =        185.54 CUBIC ANGSTROMS

          GRADIENT NORM           =          0.02411          =       0.00539 PER ATOM
          IONIZATION POTENTIAL    =          9.829186 EV
          HOMO LUMO ENERGIES (EV) =         -9.829 -0.027
          NO. OF FILLED LEVELS    =         30
          MOLECULAR WEIGHT        =        155.1560         POINT GROUP:  C1  

          MOLECULAR DIMENSIONS (Angstroms)

            Atom       Atom       Distance
            H    19    H    13     7.58559
            H    12    O    11     5.01444
            H    16    H    20     3.60373


          SCF CALCULATIONS        =        114
 
          WALL-CLOCK TIME         =      0.422 SECONDS
          COMPUTATION TIME        =      3.175 SECONDS




   ATOM   CHEMICAL          X               Y               Z
  NUMBER   SYMBOL      (ANGSTROMS)     (ANGSTROMS)     (ANGSTROMS)
 
     1       C          0.11090015  *  -0.50963545  *   1.28867309  *
     2       N         -0.93905091  *   0.37493245  *   1.04677118  *
     3       C         -0.90372091  *   0.66486773  *  -0.27307370  *
     4       N          0.15543909  *  -0.02013392  *  -0.89883656  *
     5       C          0.80139645  *  -0.77388957  *   0.09888575  *
     6       C          1.96717946  *  -1.64752497  *  -0.16061535  *
     7       C          1.58695886  *  -3.14507648  *  -0.10747433  *
     8       C          0.63319695  *  -3.47317728  *  -1.27257337  *
     9       N          2.82482120  *  -3.95231333  *  -0.15939808  *
    10       O         -0.68758013  *  -3.13715412  *  -1.11320077  *
    11       O          0.94289845  *  -4.01168933  *  -2.30451242  *
    12       H          0.31145044  *  -0.88137125  *   2.27883427  *
    13       H         -1.57907897  *   1.32589106  *  -0.79646152  *
    14       H          0.40017664  *  -0.00343172  *  -1.87268890  *
    15       H          2.75542677  *  -1.46212898  *   0.61208882  *
    16       H          2.46295607  *  -1.40640376  *  -1.12454537  *
    17       H          1.06968353  *  -3.36230417  *   0.86742461  *
    18       H          3.28382258  *  -3.86948299  *  -1.06574917  *
    19       H          2.62499278  *  -4.93928177  *  -0.01253862  *
    20       H         -0.90434966  *  -2.64004540  *  -0.28377931  *

                             CARTESIAN COORDINATES

   1    C        0.110900147    -0.509635451     1.288673090
   2    N       -0.939050912     0.374932449     1.046771178
   3    C       -0.903720907     0.664867727    -0.273073697
   4    N        0.155439090    -0.020133915    -0.898836563
   5    C        0.801396452    -0.773889572     0.098885746
   6    C        1.967179463    -1.647524967    -0.160615347
   7    C        1.586958864    -3.145076477    -0.107474326
   8    C        0.633196950    -3.473177281    -1.272573368
   9    N        2.824821202    -3.952313328    -0.159398081
  10    O       -0.687580129    -3.137154116    -1.113200767
  11    O        0.942898446    -4.011689332    -2.304512424
  12    H        0.311450439    -0.881371248     2.278834267
  13    H       -1.579078969     1.325891056    -0.796461523
  14    H        0.400176636    -0.003431720    -1.872688897
  15    H        2.755426774    -1.462128980     0.612088820
  16    H        2.462956073    -1.406403761    -1.124545368
  17    H        1.069683533    -3.362304174     0.867424613
  18    H        3.283822584    -3.869482986    -1.065749172
  19    H        2.624992785    -4.939281770    -0.012538615
  20    H       -0.904349656    -2.640045401    -0.283779311


           Empirical Formula: C6 H9 N3 O2  =    20 atoms



      MOLECULAR POINT GROUP   :   C1  


                  EIGENVALUES  
 -34.76181 -32.89517 -31.70742 -31.30773 -29.86399 -28.01853 -25.40115 -23.83127
 -21.95463 -21.71943 -20.93339 -19.22114 -18.96754 -17.34370 -16.86041 -16.18867
 -15.98927 -15.54952 -15.09911 -14.84803 -14.70670 -14.27343 -13.89055 -13.37795
 -12.50562 -11.71900 -11.10101 -11.03267 -10.28670  -9.82919  -0.02747   0.17313
   1.02142   1.15473   1.28874   2.01197   2.46162   2.78881   2.92272   3.37457
   3.67647   3.72423   4.18253   4.31866   4.62747   4.77905   4.87889   5.17017
   5.25383   5.41021   5.68579   5.79033   6.18123


              NET ATOMIC CHARGES AND DIPOLE CONTRIBUTIONS

  ATOM NO.   TYPE          CHARGE      No. of ELECS.   s-Pop       p-Pop       
    1          C          -0.136869        4.1369     1.11392     3.02295
    2          N          -0.278663        5.2787     1.73043     3.54823
    3          C          -0.003661        4.0037     1.12328     2.88038
    4          N          -0.235225        5.2352     1.45451     3.78072
    5          C          -0.055816        4.0558     1.09085     2.96496
    6          C          -0.269922        4.2699     1.08217     3.18775
    7          C          -0.094778        4.0948     1.11768     2.97709
    8          C           0.560305        3.4397     1.12655     2.31315
    9          N          -0.495746        5.4957     1.59504     3.90070
   10          O          -0.510930        6.5109     1.80697     4.70396
   11          O          -0.453919        6.4539     1.85054     4.60338
   12          H           0.185808        0.8142     0.81419
   13          H           0.191124        0.8089     0.80888
   14          H           0.276531        0.7235     0.72347
   15          H           0.194437        0.8056     0.80556
   16          H           0.162233        0.8378     0.83777
   17          H           0.170978        0.8290     0.82902
   18          H           0.227424        0.7726     0.77258
   19          H           0.224379        0.7756     0.77562
   20          H           0.342310        0.6577     0.65769
 DIPOLE           X         Y         Z       TOTAL
 POINT-CHG.     1.806     1.441     1.293     2.648
 HYBRID         0.033    -0.640    -1.957     2.059
 SUM            1.839     0.801    -0.664     2.113


          ATOMIC ORBITAL ELECTRON POPULATIONS

     Atom    s        px        py        pz   
    1  C   1.11392   0.96635   1.02109   1.03551
    2  N   1.73043   1.22445   1.16685   1.15694
    3  C   1.12328   0.94330   1.02202   0.91506
    4  N   1.45451   1.27068   1.36108   1.14896
    5  C   1.09085   1.01039   1.03369   0.92088
    6  C   1.08217   1.04510   0.95241   1.19024
    7  C   1.11768   0.93919   0.97771   1.06020
    8  C   1.12655   0.77345   0.70135   0.83835
    9  N   1.59504   1.24769   1.20921   1.44380
   10  O   1.80697   1.42506   1.72325   1.55566
   11  O   1.85054   1.76869   1.45767   1.37702
   12  H   0.81419
   13  H   0.80888
   14  H   0.72347
   15  H   0.80556
   16  H   0.83777
   17  H   0.82902
   18  H   0.77258
   19  H   0.77562
   20  H   0.65769

 **********************
 *                    *
 * JOB ENDED NORMALLY *
 *                    *
 **********************



 TOTAL JOB TIME:             0.42 SECONDS

 == MOPAC DONE ==
