30
Molecule generated with the Trajectory Software
 Cl	-0.124816362449015	 1.543447151375620	 1.783855156621329
 Cl	 5.680127974196861	-0.553197508222616	 0.468548914253281
 O	-0.520128473747832	 0.359610367960227	-1.460922462019076
 O	-0.739698701417918	-2.140786972663159	-0.984724737188328
 N	-2.411532774211445	 0.220729490848915	 1.020588458772440
 N	-3.819409896679477	-0.334798570228766	 1.568791527353386
 N	-4.061799807539893	 1.831055173804352	 0.271017917006995
 C	-0.191225991748798	-0.839491710770271	-0.430456274489294
 C	-0.867624203574473	-0.673150461650910	 0.976177883711526
 C	 1.477176983908143	-0.274976545466005	-0.224773755588983
 C	-0.239850018899647	-0.396237277511298	-2.309736478032018
 C	-1.447279406151973	-1.590921822590879	-2.181110514934015
 C	 2.126382311977688	 0.713094771526588	 1.000107139327271
 C	 2.700550165184608	-0.539215855242772	-1.765957186322381
 C	 3.619746260118663	 1.635239375040533	 0.889967055157289
 C	 4.124074652806843	 0.244029657881104	-1.650333848469803
 C	-2.564928072470793	 1.752176947509422	-0.003466669397434
 C	 4.461389207246516	 0.651605841192435	-0.163370380513944
 C	-4.901887933064152	 0.772598590439426	 1.419177534028191
 H	-0.644808680848631	 0.117904409941745	 1.777641242967303
 H	-1.217944212420803	-1.895325690507697	 1.486629090001761
 H	 0.841924589131251	-1.267058139758427	-2.682281131392812
 H	-0.316731724375438	 0.228124512852385	-3.851050438879186
 H	-2.571146970213644	-1.306576811697467	-1.777170719716873
 H	-1.636508863575888	-2.356269563712824	-3.163928285758878
 H	 2.997687255290426	-1.315516403255745	-3.366863545878905
 H	 4.444936018620765	 2.471359683530257	 0.831439367825603
 H	 5.023272851664907	-0.467447789581619	-2.151417973148769
 H	-1.929092919250051	 2.680539253295667	-1.218316263854567
 H	-5.852893845764748	 0.318890417141333	 1.447401220181344
