14
Molecule generated with the Trajectory Software
 C	-0.989082679392138	-1.296531229579264	 0.076448050543287
 C	 0.232640602074740	-0.486373595822623	 0.044274012556733
 H	 4.739740303631205	-0.641806352738417	 0.297918867627809
 H	 3.816507197787415	-1.830393892413317	 1.259646464796900
 H	 4.119367484676451	-2.301014667725919	-0.527868557543248
 H	-1.858008639352942	-0.640404027705967	-0.815944982470536
 H	-0.498358030473253	-2.500282520037509	-0.244727143267444
 H	-1.505384669750892	-1.185045666336626	 1.388014989928390
 O	 1.315005105412188	-1.305441965450926	-0.246025967724367
 H	 2.510584114436706	 0.411499650469460	 0.449990955015596
 O	 0.322699979642417	 0.765538135001761	 0.091150614463076
 C	 2.599787692150755	-0.515472597618025	-0.227844258897441
 C	 3.892995546683568	-1.382860207624692	 0.227838046559579
 H	 2.697202772094501	-0.222811245784195	-1.343307839423843
