-------------------------------------------------------------
----------------------- !PROPERTIES! ------------------------
-------------------------------------------------------------
# -----------------------------------------------------------
$ PAL_Flags
   description: The PAL Flags
   geom. index: 1
   prop. index: 1
        Diskflag:     2
# -----------------------------------------------------------
$ SCF_Energy
   description: The SCF energy
   geom. index: 1
   prop. index: 1
        SCF Energy:     -548.7237423164
# -----------------------------------------------------------
$ Mayer_Pop
   description: The Mayer population analysis
   geom. index: 1
   prop. index: 1
     Number of atoms                     : 19
     Threshold for printing              : 0.1000000
     Number of bond orders printed       : 21
  NA   - Mulliken gross atomic population
  ZA   - Total nuclear charge
  QA   - Mulliken gross atomic charge
  VA   - Mayer's total valence
  BVA  - Mayer's bonded valence
  FA   - Mayer's free valence
  ATOM       NA         ZA         QA         VA         BVA        FA
  0   0     6.5138     6.0000    -0.5138     4.1758     4.1758    -0.0000
  1   0     5.2998     6.0000     0.7002     2.8805     2.8805    -0.0000
  2   0     5.3190     6.0000     0.6810     3.1290     3.1290     0.0000
  3   0     7.7770     7.0000    -0.7770     2.5467     2.5467     0.0000
  4   0     8.5597     8.0000    -0.5597     1.5482     1.5482     0.0000
  5   0     8.8756     8.0000    -0.8756     1.3231     1.3231     0.0000
  6   0     6.1531     6.0000    -0.1531     3.4082     3.4082    -0.0000
  7   0     5.3477     6.0000     0.6523     3.0775     3.0775    -0.0000
  8   0     8.4947     8.0000    -0.4947     1.6658     1.6658    -0.0000
  9   0     8.7202     8.0000    -0.7202     1.3629     1.3629     0.0000
 10   0     0.7624     1.0000     0.2376     1.1177     1.1177    -0.0000
 11   0     0.7505     1.0000     0.2495     1.0729     1.0729    -0.0000
 12   0     0.7269     1.0000     0.2731     0.9966     0.9966    -0.0000
 13   0     0.8733     1.0000     0.1267     1.0415     1.0415     0.0000
 14   0     0.8858     1.0000     0.1142     1.0111     1.0111     0.0000
 15   0     0.6170     1.0000     0.3830     0.8368     0.8368     0.0000
 16   0     0.8104     1.0000     0.1896     1.2369     1.2369    -0.0000
 17   0     0.7041     1.0000     0.2959     0.9017     0.9017    -0.0000
 18   0     0.8089     1.0000     0.1911     1.0793     1.0793    -0.0000
      Bond orders larger than 0.1000000
           Atom A     A.N. of A          Atom B    A.N. of B              Bond order
                0             6               1            6                0.803048
                0             6               2            6                0.148953
                0             6               3            7                0.101604
                0             6               6            6                0.817593
                0             6               7            6                0.209326
                0             6              10            1                0.959193
                0             6              11            1                0.944661
                1             6               2            6                0.705363
                1             6               3            7                0.415338
                1             6              12            1                0.948201
                2             6               4            8                0.870319
                2             6               5            8                1.235282
                3             7              13            1                0.985994
                3             7              14            1                0.951810
                4             8              15            1                0.735249
                6             6               7            6                0.641444
                6             6              16            1                1.013902
                6             6              17            1                0.908376
                7             6               8            8                0.716825
                7             6               9            8                1.464772
                8             8              18            1                0.992347
# -----------------------------------------------------------
$ Mayer_Pop
   description: The Mayer population analysis
   geom. index: 1
   prop. index: 2
     Number of atoms                     : 19
     Threshold for printing              : 0.1000000
     Number of bond orders printed       : 21
  NA   - Mulliken gross atomic population
  ZA   - Total nuclear charge
  QA   - Mulliken gross atomic charge
  VA   - Mayer's total valence
  BVA  - Mayer's bonded valence
  FA   - Mayer's free valence
  ATOM       NA         ZA         QA         VA         BVA        FA
  0   0     6.5138     6.0000    -0.5138     4.2690     3.9350     0.3340
  1   0     5.3171     6.0000     0.6829     2.9739     2.6643     0.3096
  2   0     5.3417     6.0000     0.6583     3.1738     2.8659     0.3079
  3   0     7.7709     7.0000    -0.7709     2.7727     2.3737     0.3990
  4   0     8.5461     8.0000    -0.5461     1.8482     1.4196     0.4286
  5   0     8.8493     8.0000    -0.8493     1.6745     1.1846     0.4899
  6   0     6.1652     6.0000    -0.1652     3.5388     3.1987     0.3401
  7   0     5.3700     6.0000     0.6300     3.1231     2.8189     0.3042
  8   0     8.4804     8.0000    -0.4804     1.9520     1.5348     0.4172
  9   0     8.6967     8.0000    -0.6967     1.7075     1.2244     0.4831
 10   0     0.7629     1.0000     0.2371     1.1124     1.0610     0.0514
 11   0     0.7533     1.0000     0.2467     1.0723     1.0164     0.0559
 12   0     0.7272     1.0000     0.2728     0.9989     0.9492     0.0497
 13   0     0.8729     1.0000     0.1271     1.0485     0.9865     0.0620
 14   0     0.8838     1.0000     0.1162     1.0171     0.9552     0.0619
 15   0     0.6228     1.0000     0.3772     0.8425     0.7821     0.0604
 16   0     0.8083     1.0000     0.1917     1.2304     1.1829     0.0475
 17   0     0.7048     1.0000     0.2952     0.9022     0.8495     0.0527
 18   0     0.8130     1.0000     0.1870     1.0853     1.0193     0.0660
      Bond orders larger than 0.1000000
           Atom A     A.N. of A          Atom B    A.N. of B              Bond order
                0             6               1            6                0.744680
                0             6               2            6                0.142363
                0             6               6            6                0.760366
                0             6               7            6                0.199772
                0             6              10            1                0.910869
                0             6              11            1                0.896026
                1             6               2            6                0.649025
                1             6               3            7                0.360579
                1             6              12            1                0.904294
                2             6               4            8                0.800885
                2             6               5            8                1.111449
                3             7              13            1                0.932998
                3             7              14            1                0.898425
                4             8              15            1                0.684145
                6             6               7            6                0.589427
                6             6              16            1                0.968903
                6             6              17            1                0.860387
                7             6               8            8                0.653253
                7             6               9            8                1.335048
                8             8               9            8               -0.101196
                8             8              18            1                0.933811
# -----------------------------------------------------------
$ Mayer_Pop
   description: The Mayer population analysis
   geom. index: 1
   prop. index: 3
     Number of atoms                     : 19
     Threshold for printing              : 0.1000000
     Number of bond orders printed       : 20
  NA   - Mulliken gross atomic population
  ZA   - Total nuclear charge
  QA   - Mulliken gross atomic charge
  VA   - Mayer's total valence
  BVA  - Mayer's bonded valence
  FA   - Mayer's free valence
  ATOM       NA         ZA         QA         VA         BVA        FA
  0   0     6.5166     6.0000    -0.5166     4.2670     3.9387     0.3283
  1   0     5.4138     6.0000     0.5862     3.1006     2.7959     0.3047
  2   0     5.4619     6.0000     0.5381     3.3964     3.1076     0.2888
  3   0     7.7460     7.0000    -0.7460     2.8552     2.4644     0.3908
  4   0     8.4889     8.0000    -0.4889     1.9374     1.5213     0.4161
  5   0     8.7570     8.0000    -0.7570     1.8225     1.3513     0.4712
  6   0     6.2079     6.0000    -0.2079     3.5916     3.2573     0.3343
  7   0     5.4958     6.0000     0.5042     3.3574     3.0728     0.2846
  8   0     8.4188     8.0000    -0.4188     2.0538     1.6486     0.4052
  9   0     8.5940     8.0000    -0.5940     1.8510     1.3857     0.4653
 10   0     0.7456     1.0000     0.2544     1.0870     1.0363     0.0507
 11   0     0.7311     1.0000     0.2689     1.0481     0.9927     0.0554
 12   0     0.7218     1.0000     0.2782     0.9998     0.9514     0.0484
 13   0     0.8702     1.0000     0.1298     1.0521     0.9912     0.0609
 14   0     0.8724     1.0000     0.1276     1.0141     0.9530     0.0611
 15   0     0.6515     1.0000     0.3485     0.8910     0.8330     0.0580
 16   0     0.7938     1.0000     0.2062     1.2105     1.1640     0.0465
 17   0     0.6941     1.0000     0.3059     0.8925     0.8402     0.0523
 18   0     0.8188     1.0000     0.1812     1.1020     1.0374     0.0646
      Bond orders larger than 0.1000000
           Atom A     A.N. of A          Atom B    A.N. of B              Bond order
                0             6               1            6                0.761131
                0             6               2            6                0.149282
                0             6               6            6                0.789202
                0             6               7            6                0.209040
                0             6              10            1                0.895072
                0             6              11            1                0.873002
                1             6               2            6                0.662575
                1             6               3            7                0.465734
                1             6              12            1                0.884553
                2             6               4            8                0.864562
                2             6               5            8                1.257256
                3             7              13            1                0.930090
                3             7              14            1                0.900472
                4             8              15            1                0.686515
                6             6               7            6                0.624863
                6             6              16            1                0.946636
                6             6              17            1                0.845398
                7             6               8            8                0.744878
                7             6               9            8                1.439034
                8             8              18            1                0.937983
# -----------------------------------------------------------
$ MP2_Energies
   description: The MP2 energies
   geom. index: 1
   prop. index: 1
        Reference Energy:       -548.7237423164
        Correlation Energy:       -2.0168451137
        Total MP2 Energy:       -550.7405874301
# -----------------------------------------------------------
$ PAL_Flags
   description: The PAL Flags
   geom. index: 2
   prop. index: 1
        Diskflag:     2
# -----------------------------------------------------------
$ SCF_Energy
   description: The SCF energy
   geom. index: 2
   prop. index: 1
        SCF Energy:     -548.7219455716
# -----------------------------------------------------------
$ MP2_Energies
   description: The MP2 energies
   geom. index: 2
   prop. index: 1
        Reference Energy:       -548.7219455716
        Correlation Energy:       -2.0181028449
        Total MP2 Energy:       -550.7400484165
# -----------------------------------------------------------
$ PAL_Flags
   description: The PAL Flags
   geom. index: 3
   prop. index: 1
        Diskflag:     2
# -----------------------------------------------------------
$ SCF_Energy
   description: The SCF energy
   geom. index: 3
   prop. index: 1
        SCF Energy:     -548.7242898827
# -----------------------------------------------------------
$ MP2_Energies
   description: The MP2 energies
   geom. index: 3
   prop. index: 1
        Reference Energy:       -548.7242898827
        Correlation Energy:       -2.0152583567
        Total MP2 Energy:       -550.7395482394
# -----------------------------------------------------------
$ PAL_Flags
   description: The PAL Flags
   geom. index: 4
   prop. index: 1
        Diskflag:     2
# -----------------------------------------------------------
$ SCF_Energy
   description: The SCF energy
   geom. index: 4
   prop. index: 1
        SCF Energy:     -548.7251299677
# -----------------------------------------------------------
$ MP2_Energies
   description: The MP2 energies
   geom. index: 4
   prop. index: 1
        Reference Energy:       -548.7251299677
        Correlation Energy:       -2.0151786773
        Total MP2 Energy:       -550.7403086450
# -----------------------------------------------------------
$ PAL_Flags
   description: The PAL Flags
   geom. index: 5
   prop. index: 1
        Diskflag:     2
# -----------------------------------------------------------
$ SCF_Energy
   description: The SCF energy
   geom. index: 5
   prop. index: 1
        SCF Energy:     -548.7241706776
# -----------------------------------------------------------
$ MP2_Energies
   description: The MP2 energies
   geom. index: 5
   prop. index: 1
        Reference Energy:       -548.7241706776
        Correlation Energy:       -2.0171772525
        Total MP2 Energy:       -550.7413479301
# -----------------------------------------------------------
$ PAL_Flags
   description: The PAL Flags
   geom. index: 6
   prop. index: 1
        Diskflag:     2
# -----------------------------------------------------------
$ SCF_Energy
   description: The SCF energy
   geom. index: 6
   prop. index: 1
        SCF Energy:     -548.7246545609
# -----------------------------------------------------------
$ MP2_Energies
   description: The MP2 energies
   geom. index: 6
   prop. index: 1
        Reference Energy:       -548.7246545609
        Correlation Energy:       -2.0170152980
        Total MP2 Energy:       -550.7416698589
# -----------------------------------------------------------
$ PAL_Flags
   description: The PAL Flags
   geom. index: 7
   prop. index: 1
        Diskflag:     2
# -----------------------------------------------------------
$ SCF_Energy
   description: The SCF energy
   geom. index: 7
   prop. index: 1
        SCF Energy:     -548.7251529727
# -----------------------------------------------------------
$ MP2_Energies
   description: The MP2 energies
   geom. index: 7
   prop. index: 1
        Reference Energy:       -548.7251529727
        Correlation Energy:       -2.0166573105
        Total MP2 Energy:       -550.7418102832
# -----------------------------------------------------------
$ PAL_Flags
   description: The PAL Flags
   geom. index: 8
   prop. index: 1
        Diskflag:     2
# -----------------------------------------------------------
$ SCF_Energy
   description: The SCF energy
   geom. index: 8
   prop. index: 1
        SCF Energy:     -548.7248143733
# -----------------------------------------------------------
$ MP2_Energies
   description: The MP2 energies
   geom. index: 8
   prop. index: 1
        Reference Energy:       -548.7248143733
        Correlation Energy:       -2.0170276366
        Total MP2 Energy:       -550.7418420099
# -----------------------------------------------------------
$ PAL_Flags
   description: The PAL Flags
   geom. index: 9
   prop. index: 1
        Diskflag:     2
# -----------------------------------------------------------
$ SCF_Energy
   description: The SCF energy
   geom. index: 9
   prop. index: 1
        SCF Energy:     -548.7248329948
# -----------------------------------------------------------
$ MP2_Energies
   description: The MP2 energies
   geom. index: 9
   prop. index: 1
        Reference Energy:       -548.7248329948
        Correlation Energy:       -2.0170323559
        Total MP2 Energy:       -550.7418653508
# -----------------------------------------------------------
$ PAL_Flags
   description: The PAL Flags
   geom. index: 10
   prop. index: 1
        Diskflag:     2
# -----------------------------------------------------------
$ SCF_Energy
   description: The SCF energy
   geom. index: 10
   prop. index: 1
        SCF Energy:     -548.7248683135
# -----------------------------------------------------------
$ MP2_Energies
   description: The MP2 energies
   geom. index: 10
   prop. index: 1
        Reference Energy:       -548.7248683135
        Correlation Energy:       -2.0169986320
        Total MP2 Energy:       -550.7418669455
# -----------------------------------------------------------
$ PAL_Flags
   description: The PAL Flags
   geom. index: 11
   prop. index: 1
        Diskflag:     2
# -----------------------------------------------------------
$ SCF_Energy
   description: The SCF energy
   geom. index: 11
   prop. index: 1
        SCF Energy:     -548.7248577106
# -----------------------------------------------------------
$ MP2_Energies
   description: The MP2 energies
   geom. index: 11
   prop. index: 1
        Reference Energy:       -548.7248577106
        Correlation Energy:       -2.0170150941
        Total MP2 Energy:       -550.7418728047
# -----------------------------------------------------------
$ PAL_Flags
   description: The PAL Flags
   geom. index: 12
   prop. index: 1
        Diskflag:     2
# -----------------------------------------------------------
$ SCF_Energy
   description: The SCF energy
   geom. index: 12
   prop. index: 1
        SCF Energy:     -548.7248158642
# -----------------------------------------------------------
$ MP2_Energies
   description: The MP2 energies
   geom. index: 12
   prop. index: 1
        Reference Energy:       -548.7248158642
        Correlation Energy:       -2.0170589421
        Total MP2 Energy:       -550.7418748062
# -----------------------------------------------------------
$ PAL_Flags
   description: The PAL Flags
   geom. index: 13
   prop. index: 1
        Diskflag:     2
# -----------------------------------------------------------
$ SCF_Energy
   description: The SCF energy
   geom. index: 13
   prop. index: 1
        SCF Energy:     -548.7248073646
# -----------------------------------------------------------
$ Mayer_Pop
   description: The Mayer population analysis
   geom. index: 13
   prop. index: 1
     Number of atoms                     : 19
     Threshold for printing              : 0.1000000
     Number of bond orders printed       : 20
  NA   - Mulliken gross atomic population
  ZA   - Total nuclear charge
  QA   - Mulliken gross atomic charge
  VA   - Mayer's total valence
  BVA  - Mayer's bonded valence
  FA   - Mayer's free valence
  ATOM       NA         ZA         QA         VA         BVA        FA
  0   0     6.5238     6.0000    -0.5238     4.1670     4.1670     0.0000
  1   0     5.2409     6.0000     0.7591     2.7628     2.7628    -0.0000
  2   0     5.2821     6.0000     0.7179     3.0837     3.0837    -0.0000
  3   0     7.7913     7.0000    -0.7913     2.5322     2.5322     0.0000
  4   0     8.5727     8.0000    -0.5727     1.5282     1.5282    -0.0000
  5   0     8.9055     8.0000    -0.9055     1.2943     1.2943    -0.0000
  6   0     6.1588     6.0000    -0.1588     3.4069     3.4069     0.0000
  7   0     5.3225     6.0000     0.6775     3.0346     3.0346     0.0000
  8   0     8.5032     8.0000    -0.5032     1.6688     1.6688     0.0000
  9   0     8.7327     8.0000    -0.7327     1.3564     1.3564     0.0000
 10   0     0.7605     1.0000     0.2395     1.1213     1.1213     0.0000
 11   0     0.7568     1.0000     0.2432     1.0938     1.0938     0.0000
 12   0     0.7273     1.0000     0.2727     0.9846     0.9846    -0.0000
 13   0     0.8812     1.0000     0.1188     1.0485     1.0485     0.0000
 14   0     0.8924     1.0000     0.1076     1.0059     1.0059     0.0000
 15   0     0.6185     1.0000     0.3815     0.8378     0.8378    -0.0000
 16   0     0.8309     1.0000     0.1691     1.2714     1.2714    -0.0000
 17   0     0.6882     1.0000     0.3118     0.8805     0.8805     0.0000
 18   0     0.8106     1.0000     0.1894     1.0760     1.0760     0.0000
      Bond orders larger than 0.1000000
           Atom A     A.N. of A          Atom B    A.N. of B              Bond order
                0             6               1            6                0.759811
                0             6               2            6                0.172399
                0             6               6            6                0.802573
                0             6               7            6                0.223164
                0             6              10            1                0.960431
                0             6              11            1                0.942059
                1             6               2            6                0.694356
                1             6               3            7                0.383566
                1             6              12            1                0.949467
                2             6               4            8                0.862739
                2             6               5            8                1.194312
                3             7              13            1                0.996354
                3             7              14            1                0.956850
                4             8              15            1                0.726569
                6             6               7            6                0.630385
                6             6              16            1                1.028558
                6             6              17            1                0.903887
                7             6               8            8                0.706462
                7             6               9            8                1.446129
                8             8              18            1                0.994216
# -----------------------------------------------------------
$ Mayer_Pop
   description: The Mayer population analysis
   geom. index: 13
   prop. index: 2
     Number of atoms                     : 19
     Threshold for printing              : 0.1000000
     Number of bond orders printed       : 20
  NA   - Mulliken gross atomic population
  ZA   - Total nuclear charge
  QA   - Mulliken gross atomic charge
  VA   - Mayer's total valence
  BVA  - Mayer's bonded valence
  FA   - Mayer's free valence
  ATOM       NA         ZA         QA         VA         BVA        FA
  0   0     6.5231     6.0000    -0.5231     4.2591     3.9285     0.3306
  1   0     5.2586     6.0000     0.7414     2.8574     2.5532     0.3042
  2   0     5.3052     6.0000     0.6948     3.1280     2.8237     0.3043
  3   0     7.7851     7.0000    -0.7851     2.7580     2.3602     0.3978
  4   0     8.5593     8.0000    -0.5593     1.8300     1.4010     0.4290
  5   0     8.8785     8.0000    -0.8785     1.6485     1.1581     0.4904
  6   0     6.1705     6.0000    -0.1705     3.5371     3.2005     0.3366
  7   0     5.3450     6.0000     0.6550     3.0800     2.7786     0.3014
  8   0     8.4889     8.0000    -0.4889     1.9548     1.5385     0.4163
  9   0     8.7090     8.0000    -0.7090     1.7020     1.2195     0.4825
 10   0     0.7613     1.0000     0.2387     1.1161     1.0647     0.0514
 11   0     0.7600     1.0000     0.2400     1.0937     1.0369     0.0568
 12   0     0.7277     1.0000     0.2723     0.9884     0.9387     0.0497
 13   0     0.8806     1.0000     0.1194     1.0556     0.9938     0.0618
 14   0     0.8902     1.0000     0.1098     1.0121     0.9505     0.0616
 15   0     0.6246     1.0000     0.3754     0.8440     0.7831     0.0609
 16   0     0.8282     1.0000     0.1718     1.2644     1.2174     0.0470
 17   0     0.6893     1.0000     0.3107     0.8816     0.8292     0.0524
 18   0     0.8149     1.0000     0.1851     1.0823     1.0159     0.0664
      Bond orders larger than 0.1000000
           Atom A     A.N. of A          Atom B    A.N. of B              Bond order
                0             6               1            6                0.703577
                0             6               2            6                0.164835
                0             6               6            6                0.746429
                0             6               7            6                0.213284
                0             6              10            1                0.912549
                0             6              11            1                0.893867
                1             6               2            6                0.638053
                1             6               3            7                0.329680
                1             6              12            1                0.906515
                2             6               4            8                0.793610
                2             6               5            8                1.073113
                3             7              13            1                0.943515
                3             7              14            1                0.903463
                4             8              15            1                0.675990
                6             6               7            6                0.578655
                6             6              16            1                0.984073
                6             6              17            1                0.856565
                7             6               8            8                0.643632
                7             6               9            8                1.317861
                8             8              18            1                0.935579
# -----------------------------------------------------------
$ Mayer_Pop
   description: The Mayer population analysis
   geom. index: 13
   prop. index: 3
     Number of atoms                     : 19
     Threshold for printing              : 0.1000000
     Number of bond orders printed       : 20
  NA   - Mulliken gross atomic population
  ZA   - Total nuclear charge
  QA   - Mulliken gross atomic charge
  VA   - Mayer's total valence
  BVA  - Mayer's bonded valence
  FA   - Mayer's free valence
  ATOM       NA         ZA         QA         VA         BVA        FA
  0   0     6.5260     6.0000    -0.5260     4.2580     3.9333     0.3247
  1   0     5.3528     6.0000     0.6472     2.9881     2.6888     0.2993
  2   0     5.4267     6.0000     0.5733     3.3608     3.0754     0.2854
  3   0     7.7615     7.0000    -0.7615     2.8407     2.4510     0.3897
  4   0     8.5018     8.0000    -0.5018     1.9210     1.5046     0.4164
  5   0     8.7858     8.0000    -0.7858     1.7980     1.3263     0.4717
  6   0     6.2094     6.0000    -0.2094     3.5937     3.2631     0.3306
  7   0     5.4698     6.0000     0.5302     3.3201     3.0379     0.2822
  8   0     8.4282     8.0000    -0.4282     2.0576     1.6532     0.4044
  9   0     8.6062     8.0000    -0.6062     1.8482     1.3835     0.4647
 10   0     0.7440     1.0000     0.2560     1.0885     1.0379     0.0506
 11   0     0.7381     1.0000     0.2619     1.0673     1.0109     0.0564
 12   0     0.7245     1.0000     0.2755     0.9913     0.9428     0.0485
 13   0     0.8779     1.0000     0.1221     1.0584     0.9977     0.0607
 14   0     0.8792     1.0000     0.1208     1.0098     0.9490     0.0608
 15   0     0.6518     1.0000     0.3482     0.8891     0.8305     0.0586
 16   0     0.8156     1.0000     0.1844     1.2442     1.1984     0.0458
 17   0     0.6813     1.0000     0.3187     0.8721     0.8199     0.0522
 18   0     0.8194     1.0000     0.1806     1.0978     1.0328     0.0650
      Bond orders larger than 0.1000000
           Atom A     A.N. of A          Atom B    A.N. of B              Bond order
                0             6               1            6                0.722274
                0             6               2            6                0.171668
                0             6               6            6                0.774370
                0             6               7            6                0.222716
                0             6              10            1                0.896996
                0             6              11            1                0.871425
                1             6               2            6                0.652666
                1             6               3            7                0.431914
                1             6              12            1                0.887505
                2             6               4            8                0.859054
                2             6               5            8                1.223171
                3             7              13            1                0.940100
                3             7              14            1                0.906454
                4             8              15            1                0.677066
                6             6               7            6                0.616513
                6             6              16            1                0.961693
                6             6              17            1                0.843260
                7             6               8            8                0.737001
                7             6               9            8                1.422203
                8             8              18            1                0.938963
# -----------------------------------------------------------
$ MP2_Energies
   description: The MP2 energies
   geom. index: 13
   prop. index: 1
        Reference Energy:       -548.7248073646
        Correlation Energy:       -2.0170683639
        Total MP2 Energy:       -550.7418757286
# -----------------------------------------------------------
$ SCF_Electric_Properties
   description: The SCF Calculated Electric Properties
   geom. index: 13
   prop. index: 1
       Filename                          : job.scfp 
       Do Dipole Moment Calculation      : true 
       Do Quadrupole Moment Calculation  : false 
       Do Polarizability Calculation     : false 
** Dipole moment part of electric properties **
        Magnitude of dipole moment (Debye) :        5.5113899568
        Electronic Contribution:
                  0    
      0       3.252244
      1       2.737328
      2      -3.208282
        Nuclear Contribution:
                  0    
      0      -2.651935
      1      -3.353762
      2       5.198553
        Total Dipole moment:
                  0    
      0       0.600310
      1      -0.616434
      2       1.990271
# -----------------------------------------------------------
$ MP2_Electric_Properties
   description: The MP2 Calculated Electric Properties
   geom. index: 13
   prop. index: 1
       Filename                          : job.pmp2ur 
       Do Dipole Moment Calculation      : true 
       Do Quadrupole Moment Calculation  : false 
       Do Polarizability Calculation     : false 
** Dipole moment part of electric properties **
        Magnitude of dipole moment (Debye) :        5.3638573122
        Electronic Contribution:
                  0    
      0       3.245261
      1       2.760021
      2      -3.262413
        Nuclear Contribution:
                  0    
      0      -2.651935
      1      -3.353762
      2       5.198553
        Total Dipole moment:
                  0    
      0       0.593327
      1      -0.593741
      2       1.936140
# -----------------------------------------------------------
$ MP2_Electric_Properties
   description: The MP2 Calculated Electric Properties
   geom. index: 13
   prop. index: 2
       Filename                          : job.pmp2re 
       Do Dipole Moment Calculation      : true 
       Do Quadrupole Moment Calculation  : false 
       Do Polarizability Calculation     : false 
** Dipole moment part of electric properties **
        Magnitude of dipole moment (Debye) :        4.9056872228
        Electronic Contribution:
                  0    
      0       3.244851
      1       2.821586
      2      -3.440666
        Nuclear Contribution:
                  0    
      0      -2.651935
      1      -3.353762
      2       5.198553
        Total Dipole moment:
                  0    
      0       0.592917
      1      -0.532176
      2       1.757886
# -------------------------------------------------------------
----------------------- !GEOMETRIES! ------------------------
# -------------------------------------------------------------
------------------------ !GEOMETRY! -------------------------
    Number of atoms:    19 
    Geometry Index:     1 
    Coordinates:
               0 C      1.301350149274   -0.122451871862   -0.098171404505
               1 C      0.495048787966    0.771381672252   -1.071572966344
               2 C      0.856133501177    0.450945775151   -2.539954395175
               3 N     -0.924602096910    0.578341283297   -0.785734499462
               4 O      1.948960314527    1.053362508828   -3.044061205211
               5 O      0.201228026176   -0.315635962902   -3.211444769334
               6 C      2.844568867974   -0.077412087408   -0.212334881106
               7 C      3.393704518054    1.328759314868   -0.055425576356
               8 O      3.991433700786    1.653395821156    1.111451309136
               9 O      3.295719194954    2.183765844534   -0.916110110717
              10 H      0.988131262748   -1.165119427883   -0.251990494218
              11 H      0.988597584117    0.156177440934    0.917051240884
              12 H      0.739206206827    1.823970438717   -0.873851731085
              13 H     -1.237656377291   -0.278750266736   -1.242198674141
              14 H     -1.469552965081    1.326570122232   -1.208392198575
              15 H      2.406366843031    1.598877279767   -2.362443365540
              16 H      3.165380902549   -0.442742808181   -1.196812114532
              17 H      3.272622049358   -0.752438417200    0.542375954207
              18 H      4.019319529765    0.891573340438    1.706979882074
------------------------ !GEOMETRY! -------------------------
    Number of atoms:    19 
    Geometry Index:     2 
    Coordinates:
               0 C      1.291971632465   -0.127828724281   -0.093617390181
               1 C      0.505393086234    0.778439582643   -1.046603750824
               2 C      0.892281393062    0.465890637464   -2.496931801754
               3 N     -0.909708493863    0.582776606268   -0.782610666779
               4 O      2.030870925610    1.020469206641   -2.942544884672
               5 O      0.247205542561   -0.289242577007   -3.188763488499
               6 C      2.818964322076   -0.080101831183   -0.244235334633
               7 C      3.338177946332    1.329652449332   -0.108497202759
               8 O      3.946996376346    1.669487391097    1.043895581171
               9 O      3.186299111032    2.180664250322   -0.963125381990
              10 H      0.970706133671   -1.159220394283   -0.255970349229
              11 H      0.997194898510    0.145996358453    0.920317922494
              12 H      0.755237827077    1.819948963535   -0.834728091025
              13 H     -1.208108866172   -0.264786193711   -1.256700135704
              14 H     -1.441817838965    1.331994315419   -1.209086546416
              15 H      2.468817318005    1.533025413802   -2.227909955862
              16 H      3.113506872517   -0.437341366078   -1.231625465860
              17 H      3.270769323411   -0.742047860833    0.495710818249
              18 H      4.001202490090    0.904793772401    1.630386124273
------------------------ !GEOMETRY! -------------------------
    Number of atoms:    19 
    Geometry Index:     3 
    Coordinates:
               0 C      1.317295212483   -0.092857034257   -0.122671758402
               1 C      0.534437650638    0.791992420382   -1.074217358431
               2 C      0.858024717928    0.392918980795   -2.505974577203
               3 N     -0.862656611105    0.618168648149   -0.760923069441
               4 O      1.965738637384    0.921516553761   -3.035413894505
               5 O      0.179019933977   -0.398880412413   -3.118322583143
               6 C      2.831235173236   -0.032551165936   -0.267720570642
               7 C      3.328454722294    1.358901167565   -0.017620038068
               8 O      3.908880660124    1.601628866759    1.166716182416
               9 O      3.182658519491    2.278128959456   -0.796234458717
              10 H      1.000515310778   -1.115426305351   -0.288035561179
              11 H      1.023983158800    0.177055278380    0.882586332826
              12 H      0.803241458859    1.828922789083   -0.914738786815
              13 H     -1.168711916192   -0.241441765047   -1.195455950837
              14 H     -1.394183143560    1.347415358587   -1.209115278106
              15 H      2.408567161825    1.489489461722   -2.370773427191
              16 H      3.130531469854   -0.319457536274   -1.265910748639
              17 H      3.278440701580   -0.727605824269    0.427159607501
              18 H      3.950487181605    0.784651558908    1.674025938577
------------------------ !GEOMETRY! -------------------------
    Number of atoms:    19 
    Geometry Index:     4 
    Coordinates:
               0 C      1.312551020410   -0.094866239679   -0.101013336819
               1 C      0.517057104131    0.786203665114   -1.078078797386
               2 C      0.868208625710    0.419197273868   -2.523774949611
               3 N     -0.891882217483    0.583550974617   -0.782443417053
               4 O      1.899819000896    1.074278686600   -3.077899034073
               5 O      0.238460152533   -0.405686339168   -3.147637464444
               6 C      2.846252828785   -0.079748630540   -0.215277112931
               7 C      3.399340201150    1.310188867574   -0.037659815453
               8 O      3.966820730864    1.611686528063    1.144934422186
               9 O      3.343916139948    2.167925060513   -0.897113106496
              10 H      0.980403504935   -1.125245782621   -0.244510730447
              11 H      1.008851285184    0.199436335550    0.904102574137
              12 H      0.757442676914    1.836041570290   -0.907539714083
              13 H     -1.184052288793   -0.284554781522   -1.223825790913
              14 H     -1.440435653691    1.310222068224   -1.228739705163
              15 H      2.276868935757    1.714000785243   -2.434325148632
              16 H      3.161462535239   -0.439547056834   -1.193947744146
              17 H      3.259916648125   -0.756486282109    0.532810994055
              18 H      3.954958769385    0.835973296816    1.719297877273
------------------------ !GEOMETRY! -------------------------
    Number of atoms:    19 
    Geometry Index:     5 
    Coordinates:
               0 C      1.310063285438   -0.113087165140   -0.106076087127
               1 C      0.508030159005    0.783936183168   -1.070957803122
               2 C      0.860528840555    0.434721049486   -2.526865921566
               3 N     -0.909606068118    0.600887391304   -0.773349562134
               4 O      1.968802641391    1.003789950250   -3.034465827489
               5 O      0.221471494653   -0.370641936030   -3.167493899944
               6 C      2.846246395729   -0.067921304486   -0.238849231588
               7 C      3.369862345200    1.337680656663   -0.048688486413
               8 O      3.944297909565    1.642284812684    1.134073892168
               9 O      3.244918371912    2.213369972942   -0.883739225285
              10 H      0.987460020700   -1.149694663756   -0.263567233466
              11 H      1.007598183770    0.166027540937    0.909269179625
              12 H      0.765091270923    1.832513938302   -0.886705264585
              13 H     -1.220408016595   -0.261741612334   -1.219772323262
              14 H     -1.452336859091    1.342160795013   -1.209946586073
              15 H      2.404223747701    1.567314466443   -2.359146987710
              16 H      3.153681633608   -0.400618097864   -1.235217749447
              17 H      3.288372538398   -0.756257268728    0.490754573914
              18 H      3.977662105254    0.857845291148    1.698104543504
------------------------ !GEOMETRY! -------------------------
    Number of atoms:    19 
    Geometry Index:     6 
    Coordinates:
               0 C      1.307035302096   -0.114783619806   -0.099962430550
               1 C      0.525199083920    0.782701761554   -1.059930323186
               2 C      0.887748541035    0.412850467995   -2.498405999809
               3 N     -0.887572213669    0.609122377502   -0.772376865061
               4 O      1.976822213403    1.006162835408   -3.012629533293
               5 O      0.235581014783   -0.376384175089   -3.144216862611
               6 C      2.830842107462   -0.067912442994   -0.252167827742
               7 C      3.334846063914    1.337805860431   -0.059462219128
               8 O      3.917555772811    1.638000015062    1.116664783634
               9 O      3.204311336325    2.213266188348   -0.891920523972
              10 H      0.979008362435   -1.142967330944   -0.257384541614
              11 H      1.013606330494    0.167538729718    0.910192517677
              12 H      0.791990631660    1.823768876628   -0.879525128518
              13 H     -1.192369856131   -0.250715560278   -1.218528541695
              14 H     -1.416488587275    1.346548021551   -1.221490340522
              15 H      2.402534076929    1.569539756405   -2.332438039460
              16 H      3.123102552045   -0.387389192140   -1.250640219410
              17 H      3.284099788049   -0.752375618840    0.462771188751
              18 H      3.958107479715    0.847793049489    1.668810906509
------------------------ !GEOMETRY! -------------------------
    Number of atoms:    19 
    Geometry Index:     7 
    Coordinates:
               0 C      1.307806083228   -0.107464309568   -0.100149285743
               1 C      0.518776949754    0.787455985142   -1.062307272590
               2 C      0.879099289338    0.424674931855   -2.504684866333
               3 N     -0.892720498970    0.601787723808   -0.773490330059
               4 O      1.962874146296    1.026114234495   -3.020685264103
               5 O      0.255023937687   -0.398570451746   -3.135953316815
               6 C      2.835425357212   -0.072538811142   -0.249386047870
               7 C      3.358236082389    1.327813121612   -0.061618053867
               8 O      3.923624960948    1.631398552225    1.121783021517
               9 O      3.256245671274    2.197740879365   -0.904231665525
              10 H      0.975734322773   -1.135576121496   -0.252879833173
              11 H      1.016308878869    0.177894075301    0.910403959430
              12 H      0.775490082802    1.830910426277   -0.880979826319
              13 H     -1.191227197924   -0.261059809334   -1.219287779775
              14 H     -1.428753265354    1.335161104390   -1.222065999697
              15 H      2.373567651292    1.610445864377   -2.346388900300
              16 H      3.128513283455   -0.402401529739   -1.244700070342
              17 H      3.280122180533   -0.757369233295    0.471436423472
              18 H      3.941812084400    0.846153367473    1.682545108092
------------------------ !GEOMETRY! -------------------------
    Number of atoms:    19 
    Geometry Index:     8 
    Coordinates:
               0 C      1.309575999991   -0.111107223952   -0.099091742635
               1 C      0.517092348460    0.785351749516   -1.062337787735
               2 C      0.877864251386    0.425512403411   -2.508029298162
               3 N     -0.896925846392    0.600726628439   -0.773243057887
               4 O      1.962497148895    1.026155180925   -3.025315994976
               5 O      0.235456478990   -0.375212767013   -3.150424005091
               6 C      2.840017351027   -0.073546282088   -0.247574164552
               7 C      3.361438754267    1.329619835658   -0.062333328071
               8 O      3.920261215731    1.639440480538    1.123465032086
               9 O      3.255424733654    2.198805339514   -0.906035886198
              10 H      0.978427995957   -1.141363902624   -0.252249318160
              11 H      1.017229824673    0.173762899163    0.913379395219
              12 H      0.773935258519    1.830210723514   -0.878831642072
              13 H     -1.197656242385   -0.263564442207   -1.217791076673
              14 H     -1.434478459670    1.335319455871   -1.221162950915
              15 H      2.393125783592    1.589577330745   -2.344301176318
              16 H      3.134187113850   -0.405220784597   -1.243885871681
              17 H      3.287227117244   -0.757792139201    0.475576813352
              18 H      3.941259172211    0.855895514387    1.687546060471
------------------------ !GEOMETRY! -------------------------
    Number of atoms:    19 
    Geometry Index:     9 
    Coordinates:
               0 C      1.308933061830   -0.111420906024   -0.098966304364
               1 C      0.519246397395    0.786249674986   -1.060599034217
               2 C      0.880203425323    0.424754720980   -2.504741450761
               3 N     -0.893975722390    0.603409871812   -0.771925407771
               4 O      1.965668176902    1.023483442932   -3.021339378446
               5 O      0.243170550898   -0.383521579552   -3.142841030053
               6 C      2.837275031961   -0.072816477150   -0.251323779486
               7 C      3.353817742365    1.330657766977   -0.063045135192
               8 O      3.914554188459    1.638078660154    1.122005649661
               9 O      3.250659423482    2.199812249310   -0.906954173257
              10 H      0.977037716692   -1.140440539474   -0.253158397260
              11 H      1.018566787883    0.172822442764    0.913368457978
              12 H      0.778005376736    1.829959932456   -0.876924106080
              13 H     -1.194438474898   -0.260363915776   -1.216280888437
              14 H     -1.429624406840    1.337607333912   -1.221377372012
              15 H      2.393975269110    1.589171471698   -2.341055756958
              16 H      3.128565554605   -0.400307349588   -1.249008930020
              17 H      3.287519271160   -0.757474565376    0.468132819958
              18 H      3.936800629328    0.852907764960    1.683394216716
------------------------ !GEOMETRY! -------------------------
    Number of atoms:    19 
    Geometry Index:     10 
    Coordinates:
               0 C      1.310450714437   -0.111551397810   -0.098423473665
               1 C      0.522178466387    0.787014170629   -1.059469615400
               2 C      0.881974375551    0.423990974585   -2.503111264143
               3 N     -0.890644929239    0.605592411851   -0.770178999594
               4 O      1.962615748313    1.027223091565   -3.023733707049
               5 O      0.247709358911   -0.389560556413   -3.137241148096
               6 C      2.838099001215   -0.075279878175   -0.253627935079
               7 C      3.355122062031    1.327566891563   -0.065714669124
               8 O      3.904497499702    1.637943269018    1.123620110595
               9 O      3.250121486317    2.197266529066   -0.908790886816
              10 H      0.976219572294   -1.139526550683   -0.251989984274
              11 H      1.022355025801    0.173639341028    0.913897502969
              12 H      0.782093563337    1.830188421800   -0.876168317219
              13 H     -1.191223733031   -0.258567808204   -1.213145237170
              14 H     -1.425539778105    1.339049917555   -1.221182246622
              15 H      2.389370030574    1.596918697452   -2.345878006238
              16 H      3.126820703987   -0.402630503913   -1.251654317938
              17 H      3.289199842814   -0.759824680886    0.464740323058
              18 H      3.924540988703    0.853117659971    1.685411871808
------------------------ !GEOMETRY! -------------------------
    Number of atoms:    19 
    Geometry Index:     11 
    Coordinates:
               0 C      1.310643379382   -0.111588090803   -0.098309591284
               1 C      0.521569190445    0.787099641640   -1.059260026565
               2 C      0.881377947284    0.424545429704   -2.503372108245
               3 N     -0.891513812830    0.605255282806   -0.769892093623
               4 O      1.961573535089    1.028072331318   -3.024497242601
               5 O      0.246283095706   -0.388296280318   -3.137709508615
               6 C      2.838736555806   -0.075055377650   -0.254173859165
               7 C      3.355462765275    1.328045148595   -0.065403726451
               8 O      3.903203588293    1.638411510232    1.124800316871
               9 O      3.257376118350    2.196375002427   -0.910841237112
              10 H      0.976355238646   -1.139736634684   -0.251987933220
              11 H      1.022927919962    0.173420312154    0.914408186679
              12 H      0.781040614291    1.830472531878   -0.875522218586
              13 H     -1.191777376887   -0.259684124528   -1.211934994277
              14 H     -1.426987715118    1.338112769146   -1.221582943721
              15 H      2.390846826707    1.595097766884   -2.345895203749
              16 H      3.127085419569   -0.402069120647   -1.252623925433
              17 H      3.290600024843   -0.759849930149    0.463865102820
              18 H      3.921156685188    0.853941831993    1.687293006277
------------------------ !GEOMETRY! -------------------------
    Number of atoms:    19 
    Geometry Index:     12 
    Coordinates:
               0 C      1.311524275099   -0.112535966541   -0.098122588162
               1 C      0.522445773399    0.787269590421   -1.058349092593
               2 C      0.881502926393    0.424882245056   -2.502954988851
               3 N     -0.890844481351    0.606602523736   -0.768457226275
               4 O      1.960729127994    1.028765926029   -3.025529295481
               5 O      0.245953736995   -0.388406656936   -3.136379477990
               6 C      2.839655884946   -0.075727048454   -0.256002991993
               7 C      3.354937552866    1.327870442017   -0.066428096368
               8 O      3.896521350961    1.639755736684    1.126298460640
               9 O      3.261192808732    2.195158642031   -0.913480538849
              10 H      0.976637962820   -1.140543963719   -0.252226022565
              11 H      1.024948869891    0.172138864561    0.915147728578
              12 H      0.782743144412    1.830475946412   -0.874059266823
              13 H     -1.191601822167   -0.259036118308   -1.208984292800
              14 H     -1.426160029790    1.338991561813   -1.221309993277
              15 H      2.392962297506    1.593624142133   -2.346937420119
              16 H      3.126561881723   -0.401698036253   -1.255281162887
              17 H      3.293358311099   -0.760709346996    0.460920992362
              18 H      3.912890428472    0.855691516313    1.689495273452
------------------------ !GEOMETRY! -------------------------
    Number of atoms:    19 
    Geometry Index:     13 
    Coordinates:
               0 C      1.312573860444   -0.113446192484   -0.098082779515
               1 C      0.523710795849    0.787420137327   -1.057471262265
               2 C      0.881641604285    0.424904128440   -2.502404828663
               3 N     -0.889611982077    0.608164476238   -0.766848825466
               4 O      1.959437051276    1.029569258106   -3.026841347266
               5 O      0.245749963359   -0.389085318794   -3.134636221647
               6 C      2.840608109367   -0.076527218531   -0.257766858396
               7 C      3.354733845970    1.327373294488   -0.067536128112
               8 O      3.889314820360    1.640879170397    1.127980972210
               9 O      3.264985725759    2.193715232990   -0.915956983239
              10 H      0.977125899697   -1.141194436891   -0.252626344064
              11 H      1.027017132361    0.170870467913    0.915576165227
              12 H      0.785030585176    1.830343177359   -0.872898835771
              13 H     -1.190968050701   -0.258151517289   -1.205633840208
              14 H     -1.424632986072    1.339983872839   -1.220994480218
              15 H      2.393544740186    1.593683964704   -2.348884591055
              16 H      3.126190906349   -0.401623691355   -1.257651054680
              17 H      3.295794570072   -0.761591773234    0.458141257843
              18 H      3.903713408339    0.857282967779    1.691895985286
