30
Randomly sampled initial velocities; COM removed; AMBER units
   C      -0.1340354348      -0.0945882720      -0.3347593763
   C       1.0472502595       0.1756965007      -0.6908245429
   C       1.7679449374       0.2223710137      -0.4738158017
   C      -0.0385208190      -0.0803243349       0.7854638274
   C       0.0544257867       0.4820497705      -0.2624063474
   C       0.7024702302      -0.0837851387      -1.0954456208
   H       2.4387061035       0.7864857818      -1.7758892830
   H      -1.6990207122      -0.8084650871      -4.6270945137
   C      -2.1164699690       1.2787753698       0.1293550113
   H      -1.1964771378       0.0670793791      -2.0779189661
   H       2.5907485753      -3.8218494602      -0.0626836885
   H      -0.5849603002      -2.9618799284       1.4896837906
   C       0.8336083295      -0.2988400628       0.0737814157
   H       2.9436555743      -0.7781552080       5.2686873032
   H       1.1633191949      -0.7940214073       2.7025320707
   H      -2.9302396280       1.0726288878      -1.9384464863
   S      -0.2351462693      -0.0315316588       0.0755565748
   C       0.0551836221      -1.3566739937       0.0667291387
   H       0.5862318304      -2.9050743763       2.1266917358
   H       3.3493563307       1.5175437981      -0.5257867687
   H      -5.4580746954       1.2774636582       0.5319868717
   O       0.1581090064       0.0181426751       0.0264838681
   C      -1.3637216835      -0.5303712620       0.5651072262
   N      -0.9840528561      -0.1653802812       0.1746723741
   C      -0.3961768974      -0.4468330788       0.8389536265
   H      -3.2116061958       1.5185322208       0.2362070161
   H       4.2111107256      -1.5661579727      -1.2079573366
   H       1.7001546609       0.6887529389      -0.2251711503
   H       2.0003052796       0.1991878977       1.4159829249
   O       0.4924087258       1.1492971468      -0.1157966523
