30
-1.0317159895965494e+03 frame 0   xyz file generated by TeraChem
     C    -5.6046700437    2.1738830389    0.2966491162
     C    -5.8980633660    0.8317502332    0.0742219168
     C    -4.4647088545    2.5290667476    0.9954894511
     C    -3.6001407668    1.5678457522    1.4894006950
     C    -3.8663936108    0.2182903821    1.2820564318
     C    -5.0167981239   -0.1431093084    0.5642057254
     H    -6.2647927490    2.9534749877   -0.0626476783
     H    -2.7241958959    1.8821901587    2.0433434042
     C    -7.1477916109    0.4648052354   -0.6774916731
     H    -7.6921967079    1.3601724112   -0.9723314858
     H    -7.7999061418   -0.1577728208   -0.0650840284
     H    -6.9166017057   -0.1120677144   -1.5739703553
     C    -2.9239094125   -0.8130715049    1.8388729569
     H    -2.0918540931   -0.3321236737    2.3495796399
     H    -2.5237719791   -1.4535405604    1.0518159032
     H    -3.4383987192   -1.4674832306    2.5426852524
     S    -5.3680718855   -1.8656539928    0.2851460812
     C    -4.4742383100   -2.0770019141   -1.2744845628
     H    -4.8837674217   -1.4233087382   -2.0429491627
     H    -4.6024120413   -3.1140339374   -1.5797889908
     H    -3.4136496162   -1.8696236389   -1.1431633757
     O    -4.2143503065    3.8638056805    1.2375644531
     C    -3.3931378862    4.5897463840    0.4158623578
     N    -2.8705086670    3.9160650624   -0.6372013908
     C    -2.0346098267    4.6039433808   -1.5985913577
     H    -2.6236882994    5.0724050216   -2.3894319688
     H    -1.3388314770    3.8937604475   -2.0413080590
     H    -1.4758479943    5.3792662353   -1.0805243222
     H    -3.1778261130    2.9788715133   -0.8307636461
     O    -3.1793063744    5.7414783622    0.6700186724
30
-1.0317167360779074e+03 frame 1   xyz file generated by TeraChem
     C    -5.6068298658    2.1736887271    0.2966594786
     C    -5.9008580288    0.8296293788    0.0738801555
     C    -4.4654020331    2.5296822913    0.9963887393
     C    -3.5997091982    1.5671910230    1.4910048803
     C    -3.8657457709    0.2155157384    1.2837817521
     C    -5.0180712390   -0.1469367785    0.5647483404
     H    -6.2672581001    2.9535286972   -0.0628003853
     H    -2.7234263053    1.8814906187    2.0451370530
     C    -7.1519858013    0.4646409827   -0.6784962894
     H    -7.6955498002    1.3614612695   -0.9728422348
     H    -7.8055962100   -0.1577948096   -0.0664622891
     H    -6.9220574661   -0.1121484861   -1.5760521609
     C    -2.9211551439   -0.8146307658    1.8419365051
     H    -2.0892324602   -0.3318403529    2.3525666813
     H    -2.5195906510   -1.4557044954    1.0553356317
     H    -3.4345902257   -1.4697103773    2.5468119090
     S    -5.3705520533   -1.8714707262    0.2853223829
     C    -4.4770813486   -2.0879372500   -1.2766252020
     H    -4.8859074312   -1.4350519490   -2.0470409601
     H    -4.6071676025   -3.1259609030   -1.5801041123
     H    -3.4152822102   -1.8822150402   -1.1469619142
     O    -4.2146713667    3.8664872894    1.2390370666
     C    -3.3919559932    4.5961158921    0.4172216084
     N    -2.8671699883    3.9233683743   -0.6383016440
     C    -2.0304186231    4.6118475698   -1.6004571188
     H    -2.6195866188    5.0806530028   -2.3921118457
     H    -1.3340907910    3.9012311538   -2.0433513422
     H    -1.4713402232    5.3876725847   -1.0823353354
     H    -3.1736474907    2.9855017034   -0.8337039539
     O    -3.1785099600    5.7537256371    0.6749946040
30
-1.0317176960481154e+03 frame 2   xyz file generated by TeraChem
     C    -5.6139328387    2.1759925333    0.2967820434
     C    -5.9092311312    0.8253097076    0.0731662424
     C    -4.4676830124    2.5344175259    0.9992914606
     C    -3.5976700216    1.5684733245    1.4962391851
     C    -3.8631544537    0.2098810570    1.2890483497
     C    -5.0213463558   -0.1564174615    0.5666036841
     H    -6.2765039428    2.9558553593   -0.0635278025
     H    -2.7202287640    1.8833006820    2.0509172246
     C    -7.1651198521    0.4649386041   -0.6811712125
     H    -7.7070382907    1.3662469730   -0.9742703939
     H    -7.8236623488   -0.1575855792   -0.0701047526
     H    -6.9395176262   -0.1118732215   -1.5826696579
     C    -2.9125077253   -0.8182934237    1.8504488709
     H    -2.0799025483   -0.3309395143    2.3613904020
     H    -2.5067249945   -1.4613732295    1.0644844350
     H    -3.4227911821   -1.4762685914    2.5586736524
     S    -5.3775344815   -1.8897319120    0.2867414129
     C    -4.4855354150   -2.1278985612   -1.2855132725
     H    -4.8920677161   -1.4794997023   -2.0644392917
     H    -4.6230549687   -3.1702330383   -1.5802638168
     H    -3.4189447141   -1.9284341618   -1.1632689228
     O    -4.2156211430    3.8782580722    1.2448000736
     C    -3.3879840861    4.6175674746    0.4222942777
     N    -2.8577803166    3.9479711751   -0.6389301794
     C    -2.0171319959    4.6369404091   -1.6047820937
     H    -2.6063653211    5.1070489707   -2.3998966750
     H    -1.3197657861    3.9230813144   -2.0477233047
     H    -1.4557106714    5.4145559989   -1.0872402561
     H    -3.1636529479    3.0077340110   -0.8380016723
     O    -3.1762753482    5.7830052041    0.6881019899
30
-1.0317177623959888e+03 frame 3   xyz file generated by TeraChem
     C    -5.6147528138    2.1792202203    0.2973938325
     C    -5.9089743276    0.8278579553    0.0734865834
     C    -4.4684464340    2.5375555206    1.0002355199
     C    -3.5973861765    1.5720445943    1.4970872917
     C    -3.8623346006    0.2130403385    1.2890820185
     C    -5.0204635390   -0.1537206343    0.5665075254
     H    -6.2788217752    2.9581966506   -0.0630525751
     H    -2.7199212158    1.8873042464    2.0520012389
     C    -7.1653480005    0.4662708001   -0.6810795834
     H    -7.7082761158    1.3678474437   -0.9740873544
     H    -7.8246215359   -0.1571044846   -0.0703783161
     H    -6.9404821328   -0.1103617325   -1.5837150265
     C    -2.9111265773   -0.8161506771    1.8496550547
     H    -2.0777751862   -0.3291920082    2.3613579375
     H    -2.5045840729   -1.4590264843    1.0629755357
     H    -3.4206290959   -1.4757821606    2.5579903892
     S    -5.3771113626   -1.8905918895    0.2869533760
     C    -4.4852745988   -2.1362294165   -1.2899412551
     H    -4.8913722258   -1.4902178671   -2.0719838536
     H    -4.6252730888   -3.1800864242   -1.5805938620
     H    -3.4172766830   -1.9386994490   -1.1706836151
     O    -4.2170849790    3.8823050886    1.2476800717
     C    -3.3880300032    4.6221417554    0.4245500127
     N    -2.8590040232    3.9501420525   -0.6352149979
     C    -2.0166195781    4.6346863258   -1.6041568416
     H    -2.6053498560    5.1040508018   -2.4012152500
     H    -1.3209530186    3.9169275075   -2.0452043904
     H    -1.4526078726    5.4130672122   -1.0893185358
     H    -3.1675756949    3.0096599407   -0.8308464229
     O    -3.1769634155    5.7868747736    0.6916954921
30
-1.0317177890980211e+03 frame 4   xyz file generated by TeraChem
     C    -5.6150155555    2.1797064194    0.2969606377
     C    -5.9088394598    0.8286698698    0.0736413008
     C    -4.4691954890    2.5376358294    0.9992801858
     C    -3.5978879949    1.5730308291    1.4961020776
     C    -3.8623072534    0.2144946843    1.2883160374
     C    -5.0202643766   -0.1515074209    0.5665142072
     H    -6.2799418361    2.9578908772   -0.0634784651
     H    -2.7202749677    1.8881242943    2.0507817937
     C    -7.1657927307    0.4666666537   -0.6802476268
     H    -7.7088485040    1.3686173923   -0.9732587266
     H    -7.8264208999   -0.1563253769   -0.0700084289
     H    -6.9430425555   -0.1099331310   -1.5838426356
     C    -2.9101030974   -0.8143246269    1.8483542188
     H    -2.0762963612   -0.3271790349    2.3599833419
     H    -2.5025143606   -1.4571024756    1.0616657993
     H    -3.4174201730   -1.4754131718    2.5573991854
     S    -5.3790592333   -1.8923716741    0.2906344131
     C    -4.4879035960   -2.1471889726   -1.2918647787
     H    -4.8938706579   -1.5047243322   -2.0771591911
     H    -4.6317596755   -3.1926080739   -1.5756551320
     H    -3.4188014086   -1.9523319046   -1.1761312153
     O    -4.2197859059    3.8825337352    1.2482533472
     C    -3.3889224561    4.6235903400    0.4246732939
     N    -2.8566252716    3.9551964313   -0.6344474680
     C    -2.0134328434    4.6410453103   -1.6018332593
     H    -2.6014770422    5.1098964134   -2.4001239412
     H    -1.3165907476    3.9232382814   -2.0415156133
     H    -1.4507293913    5.4201497579   -1.0860782521
     H    -3.1643502900    3.0146387553   -0.8297845140
     O    -3.1769658653    5.7879143211    0.6900494083
30
-1.0317177989020879e+03 frame 5   xyz file generated by TeraChem
     C    -5.6143950251    2.1817442559    0.2963124820
     C    -5.9074167932    0.8306528408    0.0726313210
     C    -4.4689437073    2.5400555853    0.9988604696
     C    -3.5970950702    1.5759319694    1.4954132893
     C    -3.8608647048    0.2174241681    1.2868676090
     C    -5.0184240394   -0.1486185155    0.5651691417
     H    -6.2798034237    2.9596133448   -0.0636819021
     H    -2.7197181357    1.8912581893    2.0502276836
     C    -7.1639575130    0.4676438679   -0.6809831766
     H    -7.7076587116    1.3691966692   -0.9738552978
     H    -7.8246017547   -0.1556231146   -0.0712043775
     H    -6.9414853835   -0.1084113964   -1.5848998394
     C    -2.9085392245   -0.8115621339    1.8456743313
     H    -2.0747400340   -0.3249062310    2.3576483487
     H    -2.5005436472   -1.4533608690    1.0584839705
     H    -3.4148673431   -1.4737762756    2.5542400839
     S    -5.3781870425   -1.8903122293    0.2908332080
     C    -4.4874903441   -2.1466991344   -1.2932643253
     H    -4.8938776434   -1.5051041660   -2.0788043838
     H    -4.6327556454   -3.1924144197   -1.5746817974
     H    -3.4183515070   -1.9526243886   -1.1782001919
     O    -4.2214731039    3.8848144089    1.2494665520
     C    -3.3905194391    4.6256039285    0.4267753951
     N    -2.8593848489    3.9528390134   -0.6301832355
     C    -2.0152453852    4.6329449346   -1.6002664404
     H    -2.6025190460    5.0996243630   -2.4002138994
     H    -1.3203403193    3.9116354949   -2.0369751356
     H    -1.4507942029    5.4128257605   -1.0878594765
     H    -3.1691022939    3.0120863275   -0.8217352985
     O    -3.1813446672    5.7895477522    0.6953848920
30
-1.0317178040798872e+03 frame 6   xyz file generated by TeraChem
     C    -5.6143791914    2.1809494415    0.2955611041
     C    -5.9076168907    0.8297869882    0.0722453051
     C    -4.4687910384    2.5395010945    0.9979613861
     C    -3.5969577408    1.5753768999    1.4946977926
     C    -3.8608481384    0.2167721818    1.2864869796
     C    -5.0185586665   -0.1493963747    0.5650251425
     H    -6.2796356848    2.9589173063   -0.0644292498
     H    -2.7195219945    1.8907886672    2.0493363315
     C    -7.1641674688    0.4666987754   -0.6809952646
     H    -7.7077768256    1.3681421593   -0.9740525642
     H    -7.8247557781   -0.1562055184   -0.0709758007
     H    -6.9418539442   -0.1095381365   -1.5847159511
     C    -2.9086153134   -0.8121052342    1.8452408403
     H    -2.0747809386   -0.3254753556    2.3569708547
     H    -2.5007891228   -1.4539130273    1.0580947612
     H    -3.4148031659   -1.4741451313    2.5539136805
     S    -5.3789297998   -1.8907127194    0.2919433042
     C    -4.4888207774   -2.1473154976   -1.2917857746
     H    -4.8954931343   -1.5058023253   -2.0770806707
     H    -4.6344072678   -3.1930350551   -1.5726659835
     H    -3.4197984377   -1.9533273739   -1.1766575909
     O    -4.2214661923    3.8842305408    1.2485291200
     C    -3.3905170113    4.6253924657    0.4263797816
     N    -2.8581942567    3.9540013097   -0.6309227477
     C    -2.0141817953    4.6358558031   -1.5997270041
     H    -2.6013813494    5.1027138027   -2.3994689503
     H    -1.3183783993    3.9157389738   -2.0367365353
     H    -1.4508336522    5.4156820725   -1.0861837327
     H    -3.1669029013    3.0131557182   -0.8236157039
     O    -3.1812831226    5.7892975489    0.6948071403
30
-1.0317178153112736e+03 frame 7   xyz file generated by TeraChem
     C    -5.6143554095    2.1794038527    0.2924926479
     C    -5.9077838485    0.8279396567    0.0703062002
     C    -4.4684858110    2.5388810904    0.9944454550
     C    -3.5962738692    1.5750824420    1.4916456281
     C    -3.8599997730    0.2161283393    1.2842334345
     C    -5.0181352259   -0.1505520302    0.5636908266
     H    -6.2796678834    2.9573889755   -0.0672888764
     H    -2.7186870279    1.8909577406    2.0457522270
     C    -7.1644880297    0.4642118314   -0.6814927014
     H    -7.7081191872    1.3653368989   -0.9750271145
     H    -7.8251369904   -0.1576155197   -0.0708306468
     H    -6.9431609258   -0.1123602557   -1.5850150237
     C    -2.9073328127   -0.8121047343    1.8422963791
     H    -2.0733844206   -0.3253079390    2.3533435832
     H    -2.4994664915   -1.4534253034    1.0549935088
     H    -3.4120962743   -1.4744802883    2.5513529868
     S    -5.3812625458   -1.8916067866    0.2963782542
     C    -4.4939944932   -2.1521686482   -1.2877067583
     H    -4.9019365785   -1.5120787452   -2.0730825661
     H    -4.6420232945   -3.1984769987   -1.5643591505
     H    -3.4249704538   -1.9593377052   -1.1735813878
     O    -4.2228037969    3.8836379460    1.2461864852
     C    -3.3913305112    4.6264107790    0.4264324439
     N    -2.8550506835    3.9579264864   -0.6309074100
     C    -2.0105973091    4.6431662165   -1.5966105285
     H    -2.5970303087    5.1096436209   -2.3968417850
     H    -1.3123926007    3.9253107053   -2.0330644029
     H    -1.4502289362    5.4233402492   -1.0806381851
     H    -3.1612125637    3.0166141165   -0.8257155445
     O    -3.1830319439    5.7901640073    0.6957920211
30
-1.0317178231444077e+03 frame 8   xyz file generated by TeraChem
     C    -5.6142559542    2.1781951940    0.2883317123
     C    -5.9076536287    0.8265059596    0.0676032425
     C    -4.4682773950    2.5385532167    0.9895618107
     C    -3.5955051996    1.5755457602    1.4872034400
     C    -3.8585585819    0.2162716832    1.2808423220
     C    -5.0172623684   -0.1514093036    0.5615197848
     H    -6.2801032300    2.9558813009   -0.0712258137
     H    -2.7177536763    1.8921856022    2.0406614015
     C    -7.1648812883    0.4617238195   -0.6823651569
     H    -7.7087796469    1.3625398011   -0.9764945900
     H    -7.8255238406   -0.1589470805   -0.0705572911
     H    -6.9447540159   -0.1153452587   -1.5858526407
     C    -2.9046188237   -0.8109608813    1.8380746725
     H    -2.0705583616   -0.3234662325    2.3483246364
     H    -2.4963503282   -1.4515248004    1.0503352557
     H    -3.4074314269   -1.4741395529    2.5477453110
     S    -5.3840457933   -1.8925447710    0.3021710272
     C    -4.5014810621   -2.1612984472   -1.2829548648
     H    -4.9110429327   -1.5237363300   -2.0693818880
     H    -4.6531539836   -3.2087426596   -1.5533221275
     H    -3.4319403547   -1.9704986449   -1.1713204301
     O    -4.2250048879    3.8833898896    1.2434068729
     C    -3.3925126360    4.6287027247    0.4272345474
     N    -2.8514371640    3.9629821750   -0.6295568448
     C    -2.0058946254    4.6518563061   -1.5918265399
     H    -2.5911793916    5.1177181962   -2.3932375245
     H    -1.3046226326    3.9363411904   -2.0272132239
     H    -1.4490442583    5.4327074315   -1.0730747682
     H    -3.1546653323    3.0211398485   -0.8264468445
     O    -3.1861471795    5.7924038633    0.6989945121
30
-1.0317178308553262e+03 frame 9   xyz file generated by TeraChem
     C    -5.6138816514    2.1776627496    0.2821050277
     C    -5.9066972910    0.8253575095    0.0637020279
     C    -4.4674708286    2.5399635898    0.9823142209
     C    -3.5937007978    1.5775225928    1.4803048192
     C    -3.8562870584    0.2178360481    1.2747918032
     C    -5.0156292394   -0.1517128487    0.5576983088
     H    -6.2811975919    2.9541656656   -0.0771329511
     H    -2.7157681798    1.8951807840    2.0329040145
     C    -7.1655175731    0.4587444421   -0.6834414530
     H    -7.7100447847    1.3590563579   -0.9783742948
     H    -7.8251147198   -0.1604384981   -0.0689224872
     H    -6.9466895684   -0.1193447060   -1.5867202821
     C    -2.9006551912   -0.8093963723    1.8299094603
     H    -2.0661735834   -0.3215856154    2.3393866699
     H    -2.4925228612   -1.4481460971    1.0404268591
     H    -3.4018009997   -1.4738829230    2.5396088481
     S    -5.3867794718   -1.8933519265    0.3121702421
     C    -4.5135871751   -2.1791043285   -1.2749790622
     H    -4.9255729652   -1.5470629075   -2.0646981881
     H    -4.6697325823   -3.2283777883   -1.5358853492
     H    -3.4427277471   -1.9912081922   -1.1703138146
     O    -4.2296211317    3.8853915416    1.2393156979
     C    -3.3951233504    4.6343809819    0.4288129392
     N    -2.8458206078    3.9714211889   -0.6255460628
     C    -1.9985278347    4.6646166296   -1.5833714922
     H    -2.5819134038    5.1278798527   -2.3878008302
     H    -1.2915452474    3.9527138073   -2.0156888888
     H    -1.4480493150    5.4477819655   -1.0613223383
     H    -3.1430177866    3.0282351928   -0.8254706238
     O    -3.1932694612    5.7977313038    0.7033971796
30
-1.0317178304303648e+03 frame 10   xyz file generated by TeraChem
     C    -5.6155182230    2.1760146771    0.2764311399
     C    -5.9068175167    0.8236540259    0.0602693536
     C    -4.4696205713    2.5394736689    0.9750988574
     C    -3.5943629932    1.5797852063    1.4734748547
     C    -3.8540207166    0.2197286195    1.2700175309
     C    -5.0144533231   -0.1526402518    0.5544334972
     H    -6.2846909565    2.9510861647   -0.0827128553
     H    -2.7166018371    1.8993810112    2.0253341812
     C    -7.1667451867    0.4548337424   -0.6843209015
     H    -7.7122614534    1.3543766312   -0.9799901326
     H    -7.8246249777   -0.1636250694   -0.0671170966
     H    -6.9484370652   -0.1244174110   -1.5870458894
     C    -2.8924420783   -0.8017420856    1.8262076466
     H    -2.0600045377   -0.3084653027    2.3340182554
     H    -2.4816374526   -1.4390970347    1.0369490049
     H    -3.3897547545   -1.4676146175    2.5373012827
     S    -5.3918199330   -1.8939311407    0.3173351019
     C    -4.5267994945   -2.1908066394   -1.2720162309
     H    -4.9394304263   -1.5609894437   -2.0633661711
     H    -4.6873519345   -3.2405932658   -1.5285204749
     H    -3.4545335913   -2.0066212640   -1.1736294724
     O    -4.2339344405    3.8841860386    1.2358228136
     C    -3.3959644424    4.6352941314    0.4305530853
     N    -2.8413733786    3.9740326907   -0.6217919469
     C    -1.9913347065    4.6709215275   -1.5748900517
     H    -2.5722553806    5.1340413760   -2.3813600384
     H    -1.2805345142    3.9615457121   -2.0053392728
     H    -1.4450115675    5.4547152625   -1.0491690617
     H    -3.1360056797    3.0305525757   -0.8235516698
     O    -3.1960968666    5.7989504645    0.7087546607
30
-1.0317178364278825e+03 frame 11   xyz file generated by TeraChem
     C    -5.6149245700    2.1772100263    0.2797186313
     C    -5.9069432712    0.8248630852    0.0622809143
     C    -4.4687612795    2.5401119531    0.9790436606
     C    -3.5941049654    1.5790461736    1.4770498881
     C    -3.8552485847    0.2192688061    1.2723758747
     C    -5.0150045268   -0.1516906887    0.5562026464
     H    -6.2832565100    2.9530006430   -0.0793555125
     H    -2.7162742370    1.8976500519    2.0293242646
     C    -7.1665544083    0.4574706902   -0.6835641137
     H    -7.7114785503    1.3575630899   -0.9786221171
     H    -7.8251210840   -0.1615161146   -0.0676089081
     H    -6.9480622466   -0.1212141073   -1.5866089490
     C    -2.8969909710   -0.8057544578    1.8276153568
     H    -2.0633537481   -0.3157065312    2.3364926363
     H    -2.4878898988   -1.4436629203    1.0378797491
     H    -3.3967087480   -1.4710360749    2.5376586165
     S    -5.3879900476   -1.8936976158    0.3150006377
     C    -4.5188778318   -2.1846443093   -1.2735863622
     H    -4.9314008230   -1.5541016320   -2.0644336825
     H    -4.6762071746   -3.2342588753   -1.5327735213
     H    -3.4473100319   -1.9977452334   -1.1728037333
     O    -4.2321541111    3.8852965522    1.2377206209
     C    -3.3956524241    4.6351048347    0.4296225397
     N    -2.8438696541    3.9721233395   -0.6232993750
     C    -1.9950738700    4.6663258587   -1.5793381391
     H    -2.5771913506    5.1291017300   -2.3851164255
     H    -1.2862848005    3.9552280551   -2.0102331434
     H    -1.4464909875    5.4501488284   -1.0560755195
     H    -3.1400279849    3.0287133540   -0.8233524385
     O    -3.1952313088    5.7988314887    0.7059659039
30
-1.0317178357084572e+03 frame 12   xyz file generated by TeraChem
     C    -5.6150440705    2.1772910847    0.2796485485
     C    -5.9069502444    0.8248611554    0.0623305426
     C    -4.4688540310    2.5403987827    0.9788676970
     C    -3.5940853352    1.5793336032    1.4768544363
     C    -3.8551478108    0.2194908782    1.2722290619
     C    -5.0149345882   -0.1516209568    0.5561898596
     H    -6.2834913670    2.9529838883   -0.0794187217
     H    -2.7162724761    1.8979462750    2.0291373122
     C    -7.1666025540    0.4570712075   -0.6832911557
     H    -7.7117267253    1.3570001832   -0.9784569214
     H    -7.8248589220   -0.1619980658   -0.0670600371
     H    -6.9480476757   -0.1218416906   -1.5861868669
     C    -2.8968679550   -0.8056244713    1.8273502560
     H    -2.0632454102   -0.3156132282    2.3362879103
     H    -2.4878359277   -1.4434280579    1.0374746371
     H    -3.3966777720   -1.4710047923    2.5372585729
     S    -5.3880087629   -1.8937525824    0.3152289324
     C    -4.5193706469   -2.1848278287   -1.2736389607
     H    -4.9319134847   -1.5543121330   -2.0645396790
     H    -4.6766669811   -3.2344140690   -1.5330062467
     H    -3.4477199592   -1.9978982566   -1.1734456820
     O    -4.2326375225    3.8857194042    1.2373807850
     C    -3.3958723490    4.6354710264    0.4294875809
     N    -2.8435104874    3.9722708621   -0.6229837956
     C    -1.9945334340    4.6662859941   -1.5790102153
     H    -2.5764812480    5.1285894765   -2.3851992976
     H    -1.2853769220    3.9551880882   -2.0093285198
     H    -1.4463614413    5.4505017352   -1.0558936558
     H    -3.1393336625    3.0287019843   -0.8227811434
     O    -3.1960102334    5.7992605035    0.7056947660
30
-1.0317178357084572e+03 frame 13   xyz file generated by TeraChem
     C    -5.6150440705    2.1772910847    0.2796485485
     C    -5.9069502444    0.8248611554    0.0623305426
     C    -4.4688540310    2.5403987827    0.9788676970
     C    -3.5940853352    1.5793336032    1.4768544363
     C    -3.8551478108    0.2194908782    1.2722290619
     C    -5.0149345882   -0.1516209568    0.5561898596
     H    -6.2834913670    2.9529838883   -0.0794187217
     H    -2.7162724761    1.8979462750    2.0291373122
     C    -7.1666025540    0.4570712075   -0.6832911557
     H    -7.7117267253    1.3570001832   -0.9784569214
     H    -7.8248589220   -0.1619980658   -0.0670600371
     H    -6.9480476757   -0.1218416906   -1.5861868669
     C    -2.8968679550   -0.8056244713    1.8273502560
     H    -2.0632454102   -0.3156132282    2.3362879103
     H    -2.4878359277   -1.4434280579    1.0374746371
     H    -3.3966777720   -1.4710047923    2.5372585729
     S    -5.3880087629   -1.8937525824    0.3152289324
     C    -4.5193706469   -2.1848278287   -1.2736389607
     H    -4.9319134847   -1.5543121330   -2.0645396790
     H    -4.6766669811   -3.2344140690   -1.5330062467
     H    -3.4477199592   -1.9978982566   -1.1734456820
     O    -4.2326375225    3.8857194042    1.2373807850
     C    -3.3958723490    4.6354710264    0.4294875809
     N    -2.8435104874    3.9722708621   -0.6229837956
     C    -1.9945334340    4.6662859941   -1.5790102153
     H    -2.5764812480    5.1285894765   -2.3851992976
     H    -1.2853769220    3.9551880882   -2.0093285198
     H    -1.4463614413    5.4505017352   -1.0558936558
     H    -3.1393336625    3.0287019843   -0.8227811434
     O    -3.1960102334    5.7992605035    0.7056947660
