20
Coordinates from ORCA-job job
  C   0.02522450766439     -0.53899005046355      1.23042428426886
  N   -1.03608160234551      0.26966159859637      0.90577011034401
  C   -0.89346697998851      0.52224883213577     -0.38535549175861
  N   0.21416252349683     -0.08863033583159     -0.89037046666644
  C   0.82611378073569     -0.77909925730655      0.12609338343275
  C   1.99850729239272     -1.67169044010553     -0.07932790496416
  C   1.61154866928794     -3.16328533134080     -0.09537587843862
  C   0.55072820271445     -3.39088797375896     -1.17447776219909
  N   2.80788870036700     -3.95770551019203     -0.29137818232427
  O   -0.72218763398267     -3.07127658335879     -0.85102958232923
  O   0.81656270008087     -3.81394821933426     -2.27526062528665
  H   0.17910382078642     -0.88905047714711      2.23886137767749
  H   -1.54637430907984      1.13075129289502     -0.98779908486096
  H   0.50918701405640     -0.08104812512080     -1.85443813099232
  H   2.73314411003614     -1.53909048406820      0.71411044074847
  H   2.49725252517812     -1.43762581248922     -1.02371327507902
  H   1.18154300401038     -3.40923458167862      0.87859361908037
  H   3.06998055497162     -3.90333079641647     -1.27184532669910
  H   2.60118785680800     -4.93624673287799     -0.12389929768336
  H   -0.73136473719046     -2.61045101213665      0.00434779372986
