14
Coordinates from ORCA-job ethylacetate
  C   -0.96074891611814     -1.34224273725726      0.01399523931670
  C   0.27147202066822     -0.47187982828158      0.02014675157812
  H   4.74696069768197     -0.93586055007090     -0.04973890662968
  H   3.76722421676679     -2.09070995746824      0.88622899704219
  H   3.73887871232371     -2.13530855671195     -0.89518118167609
  H   -1.31556532057637     -1.44147775571936     -1.02280963718414
  H   -0.75653061878374     -2.34456601984215      0.40701844701048
  H   -1.75166292468857     -0.85181961404064      0.59287663191859
  O   1.40450324718334     -1.22532598425340      0.01113237382618
  H   2.67871673863484      0.19823909184059      0.84230063377487
  O   0.26986629686103      0.74302958134002      0.01186706045278
  C   2.64820828960323     -0.47498028450496     -0.02744959927264
  C   3.78715526596557     -1.47122719994934     -0.02107804808200
  H   2.65072229447809      0.15417981491916     -0.93035876207537
