30
Central geometry for initial conditions; COM at origin
   C      -2.2488578449      -1.2278271718      -0.4594405670
   C      -2.3806061670      -2.5932867997      -0.2100057512
   C      -1.0704739869      -0.5800551162      -0.0947401179
   C      -0.0145765800      -1.2588896522       0.5250556021
   C      -0.1662617170      -2.6334927873       0.7521451879
   C      -1.3366877521      -3.3002728903       0.3931040002
   H      -3.0506160778      -0.6635577269      -0.9194841016
   H      -3.2978719583      -3.1023327154      -0.4884498029
   H       0.6498981901      -3.1776568841       1.2188982929
   H      -1.4352376891      -4.3641445918       0.5837901453
   O      -0.8623771412       0.7618502369      -0.4031754416
   C      -1.7745517985       1.7063302328       0.0206899836
   O      -2.7477863267       1.4733437777       0.7108154563
   N      -1.3851528919       2.9208711031      -0.4425064180
   C      -2.1675192300       4.1229564322      -0.2152647336
   H      -2.7416629035       4.4081109753      -1.1047457580
   H      -1.5119648857       4.9511267847       0.0682303182
   H      -2.8638134883       3.9242493954       0.6000314281
   C       1.2489529397      -0.5457904302       0.9132631771
   S       2.4629259667      -0.5814383066      -0.4766777457
   H       1.7030718329      -1.0338077501       1.7803498829
   H       1.0421732270       0.4981677595       1.1597771258
   C       3.8131835011       0.3836260798       0.3070817032
   C       5.0072488514       0.4843400443      -0.6397765043
   H       4.1038345183      -0.1115629151       1.2402688079
   H       3.4339759490       1.3809337242       0.5562198859
   H       5.3997878212      -0.5068201204      -0.8871039594
   H       5.8118941456       1.0617196382      -0.1723325833
   H       4.7306307421       0.9828720976      -1.5741890412
   H      -0.5856082633       2.9416687013      -1.0583031227
