! B3LYP 6-31G* Opt Freq
%maxcore 1536
%pal
nprocs 8
end
*xyz 0 1
  C   -5.57723946129154      2.18275340584840      0.29264801529671
  C   -5.87930156075827      0.84216598063186      0.06030883401746
  C   -4.44129944134537      2.52895116135925      1.00577719640562
  C   -3.58774113751843      1.55717134129270      1.50263798618394
  C   -3.86004405362175      0.20810433876439      1.28716633396056
  C   -5.00931079124992     -0.14424795841154      0.55672171356746
  H   -6.23000517621512      2.96627085264208     -0.06974560225929
  H   -2.71478002212112      1.86123985415608      2.06535426904341
  C   -7.12593385403886      0.49386121807554     -0.70631154209325
  H   -7.65890848382025      1.39783528202130     -0.99936814369947
  H   -7.79478122458711     -0.12677713818740     -0.10901056213546
  H   -6.89634350922954     -0.07644774073567     -1.60806744389626
  C   -2.92336714505190     -0.82807118670664      1.84580282326701
  H   -2.10551153488169     -0.35281489048653      2.38640313108063
  H   -2.49578930966330     -1.44875025135170      1.05636287233391
  H   -3.44427545932872     -1.50440834988120      2.52426955109859
  S   -5.39287448656682     -1.86971936459781      0.29608549692632
  C   -4.49989550571704     -2.16401254779542     -1.26374663141227
  H   -4.89071167539241     -1.53291265228425     -2.06088907720607
  H   -4.66009048211435     -3.20973598660550     -1.52441307875735
  H   -3.43240725439858     -1.98539373107545     -1.14210291764624
  O   -4.18719521642016      3.86464690850649      1.26935466254713
  C   -3.38082716413922      4.61973595463484      0.44185262057724
  N   -2.87259917499748      3.96311067582281     -0.63058461818319
  C   -2.06512027519195      4.65406601850464     -1.61664884306458
  H   -2.67414878869410      5.09091013561193     -2.41312840697361
  H   -1.35491271565988      3.95392760500386     -2.05612781055239
  H   -1.51973558664304      5.45551076835652     -1.12401848653805
  H   -3.17551006050466      3.02280436119073     -0.81701512751382
  O   -3.17377944883704      5.77225593569557      0.71761278562533
*
