20
Coordinates from ORCA-job job
  C   0.04175925319408     -0.46655755118104      1.25561664850702
  N   -0.98300806095028      0.40951994911172      0.95957129457481
  C   -0.87892046380837      0.64360433965812     -0.33263790659004
  N   0.16838523323099     -0.04388229285108     -0.88318451669705
  C   0.77891733552549     -0.76942254307099      0.12561565719632
  C   1.94926286587994     -1.67840897494475     -0.09860701397279
  C   1.60618404258166     -3.19609423873593     -0.11710939176546
  C   0.57751790450161     -3.49111266533875     -1.22631543908917
  N   2.83790821926700     -3.96038815825417     -0.26035314339947
  O   -0.72376671424576     -3.23427750373862     -0.93859461854333
  O   0.88405681027071     -3.91550874116886     -2.31534262588480
  H   0.21059307500797     -0.81516436905023      2.27048541609931
  H   -1.52181893697210      1.29335762151824     -0.91697008757952
  H   0.43295481087026     -0.04630857915500     -1.85878821356474
  H   2.69346924506911     -1.54046926088404      0.69567787395338
  H   2.44909617348026     -1.42946719461018     -1.04694551267452
  H   1.15741457078289     -3.45218896467003      0.85446452934823
  H   3.14795170182682     -3.92077493226268     -1.23120978316475
  H   2.66684466938261     -4.94497895758185     -0.06805847907818
  H   -0.80214173489490     -2.80040698278984     -0.07338468767526
